%!PS-Adobe-3.0 EPSF-3.0
%%Creator: cairo 1.13.1 (http://cairographics.org)
%%CreationDate: Mon Feb 22 22:28:24 2016
%%Pages: 1
%%DocumentData: Clean7Bit
%%LanguageLevel: 3
%%BoundingBox: 0 -1 69 69
%%EndComments
%%BeginProlog
save
50 dict begin
/q { gsave } bind def
/Q { grestore } bind def
/cm { 6 array astore concat } bind def
/w { setlinewidth } bind def
/J { setlinecap } bind def
/j { setlinejoin } bind def
/M { setmiterlimit } bind def
/d { setdash } bind def
/m { moveto } bind def
/l { lineto } bind def
/c { curveto } bind def
/h { closepath } bind def
/re { exch dup neg 3 1 roll 5 3 roll moveto 0 rlineto
      0 exch rlineto 0 rlineto closepath } bind def
/S { stroke } bind def
/f { fill } bind def
/f* { eofill } bind def
/n { newpath } bind def
/W { clip } bind def
/W* { eoclip } bind def
/BT { } bind def
/ET { } bind def
/pdfmark where { pop globaldict /?pdfmark /exec load put }
    { globaldict begin /?pdfmark /pop load def /pdfmark
    /cleartomark load def end } ifelse
/BDC { mark 3 1 roll /BDC pdfmark } bind def
/EMC { mark /EMC pdfmark } bind def
/cairo_store_point { /cairo_point_y exch def /cairo_point_x exch def } def
/Tj { show currentpoint cairo_store_point } bind def
/TJ {
  {
    dup
    type /stringtype eq
    { show } { -0.001 mul 0 cairo_font_matrix dtransform rmoveto } ifelse
  } forall
  currentpoint cairo_store_point
} bind def
/cairo_selectfont { cairo_font_matrix aload pop pop pop 0 0 6 array astore
    cairo_font exch selectfont cairo_point_x cairo_point_y moveto } bind def
/Tf { pop /cairo_font exch def /cairo_font_matrix where
      { pop cairo_selectfont } if } bind def
/Td { matrix translate cairo_font_matrix matrix concatmatrix dup
      /cairo_font_matrix exch def dup 4 get exch 5 get cairo_store_point
      /cairo_font where { pop cairo_selectfont } if } bind def
/Tm { 2 copy 8 2 roll 6 array astore /cairo_font_matrix exch def
      cairo_store_point /cairo_font where { pop cairo_selectfont } if } bind def
/g { setgray } bind def
/rg { setrgbcolor } bind def
/d1 { setcachedevice } bind def
%%EndProlog
%%BeginSetup
%%EndSetup
%%Page: 1 1
%%BeginPageSetup
%%PageBoundingBox: 0 -1 69 69
%%EndPageSetup
q 0 -1 69 70 rectclip q
q
32.574 67.973 m 23.43 68.539 15.18 64.965 8.055 57.352 c -1.219 47.438 
-1.043 40.496 1.488 28.063 c 3.145 19.918 7.984 12.051 14.758 6.481 c 22.633
 0.008 31.887 -1.656 41.516 1.668 c 52.125 5.332 62.277 15.816 66.199 27.168
 c 70.473 39.539 67.191 50.758 57.188 57.938 c 48.578 64.121 40.297 67.496
 32.574 67.973 c W n
[42.9428 0 0 -42.9428 41.75396 41.957073] concat
/CairoFunction
   << /FunctionType 2
      /Domain [ 0 1 ]
      /C0 [ 0.282353 0.392157 0.572549 ]
      /C1 [ 0.0745098 0.152941 0.27451 ]
      /N 1
   >>
def
   << /ShadingType 3
      /ColorSpace /DeviceRGB
      /Coords [ 0 0 0 0 0 1 ]
      /Extend [ true true ]
      /Function CairoFunction
   >>
shfill
Q
1 g
29.355 6.574 m 29.355 6.289 29.586 6.188 30.254 6.188 c 30.812 6.188 31.168
 6.262 31.168 6.606 c 31.168 6.945 30.816 7.023 30.289 7.023 c 29.695 7.023
 29.355 6.953 29.355 6.574 c h
31.195 7.023 m 31.195 7.016 l 31.355 6.949 31.562 6.828 31.562 6.473 c 
31.562 5.895 31.082 5.66 30.23 5.66 c 29.129 5.66 28.961 6.047 28.961 6.426
 c 28.961 6.691 29.094 6.895 29.316 6.988 c 29.316 6.996 l 28.215 6.996 
l 28.215 7.492 l 31.5 7.492 l 31.5 7.023 l f
29.984 9.195 m 29.852 9.195 l 29.539 9.195 29.301 9.094 29.301 8.813 c 
29.301 8.496 29.613 8.398 29.934 8.398 c 29.984 8.398 l h
30.328 8.398 m 30.469 8.398 l 30.801 8.398 31.223 8.441 31.223 8.813 c 
31.223 9.168 30.816 9.211 30.672 9.211 c 30.672 9.676 l 31.219 9.676 31.562
 9.348 31.562 8.809 c 31.562 8.402 31.445 7.902 30.301 7.902 c 29.652 7.902
 28.961 8.039 28.961 8.816 c 28.961 9.508 29.375 9.691 30.066 9.691 c 30.328
 9.691 l h
28.039 8.879 m 28.039 9.43 l 28.703 8.941 l 28.703 8.602 l f
31.168 10.992 m 31.168 11.277 30.957 11.406 30.273 11.406 c 29.711 11.406
 29.355 11.332 29.355 10.988 c 29.355 10.648 29.707 10.57 30.234 10.57 c
 30.828 10.57 31.168 10.645 31.168 10.992 c h
29.023 10.102 m 29.023 10.57 l 29.328 10.57 l 29.328 10.578 l 29.109 10.68
 28.961 10.863 28.961 11.137 c 28.961 11.703 29.445 11.93 30.293 11.93 c
 31.332 11.93 31.562 11.508 31.562 11.168 c 31.562 10.902 31.43 10.699 31.211
 10.606 c 31.211 10.598 l 32.309 10.598 l 32.309 10.102 l f
30.191 13.469 m 30.293 13.34 30.355 13.063 30.422 12.914 c 30.492 12.773
 30.641 12.715 30.824 12.715 c 31.031 12.715 31.195 12.816 31.195 13.023
 c 31.195 13.32 30.969 13.469 30.605 13.469 c h
30.984 13.938 m 31.078 13.938 31.16 13.992 31.16 14.066 c 31.16 14.098 
31.156 14.133 31.145 14.148 c 31.469 14.148 l 31.496 14.09 31.527 14 31.527
 13.906 c 31.527 13.684 31.441 13.5 31.199 13.484 c 31.199 13.477 l 31.445
 13.344 31.562 13.148 31.562 12.859 c 31.562 12.465 31.344 12.215 30.871
 12.215 c 30.316 12.215 30.203 12.457 30.094 12.793 c 29.984 13.18 l 29.934
 13.359 29.887 13.469 29.668 13.469 c 29.445 13.469 29.301 13.391 29.301
 13.129 c 29.301 12.797 29.535 12.75 29.773 12.75 c 29.773 12.281 l 29.25
 12.281 28.961 12.496 28.961 13.148 c 28.961 13.586 29.129 13.938 29.566
 13.938 c f
29.746 15.512 m 29.684 15.512 l 29.484 15.512 29.301 15.441 29.301 15.184
 c 29.301 14.984 29.391 14.828 29.621 14.828 c 29.816 14.828 29.895 14.918
 29.984 15.18 c 30.098 15.496 l 30.223 15.863 30.418 16.035 30.809 16.035
 c 31.34 16.035 31.562 15.648 31.562 15.148 c 31.562 14.52 31.273 14.332
 30.797 14.332 c 30.703 14.332 l 30.703 14.773 l 30.781 14.773 l 31.066 
14.773 31.223 14.875 31.223 15.16 c 31.223 15.434 31.086 15.566 30.859 15.566
 c 30.676 15.566 30.559 15.469 30.496 15.293 c 30.355 14.891 l 30.227 14.516
 30.035 14.359 29.641 14.359 c 29.176 14.359 28.961 14.695 28.961 15.207
 c 28.961 15.836 29.328 15.981 29.637 15.981 c 29.746 15.981 l f
29.746 17.469 m 29.684 17.469 l 29.484 17.469 29.301 17.402 29.301 17.145
 c 29.301 16.945 29.391 16.789 29.621 16.789 c 29.816 16.789 29.895 16.875
 29.984 17.137 c 30.098 17.457 l 30.223 17.824 30.418 17.992 30.809 17.992
 c 31.34 17.992 31.562 17.609 31.562 17.106 c 31.562 16.481 31.273 16.293
 30.797 16.293 c 30.703 16.293 l 30.703 16.734 l 30.781 16.734 l 31.066 
16.734 31.223 16.836 31.223 17.121 c 31.223 17.391 31.086 17.523 30.859 
17.523 c 30.676 17.523 30.559 17.43 30.496 17.254 c 30.355 16.848 l 30.227
 16.477 30.035 16.32 29.641 16.32 c 29.176 16.32 28.961 16.656 28.961 17.164
 c 28.961 17.797 29.328 17.938 29.637 17.938 c 29.746 17.938 l f
29.984 19.586 m 29.852 19.586 l 29.539 19.586 29.301 19.484 29.301 19.203
 c 29.301 18.887 29.613 18.789 29.934 18.789 c 29.984 18.789 l h
30.328 18.789 m 30.469 18.789 l 30.801 18.789 31.223 18.832 31.223 19.203
 c 31.223 19.559 30.816 19.598 30.672 19.598 c 30.672 20.07 l 31.219 20.07
 31.562 19.738 31.562 19.199 c 31.562 18.793 31.445 18.293 30.301 18.293
 c 29.652 18.293 28.961 18.43 28.961 19.207 c 28.961 19.898 29.375 20.082
 30.066 20.082 c 30.328 20.082 l f
29.023 20.492 m 29.023 20.988 l 29.41 20.988 l 29.41 20.996 l 29.137 21.109
 28.961 21.293 28.961 21.574 c 28.961 21.629 28.969 21.66 28.98 21.691 c
 29.484 21.691 l 29.477 21.656 29.457 21.57 29.457 21.484 c 29.457 21.262
 29.559 20.988 30.02 20.988 c 31.5 20.988 l 31.5 20.492 l f
28.215 23.223 3.285 -0.277 re f
30.059 25.004 m 29.453 24.996 29.23 24.828 29.23 24.484 c 29.23 24.145 
29.453 23.977 30.059 23.965 c h
30.691 25.277 m 31.211 25.234 31.555 24.949 31.555 24.492 c 31.555 23.977
 31.195 23.672 30.277 23.672 c 29.43 23.672 29 23.977 29 24.512 c 29 25.055
 29.375 25.301 30.188 25.301 c 30.289 25.301 l 30.289 23.965 l 30.402 23.965
 l 31.109 23.965 31.324 24.215 31.324 24.484 c 31.324 24.777 31.117 24.953
 30.691 25 c f
30.285 26.117 m 30.152 25.773 29.949 25.648 29.707 25.648 c 29.203 25.648
 29 25.961 29 26.375 c 29 26.836 29.238 27.047 29.684 27.047 c 29.75 27.047
 l 29.75 26.773 l 29.684 26.773 l 29.367 26.773 29.23 26.625 29.23 26.371
 c 29.23 26.051 29.402 25.926 29.645 25.926 c 29.816 25.926 29.949 25.981
 30.055 26.258 c 30.207 26.656 l 30.332 26.988 30.562 27.113 30.828 27.113
 c 31.246 27.113 31.555 26.875 31.555 26.359 c 31.555 25.856 31.348 25.609
 30.797 25.609 c 30.719 25.609 l 30.719 25.883 l 30.781 25.883 l 31.141 
25.883 31.324 26.039 31.324 26.352 c 31.324 26.648 31.16 26.836 30.887 26.836
 c 30.672 26.836 30.535 26.75 30.438 26.504 c f
29.391 28.676 m 29.391 28.332 l 29.023 28.332 l 29.023 28.676 l 28.793 
28.676 l 28.324 28.676 28.18 28.898 28.18 29.305 c 28.18 29.41 28.184 29.504
 28.191 29.578 c 28.574 29.578 l 28.574 29.438 l 28.574 29.254 28.641 29.172
 28.809 29.172 c 29.023 29.172 l 29.023 29.578 l 29.391 29.578 l 29.391 
29.172 l 31.5 29.172 l 31.5 28.676 l f
29.023 29.801 m 29.023 30.301 l 29.41 30.301 l 29.41 30.309 l 29.137 30.418
 28.961 30.602 28.961 30.883 c 28.961 30.938 28.969 30.969 28.98 31.004 
c 29.484 31.004 l 29.477 30.965 29.457 30.879 29.457 30.797 c 29.457 30.57
 29.559 30.301 30.02 30.301 c 31.5 30.301 l 31.5 29.801 l f
31.195 32.074 m 31.195 32.438 30.891 32.504 30.262 32.504 c 29.715 32.504
 29.328 32.438 29.328 32.074 c 29.328 31.715 29.715 31.652 30.262 31.652
 c 30.891 31.652 31.195 31.715 31.195 32.074 c h
28.961 32.074 m 28.961 32.797 29.492 33 30.262 33 c 31.031 33 31.562 32.766
 31.562 32.074 c 31.562 31.391 31.031 31.156 30.262 31.156 c 29.492 31.156
 28.961 31.356 28.961 32.074 c f
29.023 33.379 m 29.023 33.852 l 29.316 33.852 l 29.316 33.863 l 29.094 
33.988 28.961 34.223 28.961 34.5 c 28.961 34.875 29.129 35.113 29.633 35.113
 c 31.5 35.113 l 31.5 34.617 l 29.801 34.617 l 29.48 34.617 29.355 34.523
 29.355 34.273 c 29.355 34.07 29.516 33.879 29.84 33.879 c 31.5 33.879 l
 31.5 33.379 l f
29.023 35.371 m 29.023 35.711 l 28.32 35.711 l 28.32 36.211 l 29.023 36.211
 l 29.023 36.613 l 29.391 36.613 l 29.391 36.211 l 30.871 36.211 l 31.062
 36.211 31.133 36.266 31.133 36.434 c 31.133 36.508 31.125 36.57 31.117 
36.613 c 31.484 36.613 l 31.512 36.508 31.527 36.371 31.527 36.215 c 31.527
 35.879 31.434 35.711 30.93 35.711 c 29.391 35.711 l 29.391 35.371 l f
29.023 36.895 m 29.023 37.391 l 31.5 37.391 l 31.5 36.895 l h
28.18 36.895 m 28.18 37.391 l 28.676 37.391 l 28.676 36.895 l f
29.984 39.117 m 29.852 39.117 l 29.539 39.117 29.301 39.016 29.301 38.734
 c 29.301 38.418 29.613 38.32 29.934 38.32 c 29.984 38.32 l h
30.328 38.32 m 30.469 38.32 l 30.801 38.32 31.223 38.363 31.223 38.734 
c 31.223 39.09 30.816 39.129 30.672 39.129 c 30.672 39.602 l 31.219 39.602
 31.562 39.27 31.562 38.731 c 31.562 38.324 31.445 37.824 30.301 37.824 
c 29.652 37.824 28.961 37.961 28.961 38.738 c 28.961 39.43 29.375 39.613
 30.066 39.613 c 30.328 39.613 l h
28.039 38.203 m 28.039 38.754 l 28.703 39.031 l 28.703 38.688 l f
29.023 40.023 m 29.023 40.52 l 29.41 40.52 l 29.41 40.527 l 29.137 40.641
 28.961 40.824 28.961 41.106 c 28.961 41.16 28.969 41.191 28.98 41.223 c
 29.484 41.223 l 29.477 41.188 29.457 41.098 29.457 41.016 c 29.457 40.789
 29.559 40.52 30.02 40.52 c 31.5 40.52 l 31.5 40.023 l f
29.984 42.668 m 29.852 42.668 l 29.539 42.668 29.301 42.566 29.301 42.285
 c 29.301 41.969 29.613 41.871 29.934 41.871 c 29.984 41.871 l h
30.328 41.871 m 30.469 41.871 l 30.801 41.871 31.223 41.914 31.223 42.285
 c 31.223 42.641 30.816 42.684 30.672 42.684 c 30.672 43.152 l 31.219 43.152
 31.562 42.82 31.562 42.281 c 31.562 41.879 31.445 41.375 30.301 41.375 
c 29.652 41.375 28.961 41.516 28.961 42.293 c 28.961 42.981 29.375 43.164
 30.066 43.164 c 30.328 43.164 l f
29.746 44.641 m 29.684 44.641 l 29.484 44.641 29.301 44.574 29.301 44.316
 c 29.301 44.117 29.391 43.961 29.621 43.961 c 29.816 43.961 29.895 44.047
 29.984 44.313 c 30.098 44.629 l 30.223 44.996 30.418 45.168 30.809 45.168
 c 31.34 45.168 31.562 44.781 31.562 44.277 c 31.562 43.652 31.273 43.465
 30.797 43.465 c 30.703 43.465 l 30.703 43.906 l 30.781 43.906 l 31.066 
43.906 31.223 44.008 31.223 44.293 c 31.223 44.563 31.086 44.695 30.859 
44.695 c 30.676 44.695 30.559 44.602 30.496 44.426 c 30.355 44.02 l 30.227
 43.648 30.035 43.492 29.641 43.492 c 29.176 43.492 28.961 43.828 28.961
 44.34 c 28.961 44.969 29.328 45.113 29.637 45.113 c 29.746 45.113 l f
21.324 35.715 m 18.992 35.715 l 18.988 35.648 l 18.969 35.195 18.699 31.227
 15.148 31.227 c 11.973 31.227 10.363 34.07 10.359 39.68 c 10.363 45.293
 11.973 48.137 15.148 48.137 c 18.762 48.137 18.98 43.895 18.988 43.715 
c 18.992 43.648 l 21.324 43.648 l 21.539 43.648 21.75 43.738 21.898 43.891
 c 22.043 44.039 22.117 44.231 22.105 44.43 c 22.059 45.531 21.496 51.023
 15.117 51.023 c 9.961 51.023 7.238 47.106 7.238 39.691 c 7.238 32.266 9.961
 28.34 15.117 28.34 c 21.254 28.34 22.02 33.356 22.105 34.895 c 22.121 35.106
 22.047 35.309 21.898 35.465 c 21.75 35.625 21.539 35.715 21.324 35.715 
c f
0.4 0.803922 0.886275 rg
55.18 41.031 m 55.18 41.027 l 53.172 41.906 l 51.238 42.754 50.555 43.582
 50.555 45.063 c 50.555 46.996 51.965 48.297 54.07 48.297 c 55.316 48.297
 56.336 48.039 57.582 46.77 c 57.652 46.703 l 58.723 47.684 l 59.344 48.258
 59.164 48.777 58.906 49.113 c 57.859 50.348 56.18 51.023 54.176 51.023 
c 50.305 51.023 47.5 48.5 47.5 45.023 c 47.5 41.606 49.652 40.176 51.98 
39.145 c 54.031 38.227 l 56.09 37.305 57.074 36.516 57.074 34.531 c 57.074
 31.828 54.629 31.106 53.188 31.106 c 51.941 31.106 50.559 31.371 48.859
 33.297 c 48.793 33.375 l 47.676 32.391 l 47.102 31.887 47.098 31.453 47.66
 30.734 c 49.195 28.754 51.449 28.34 53.074 28.34 c 56.578 28.34 60.129 
30.492 60.129 34.609 c 60.129 38.172 58.148 39.75 55.18 41.031 c f
36.965 44.531 m 36.965 48.035 34.129 51 30.625 51 c 28.977 51 27.477 50.371
 26.352 49.344 c 26.352 50.547 l 24.242 50.547 l 23.605 50.547 23.363 50.133
 23.363 49.656 c 23.363 29.223 l 23.363 28.648 23.715 28.34 24.23 28.34 
c 26.34 28.34 l 26.34 44.41 l 26.34 46.52 28.051 48.231 30.164 48.231 c 
32.273 48.231 33.984 46.52 33.984 44.41 c 33.984 28.336 l 36.082 28.336 
l 36.664 28.336 36.965 28.66 36.965 29.215 c 36.965 44.531 l f
1 g
47.859 49.473 m 47.973 49.609 48.039 49.781 48.039 49.969 c 48.039 50.32
 47.809 50.617 47.496 50.723 c 46.883 50.93 46.234 51.039 45.559 51.039 
c 43.91 51.039 42.41 50.414 41.281 49.383 c 41.281 50.586 l 39.172 50.586
 l 38.539 50.586 38.293 50.172 38.293 49.695 c 38.293 29.262 l 38.293 28.688
 38.648 28.379 39.164 28.379 c 41.273 28.379 l 41.273 44.449 l 41.273 46.559
 42.984 48.27 45.098 48.27 c 45.648 48.27 46.176 48.152 46.648 47.941 c 
47.867 49.469 l f
Q Q
showpage
%%Trailer
end restore
%%EOF
