<?xml version="1.0" encoding="UTF-8" standalone="no"?>
<svg
   width="600.00006pt"
   height="400pt"
   viewBox="0 0 600.00005 399.99999"
   version="1.1"
   id="svg543"
   sodipodi:docname="grain-simu.svg"
   inkscape:version="1.2.1 (1:1.2.1+202210291243+9c6d41e410)"
   inkscape:export-filename="grain-simu.png"
   inkscape:export-xdpi="215.99998"
   inkscape:export-ydpi="215.99998"
   xmlns:inkscape="http://www.inkscape.org/namespaces/inkscape"
   xmlns:sodipodi="http://sodipodi.sourceforge.net/DTD/sodipodi-0.dtd"
   xmlns="http://www.w3.org/2000/svg"
   xmlns:svg="http://www.w3.org/2000/svg"
   xmlns:rdf="http://www.w3.org/1999/02/22-rdf-syntax-ns#"
   xmlns:cc="http://creativecommons.org/ns#"
   xmlns:dc="http://purl.org/dc/elements/1.1/">
  <sodipodi:namedview
     id="namedview545"
     pagecolor="#ffffff"
     bordercolor="#666666"
     borderopacity="1.0"
     inkscape:showpageshadow="2"
     inkscape:pageopacity="0.0"
     inkscape:pagecheckerboard="0"
     inkscape:deskcolor="#d1d1d1"
     inkscape:document-units="pt"
     showgrid="false"
     inkscape:zoom="0.98827467"
     inkscape:cx="394.62713"
     inkscape:cy="369.33052"
     inkscape:window-width="2556"
     inkscape:window-height="1397"
     inkscape:window-x="1920"
     inkscape:window-y="20"
     inkscape:window-maximized="1"
     inkscape:current-layer="svg543" />
  <metadata
     id="metadata2">
    <rdf:RDF>
      <cc:Work>
        <dc:type
           rdf:resource="http://purl.org/dc/dcmitype/StillImage" />
        <dc:date>2022-12-28T08:22:40.985845</dc:date>
        <dc:format>image/svg+xml</dc:format>
        <dc:creator>
          <cc:Agent>
            <dc:title>Matplotlib v3.5.1, https://matplotlib.org/</dc:title>
          </cc:Agent>
        </dc:creator>
      </cc:Work>
    </rdf:RDF>
  </metadata>
  <defs
     id="defs6">
    <style
       type="text/css"
       id="style4">*{stroke-linejoin: round; stroke-linecap: butt}</style>
  </defs>
  <rect
     style="fill:#000000;fill-opacity:1;stroke:#000000;stroke-width:0.584748;stroke-linecap:round;stroke-linejoin:round"
     id="rect2618"
     width="599.41528"
     height="399.41525"
     x="0.29237401"
     y="0.29237401" />
  <path
     d="m 479.04765,637.596 c 6.63972,0 13.00838,-2.63799 17.70338,-7.33298 4.69498,-4.69499 7.33297,-11.06366 7.33297,-17.70337 0,-6.63972 -2.63799,-13.00839 -7.33297,-17.70338 -4.695,-4.69499 -11.06366,-7.33298 -17.70338,-7.33298 -6.63972,0 -13.00839,2.63799 -17.70338,7.33298 -4.69499,4.69499 -7.33298,11.06366 -7.33298,17.70338 0,6.63971 2.63799,13.00838 7.33298,17.70337 4.69499,4.69499 11.06366,7.33298 17.70338,7.33298 z"
     clip-path="url(#pc5fbab3a8c)"
     style="fill:#ffffff;fill-opacity:1;stroke:#000000;stroke-width:4;stroke-linejoin:miter;stroke-dasharray:none"
     id="path14"
     transform="translate(-410.28788,-244.0149)" />
  <path
     d="m 454.97412,594.06805 c 6.30763,0 12.35776,-2.50605 16.81792,-6.96621 4.46016,-4.46017 6.96621,-10.51029 6.96621,-16.81792 0,-6.30762 -2.50605,-12.35775 -6.96621,-16.81791 -4.46016,-4.46016 -10.51029,-6.96621 -16.81792,-6.96621 -6.30762,0 -12.35775,2.50605 -16.81791,6.96621 -4.46016,4.46016 -6.96621,10.51029 -6.96621,16.81791 0,6.30763 2.50605,12.35775 6.96621,16.81792 4.46016,4.46016 10.51029,6.96621 16.81791,6.96621 z"
     clip-path="url(#pc5fbab3a8c)"
     style="fill:#ffffff;fill-opacity:1;stroke:#000000;stroke-width:4;stroke-linejoin:miter;stroke-dasharray:none"
     id="path17"
     transform="translate(-410.28788,-244.0149)" />
  <path
     d="m 457.08947,546.65666 c 6.86863,0 13.45685,-2.72894 18.3137,-7.58579 4.85685,-4.85684 7.58578,-11.44507 7.58578,-18.31369 0,-6.86862 -2.72893,-13.45684 -7.58578,-18.31369 -4.85685,-4.85685 -11.44507,-7.58578 -18.3137,-7.58578 -6.86862,0 -13.45684,2.72893 -18.31369,7.58578 -4.85685,4.85685 -7.58578,11.44507 -7.58578,18.31369 0,6.86862 2.72893,13.45685 7.58578,18.31369 4.85685,4.85685 11.44507,7.58579 18.31369,7.58579 z"
     clip-path="url(#pc5fbab3a8c)"
     style="fill:#ffffff;fill-opacity:1;stroke:#000000;stroke-width:4;stroke-linejoin:miter;stroke-dasharray:none"
     id="path20"
     transform="translate(-410.28788,-244.0149)" />
  <path
     d="m 477.26004,498.97717 c 6.90612,0 13.5303,-2.74383 18.41366,-7.62719 4.88337,-4.88336 7.62719,-11.50755 7.62719,-18.41367 0,-6.90611 -2.74382,-13.5303 -7.62719,-18.41366 -4.88336,-4.88336 -11.50754,-7.62719 -18.41366,-7.62719 -6.90611,0 -13.5303,2.74383 -18.41366,7.62719 -4.88336,4.88336 -7.62719,11.50755 -7.62719,18.41366 0,6.90612 2.74383,13.53031 7.62719,18.41367 4.88336,4.88336 11.50755,7.62719 18.41366,7.62719 z"
     clip-path="url(#pc5fbab3a8c)"
     style="fill:#ffffff;fill-opacity:1;stroke:#000000;stroke-width:4;stroke-linejoin:miter;stroke-dasharray:none"
     id="path23"
     transform="translate(-410.28788,-244.0149)" />
  <path
     d="m 458.37376,450.40876 c 7.20922,0 14.12413,-2.86425 19.22182,-7.96194 5.09769,-5.09768 7.96194,-12.0126 7.96194,-19.22182 0,-7.20922 -2.86425,-14.12413 -7.96194,-19.22182 -5.09769,-5.09769 -12.0126,-7.96194 -19.22182,-7.96194 -7.20922,0 -14.12414,2.86425 -19.22182,7.96194 -5.09769,5.09769 -7.96194,12.0126 -7.96194,19.22182 0,7.20922 2.86425,14.12414 7.96194,19.22182 5.09768,5.09769 12.0126,7.96194 19.22182,7.96194 z"
     clip-path="url(#pc5fbab3a8c)"
     style="fill:#ffffff;fill-opacity:1;stroke:#000000;stroke-width:4;stroke-linejoin:miter;stroke-dasharray:none"
     id="path26"
     transform="translate(-410.28788,-244.0149)" />
  <path
     d="m 453.94646,396.31832 c 6.03508,0 11.82379,-2.39776 16.09124,-6.66521 4.26745,-4.26745 6.66521,-10.05616 6.66521,-16.09124 0,-6.03509 -2.39776,-11.8238 -6.66521,-16.09125 -4.26745,-4.26745 -10.05616,-6.66521 -16.09124,-6.66521 -6.03509,0 -11.8238,2.39776 -16.09125,6.66521 -4.26745,4.26745 -6.66521,10.05616 -6.66521,16.09125 0,6.03508 2.39776,11.82379 6.66521,16.09124 4.26745,4.26745 10.05616,6.66521 16.09125,6.66521 z"
     clip-path="url(#pc5fbab3a8c)"
     style="fill:#ffffff;fill-opacity:1;stroke:#000000;stroke-width:4;stroke-linejoin:miter;stroke-dasharray:none"
     id="path29"
     transform="translate(-410.28788,-244.0149)" />
  <path
     d="m 502.77704,410.3257 c 7.17253,0 14.05226,-2.84968 19.12401,-7.92142 5.07174,-5.07175 7.92142,-11.95148 7.92142,-19.12401 0,-7.17254 -2.84968,-14.05226 -7.92142,-19.12401 -5.07175,-5.07175 -11.95148,-7.92142 -19.12401,-7.92142 -7.17253,0 -14.05226,2.84967 -19.12401,7.92142 -5.07175,5.07175 -7.92142,11.95147 -7.92142,19.12401 0,7.17253 2.84967,14.05226 7.92142,19.12401 5.07175,5.07174 11.95148,7.92142 19.12401,7.92142 z"
     clip-path="url(#pc5fbab3a8c)"
     style="fill:#ffffff;fill-opacity:1;stroke:#000000;stroke-width:4;stroke-linejoin:miter;stroke-dasharray:none"
     id="path32"
     transform="translate(-410.28788,-244.0149)" />
  <path
     d="m 482.49012,360.44786 c 6.53447,0 12.80218,-2.59617 17.42274,-7.21673 4.62056,-4.62057 7.21673,-10.88828 7.21673,-17.42274 0,-6.53446 -2.59617,-12.80217 -7.21673,-17.42273 -4.62056,-4.62056 -10.88827,-7.21673 -17.42274,-7.21673 -6.53446,0 -12.80217,2.59617 -17.42273,7.21673 -4.62056,4.62056 -7.21673,10.88827 -7.21673,17.42273 0,6.53446 2.59617,12.80217 7.21673,17.42274 4.62056,4.62056 10.88827,7.21673 17.42273,7.21673 z"
     clip-path="url(#pc5fbab3a8c)"
     style="fill:#ffffff;fill-opacity:1;stroke:#000000;stroke-width:4;stroke-linejoin:miter;stroke-dasharray:none"
     id="path35"
     transform="translate(-410.28788,-244.0149)" />
  <path
     d="m 517.75715,326.38836 c 6.36407,0 12.46834,-2.52847 16.96842,-7.02855 4.50008,-4.50008 7.02855,-10.60435 7.02855,-16.96842 0,-6.36407 -2.52847,-12.46834 -7.02855,-16.96841 -4.50008,-4.50008 -10.60435,-7.02855 -16.96842,-7.02855 -6.36407,0 -12.46834,2.52847 -16.96842,7.02855 -4.50007,4.50007 -7.02854,10.60434 -7.02854,16.96841 0,6.36407 2.52847,12.46834 7.02854,16.96842 4.50008,4.50008 10.60435,7.02855 16.96842,7.02855 z"
     clip-path="url(#pc5fbab3a8c)"
     style="fill:#ffffff;fill-opacity:1;stroke:#000000;stroke-width:4;stroke-linejoin:miter;stroke-dasharray:none"
     id="path38"
     transform="translate(-410.28788,-244.0149)" />
  <path
     d="m 531.13413,637.596 c 7.20833,0 14.1224,-2.8639 19.21946,-7.96096 5.09706,-5.09706 7.96096,-12.01112 7.96096,-19.21945 0,-7.20833 -2.8639,-14.1224 -7.96096,-19.21946 -5.09706,-5.09706 -12.01113,-7.96096 -19.21946,-7.96096 -7.20833,0 -14.12239,2.8639 -19.21945,7.96096 -5.09706,5.09706 -7.96096,12.01113 -7.96096,19.21946 0,7.20833 2.8639,14.12239 7.96096,19.21945 5.09706,5.09706 12.01112,7.96096 19.21945,7.96096 z"
     clip-path="url(#pc5fbab3a8c)"
     style="fill:#ffffff;fill-opacity:1;stroke:#000000;stroke-width:4;stroke-linejoin:miter;stroke-dasharray:none"
     id="path41"
     transform="translate(-410.28788,-244.0149)" />
  <path
     d="m 503.09804,591.57782 c 6.51819,0 12.77029,-2.58971 17.37935,-7.19876 4.60905,-4.60906 7.19876,-10.86116 7.19876,-17.37935 0,-6.51819 -2.58971,-12.77029 -7.19876,-17.37935 -4.60906,-4.60906 -10.86116,-7.19876 -17.37935,-7.19876 -6.51819,0 -12.77029,2.5897 -17.37935,7.19876 -4.60906,4.60906 -7.19876,10.86116 -7.19876,17.37935 0,6.51819 2.5897,12.77029 7.19876,17.37935 4.60906,4.60905 10.86116,7.19876 17.37935,7.19876 z"
     clip-path="url(#pc5fbab3a8c)"
     style="fill:#ffffff;fill-opacity:1;stroke:#000000;stroke-width:4;stroke-linejoin:miter;stroke-dasharray:none"
     id="path44"
     transform="translate(-410.28788,-244.0149)" />
  <path
     d="m 508.56709,540.99981 c 6.96167,0 13.63915,-2.7659 18.56179,-7.68854 4.92265,-4.92265 7.68855,-11.60013 7.68855,-18.5618 0,-6.96167 -2.7659,-13.63915 -7.68855,-18.5618 -4.92264,-4.92265 -11.60012,-7.68855 -18.56179,-7.68855 -6.96168,0 -13.63915,2.7659 -18.5618,7.68855 -4.92264,4.92265 -7.68855,11.60013 -7.68855,18.5618 0,6.96167 2.76591,13.63915 7.68855,18.5618 4.92265,4.92264 11.60012,7.68854 18.5618,7.68854 z"
     clip-path="url(#pc5fbab3a8c)"
     style="fill:#ffffff;fill-opacity:1;stroke:#000000;stroke-width:4;stroke-linejoin:miter;stroke-dasharray:none"
     id="path47"
     transform="translate(-410.28788,-244.0149)" />
  <path
     d="m 532.7982,495.00188 c 6.27871,0 12.3011,-2.49456 16.74082,-6.93428 4.43972,-4.43971 6.93427,-10.4621 6.93427,-16.74081 0,-6.27871 -2.49455,-12.3011 -6.93427,-16.74082 -4.43972,-4.43971 -10.46211,-6.93427 -16.74082,-6.93427 -6.2787,0 -12.3011,2.49456 -16.74081,6.93427 -4.43972,4.43972 -6.93428,10.46211 -6.93428,16.74082 0,6.27871 2.49456,12.3011 6.93428,16.74081 4.43971,4.43972 10.46211,6.93428 16.74081,6.93428 z"
     clip-path="url(#pc5fbab3a8c)"
     style="fill:#ffffff;fill-opacity:1;stroke:#000000;stroke-width:4;stroke-linejoin:miter;stroke-dasharray:none"
     id="path50"
     transform="translate(-410.28788,-244.0149)" />
  <path
     d="m 507.11494,455.83125 c 6.0756,0 11.90317,-2.41386 16.19926,-6.70995 4.29609,-4.29609 6.70995,-10.12366 6.70995,-16.19926 0,-6.07559 -2.41386,-11.90316 -6.70995,-16.19926 -4.29609,-4.29609 -10.12366,-6.70995 -16.19926,-6.70995 -6.07559,0 -11.90316,2.41386 -16.19926,6.70995 -4.29609,4.2961 -6.70995,10.12367 -6.70995,16.19926 0,6.0756 2.41386,11.90317 6.70995,16.19926 4.2961,4.29609 10.12367,6.70995 16.19926,6.70995 z"
     clip-path="url(#pc5fbab3a8c)"
     style="fill:#ffffff;fill-opacity:1;stroke:#000000;stroke-width:4;stroke-linejoin:miter;stroke-dasharray:none"
     id="path53"
     transform="translate(-410.28788,-244.0149)" />
  <path
     d="m 550.48104,438.12931 c 6.61852,0 12.96685,-2.62956 17.64684,-7.30956 4.68,-4.68 7.30957,-11.02833 7.30957,-17.64684 0,-6.61852 -2.62957,-12.96685 -7.30957,-17.64684 -4.67999,-4.68 -11.02832,-7.30956 -17.64684,-7.30956 -6.61851,0 -12.96684,2.62956 -17.64684,7.30956 -4.67999,4.67999 -7.30956,11.02832 -7.30956,17.64684 0,6.61851 2.62957,12.96684 7.30956,17.64684 4.68,4.68 11.02833,7.30956 17.64684,7.30956 z"
     clip-path="url(#pc5fbab3a8c)"
     style="fill:#ffffff;fill-opacity:1;stroke:#000000;stroke-width:4;stroke-linejoin:miter;stroke-dasharray:none"
     id="path56"
     transform="translate(-410.28788,-244.0149)" />
  <path
     d="m 582.2633,400.29434 c 6.28177,0 12.30709,-2.49577 16.74897,-6.93765 4.44188,-4.44188 6.93765,-10.4672 6.93765,-16.74897 0,-6.28176 -2.49577,-12.30708 -6.93765,-16.74896 -4.44188,-4.44188 -10.4672,-6.93765 -16.74897,-6.93765 -6.28176,0 -12.30708,2.49577 -16.74896,6.93765 -4.44188,4.44188 -6.93765,10.4672 -6.93765,16.74896 0,6.28177 2.49577,12.30709 6.93765,16.74897 4.44188,4.44188 10.4672,6.93765 16.74896,6.93765 z"
     clip-path="url(#pc5fbab3a8c)"
     style="fill:#ffffff;fill-opacity:1;stroke:#000000;stroke-width:4;stroke-linejoin:miter;stroke-dasharray:none"
     id="path59"
     transform="translate(-410.28788,-244.0149)" />
  <path
     d="m 541.92914,373.29109 c 7.03768,0 13.78807,-2.7961 18.76446,-7.77249 4.97639,-4.97639 7.77249,-11.72678 7.77249,-18.76446 0,-7.03768 -2.7961,-13.78806 -7.77249,-18.76445 -4.97639,-4.97639 -11.72678,-7.7725 -18.76446,-7.7725 -7.03768,0 -13.78806,2.79611 -18.76445,7.7725 -4.97639,4.97639 -7.7725,11.72677 -7.7725,18.76445 0,7.03768 2.79611,13.78807 7.7725,18.76446 4.97639,4.97639 11.72677,7.77249 18.76445,7.77249 z"
     clip-path="url(#pc5fbab3a8c)"
     style="fill:#ffffff;fill-opacity:1;stroke:#000000;stroke-width:4;stroke-linejoin:miter;stroke-dasharray:none"
     id="path62"
     transform="translate(-410.28788,-244.0149)" />
  <path
     d="m 457.666,317.65244 c 7.02152,0 13.7564,-2.78968 18.72137,-7.75464 4.96496,-4.96497 7.75464,-11.69985 7.75464,-18.72137 0,-7.02151 -2.78968,-13.7564 -7.75464,-18.72136 -4.96497,-4.96496 -11.69985,-7.75464 -18.72137,-7.75464 -7.02151,0 -13.75639,2.78968 -18.72136,7.75464 -4.96496,4.96496 -7.75464,11.69985 -7.75464,18.72136 0,7.02152 2.78968,13.7564 7.75464,18.72137 4.96497,4.96496 11.69985,7.75464 18.72136,7.75464 z"
     clip-path="url(#pc5fbab3a8c)"
     style="fill:#ffffff;fill-opacity:1;stroke:#000000;stroke-width:4;stroke-linejoin:miter;stroke-dasharray:none"
     id="path65"
     transform="translate(-410.28788,-244.0149)" />
  <path
     d="m 609.41928,637.596 c 6.22577,0 12.19739,-2.47353 16.59968,-6.87581 4.40228,-4.40229 6.87581,-10.37391 6.87581,-16.59968 0,-6.22577 -2.47353,-12.19739 -6.87581,-16.59967 -4.40229,-4.40229 -10.37391,-6.87582 -16.59968,-6.87582 -6.22577,0 -12.19739,2.47353 -16.59967,6.87582 -4.40229,4.40228 -6.87582,10.3739 -6.87582,16.59967 0,6.22577 2.47353,12.19739 6.87582,16.59968 4.40228,4.40228 10.3739,6.87581 16.59967,6.87581 z"
     clip-path="url(#pc5fbab3a8c)"
     style="fill:#ffffff;fill-opacity:1;stroke:#000000;stroke-width:4;stroke-linejoin:miter;stroke-dasharray:none"
     id="path68"
     transform="translate(-410.28788,-244.0149)" />
  <path
     d="m 574.01969,607.52169 c 6.13609,0 12.02169,-2.4379 16.36056,-6.77677 4.33887,-4.33887 6.77676,-10.22446 6.77676,-16.36055 0,-6.13609 -2.43789,-12.02169 -6.77676,-16.36056 -4.33887,-4.33887 -10.22447,-6.77676 -16.36056,-6.77676 -6.13609,0 -12.02168,2.43789 -16.36055,6.77676 -4.33887,4.33887 -6.77677,10.22447 -6.77677,16.36056 0,6.13609 2.4379,12.02168 6.77677,16.36055 4.33887,4.33887 10.22446,6.77677 16.36055,6.77677 z"
     clip-path="url(#pc5fbab3a8c)"
     style="fill:#ffffff;fill-opacity:1;stroke:#000000;stroke-width:4;stroke-linejoin:miter;stroke-dasharray:none"
     id="path71"
     transform="translate(-410.28788,-244.0149)" />
  <path
     d="m 546.82263,570.31487 c 6.3149,0 12.372,-2.50894 16.8373,-6.97424 4.46531,-4.4653 6.97424,-10.52241 6.97424,-16.8373 0,-6.31489 -2.50893,-12.37199 -6.97424,-16.8373 -4.4653,-4.4653 -10.5224,-6.97424 -16.8373,-6.97424 -6.31489,0 -12.37199,2.50894 -16.83729,6.97424 -4.46531,4.46531 -6.97424,10.52241 -6.97424,16.8373 0,6.31489 2.50893,12.372 6.97424,16.8373 4.4653,4.4653 10.5224,6.97424 16.83729,6.97424 z"
     clip-path="url(#pc5fbab3a8c)"
     style="fill:#ffffff;fill-opacity:1;stroke:#000000;stroke-width:4;stroke-linejoin:miter;stroke-dasharray:none"
     id="path74"
     transform="translate(-410.28788,-244.0149)" />
  <path
     d="m 566.44432,527.00874 c 6.18267,0 12.11295,-2.4564 16.48477,-6.82822 4.37181,-4.37181 6.82821,-10.30209 6.82821,-16.48476 0,-6.18268 -2.4564,-12.11296 -6.82821,-16.48477 -4.37182,-4.37181 -10.3021,-6.82822 -16.48477,-6.82822 -6.18268,0 -12.11296,2.45641 -16.48477,6.82822 -4.37181,4.37181 -6.82821,10.30209 -6.82821,16.48477 0,6.18267 2.4564,12.11295 6.82821,16.48476 4.37181,4.37182 10.30209,6.82822 16.48477,6.82822 z"
     clip-path="url(#pc5fbab3a8c)"
     style="fill:#ffffff;fill-opacity:1;stroke:#000000;stroke-width:4;stroke-linejoin:miter;stroke-dasharray:none"
     id="path77"
     transform="translate(-410.28788,-244.0149)" />
  <path
     d="m 580.40519,481.85167 c 7.08244,0 13.87575,-2.81388 18.8838,-7.82192 5.00804,-5.00804 7.82192,-11.80136 7.82192,-18.8838 0,-7.08244 -2.81388,-13.87575 -7.82192,-18.8838 -5.00805,-5.00804 -11.80136,-7.82192 -18.8838,-7.82192 -7.08244,0 -13.87576,2.81388 -18.8838,7.82192 -5.00804,5.00805 -7.82192,11.80136 -7.82192,18.8838 0,7.08244 2.81388,13.87576 7.82192,18.8838 5.00804,5.00804 11.80136,7.82192 18.8838,7.82192 z"
     clip-path="url(#pc5fbab3a8c)"
     style="fill:#ffffff;fill-opacity:1;stroke:#000000;stroke-width:4;stroke-linejoin:miter;stroke-dasharray:none"
     id="path80"
     transform="translate(-410.28788,-244.0149)" />
  <path
     d="m 612.53615,439.7347 c 6.59947,0 12.92953,-2.62199 17.59606,-7.28853 4.66654,-4.66653 7.28853,-10.99659 7.28853,-17.59606 0,-6.59947 -2.62199,-12.92954 -7.28853,-17.59607 -4.66653,-4.66653 -10.99659,-7.28853 -17.59606,-7.28853 -6.59947,0 -12.92954,2.622 -17.59607,7.28853 -4.66653,4.66653 -7.28853,10.9966 -7.28853,17.59607 0,6.59947 2.622,12.92953 7.28853,17.59606 4.66653,4.66654 10.9966,7.28853 17.59607,7.28853 z"
     clip-path="url(#pc5fbab3a8c)"
     style="fill:#ffffff;fill-opacity:1;stroke:#000000;stroke-width:4;stroke-linejoin:miter;stroke-dasharray:none"
     id="path83"
     transform="translate(-410.28788,-244.0149)" />
  <path
     d="m 630.69655,391.66051 c 6.93738,0 13.59155,-2.75625 18.49702,-7.66172 4.90546,-4.90547 7.66171,-11.55964 7.66171,-18.49702 0,-6.93738 -2.75625,-13.59155 -7.66171,-18.49702 -4.90547,-4.90546 -11.55964,-7.66171 -18.49702,-7.66171 -6.93738,0 -13.59155,2.75625 -18.49702,7.66171 -4.90547,4.90547 -7.66172,11.55964 -7.66172,18.49702 0,6.93738 2.75625,13.59155 7.66172,18.49702 4.90547,4.90547 11.55964,7.66172 18.49702,7.66172 z"
     clip-path="url(#pc5fbab3a8c)"
     style="fill:#ffffff;fill-opacity:1;stroke:#000000;stroke-width:4;stroke-linejoin:miter;stroke-dasharray:none"
     id="path86"
     transform="translate(-410.28788,-244.0149)" />
  <path
     d="m 593.71656,354.28512 c 7.21257,0 14.13069,-2.86558 19.23074,-7.96563 5.10005,-5.10005 7.96563,-12.01818 7.96563,-19.23074 0,-7.21256 -2.86558,-14.13068 -7.96563,-19.23074 -5.10005,-5.10005 -12.01817,-7.96563 -19.23074,-7.96563 -7.21256,0 -14.13068,2.86558 -19.23073,7.96563 -5.10006,5.10006 -7.96564,12.01818 -7.96564,19.23074 0,7.21256 2.86558,14.13069 7.96564,19.23074 5.10005,5.10005 12.01817,7.96563 19.23073,7.96563 z"
     clip-path="url(#pc5fbab3a8c)"
     style="fill:#ffffff;fill-opacity:1;stroke:#000000;stroke-width:4;stroke-linejoin:miter;stroke-dasharray:none"
     id="path89"
     transform="translate(-410.28788,-244.0149)" />
  <path
     d="m 564.09331,308.83033 c 7.04129,0 13.79515,-2.79754 18.7741,-7.77649 4.97895,-4.97895 7.77649,-11.73281 7.77649,-18.7741 0,-7.0413 -2.79754,-13.79516 -7.77649,-18.77411 -4.97895,-4.97895 -11.73281,-7.77649 -18.7741,-7.77649 -7.0413,0 -13.79516,2.79754 -18.77411,7.77649 -4.97895,4.97895 -7.77648,11.73281 -7.77648,18.77411 0,7.04129 2.79753,13.79515 7.77648,18.7741 4.97895,4.97895 11.73281,7.77649 18.77411,7.77649 z"
     clip-path="url(#pc5fbab3a8c)"
     style="fill:#ffffff;fill-opacity:1;stroke:#000000;stroke-width:4;stroke-linejoin:miter;stroke-dasharray:none"
     id="path92"
     transform="translate(-410.28788,-244.0149)" />
  <path
     d="m 659.9135,637.596 c 7.26252,0 14.22856,-2.88543 19.36394,-8.02081 5.13537,-5.13537 8.0208,-12.10142 8.0208,-19.36394 0,-7.26252 -2.88543,-14.22856 -8.0208,-19.36394 -5.13538,-5.13537 -12.10142,-8.02081 -19.36394,-8.02081 -7.26252,0 -14.22857,2.88544 -19.36394,8.02081 -5.13538,5.13538 -8.02081,12.10142 -8.02081,19.36394 0,7.26252 2.88543,14.22857 8.02081,19.36394 5.13537,5.13538 12.10142,8.02081 19.36394,8.02081 z"
     clip-path="url(#pc5fbab3a8c)"
     style="fill:#ffffff;fill-opacity:1;stroke:#000000;stroke-width:4;stroke-linejoin:miter;stroke-dasharray:none"
     id="path95"
     transform="translate(-410.28788,-244.0149)" />
  <path
     d="m 628.16218,594.88436 c 5.8565,0 11.47392,-2.32681 15.61509,-6.46798 4.14118,-4.14117 6.46799,-9.7586 6.46799,-15.6151 0,-5.85649 -2.32681,-11.47392 -6.46799,-15.61509 -4.14117,-4.14117 -9.75859,-6.46798 -15.61509,-6.46798 -5.8565,0 -11.47392,2.32681 -15.61509,6.46798 -4.14117,4.14117 -6.46798,9.7586 -6.46798,15.61509 0,5.8565 2.32681,11.47393 6.46798,15.6151 4.14117,4.14117 9.75859,6.46798 15.61509,6.46798 z"
     clip-path="url(#pc5fbab3a8c)"
     style="fill:#ffffff;fill-opacity:1;stroke:#000000;stroke-width:4;stroke-linejoin:miter;stroke-dasharray:none"
     id="path98"
     transform="translate(-410.28788,-244.0149)" />
  <path
     d="m 594.42256,565.92443 c 6.41357,0 12.56531,-2.54814 17.10039,-7.08321 4.53507,-4.53508 7.08321,-10.68682 7.08321,-17.10039 0,-6.41356 -2.54814,-12.56531 -7.08321,-17.10038 -4.53508,-4.53507 -10.68682,-7.08321 -17.10039,-7.08321 -6.41356,0 -12.56531,2.54814 -17.10038,7.08321 -4.53508,4.53507 -7.08321,10.68682 -7.08321,17.10038 0,6.41357 2.54813,12.56531 7.08321,17.10039 4.53507,4.53507 10.68682,7.08321 17.10038,7.08321 z"
     clip-path="url(#pc5fbab3a8c)"
     style="fill:#ffffff;fill-opacity:1;stroke:#000000;stroke-width:4;stroke-linejoin:miter;stroke-dasharray:none"
     id="path101"
     transform="translate(-410.28788,-244.0149)" />
  <path
     d="m 616.24197,522.51474 c 7.23113,0 14.16707,-2.87295 19.28025,-7.98614 5.11318,-5.11317 7.98614,-12.04911 7.98614,-19.28024 0,-7.23113 -2.87296,-14.16706 -7.98614,-19.28025 -5.11318,-5.11318 -12.04912,-7.98613 -19.28025,-7.98613 -7.23113,0 -14.16706,2.87295 -19.28024,7.98613 -5.11318,5.11319 -7.98614,12.04912 -7.98614,19.28025 0,7.23113 2.87296,14.16707 7.98614,19.28024 5.11318,5.11319 12.04911,7.98614 19.28024,7.98614 z"
     clip-path="url(#pc5fbab3a8c)"
     style="fill:#ffffff;fill-opacity:1;stroke:#000000;stroke-width:4;stroke-linejoin:miter;stroke-dasharray:none"
     id="path104"
     transform="translate(-410.28788,-244.0149)" />
  <path
     d="m 646.92229,478.12245 c 6.56618,0 12.86431,-2.60877 17.5073,-7.25176 4.64299,-4.64299 7.25176,-10.94112 7.25176,-17.5073 0,-6.56618 -2.60877,-12.86431 -7.25176,-17.5073 -4.64299,-4.64299 -10.94112,-7.25176 -17.5073,-7.25176 -6.56618,0 -12.86431,2.60877 -17.5073,7.25176 -4.64299,4.64299 -7.25176,10.94112 -7.25176,17.5073 0,6.56618 2.60877,12.86431 7.25176,17.5073 4.64299,4.64299 10.94112,7.25176 17.5073,7.25176 z"
     clip-path="url(#pc5fbab3a8c)"
     style="fill:#ffffff;fill-opacity:1;stroke:#000000;stroke-width:4;stroke-linejoin:miter;stroke-dasharray:none"
     id="path107"
     transform="translate(-410.28788,-244.0149)" />
  <path
     d="m 661.43686,430.87343 c 6.58709,0 12.90528,-2.61707 17.56306,-7.27485 4.65778,-4.65778 7.27485,-10.97596 7.27485,-17.56306 0,-6.58709 -2.61707,-12.90527 -7.27485,-17.56305 -4.65778,-4.65778 -10.97597,-7.27486 -17.56306,-7.27486 -6.58709,0 -12.90527,2.61708 -17.56305,7.27486 -4.65778,4.65778 -7.27486,10.97596 -7.27486,17.56305 0,6.5871 2.61708,12.90528 7.27486,17.56306 4.65778,4.65778 10.97596,7.27485 17.56305,7.27485 z"
     clip-path="url(#pc5fbab3a8c)"
     style="fill:#ffffff;fill-opacity:1;stroke:#000000;stroke-width:4;stroke-linejoin:miter;stroke-dasharray:none"
     id="path110"
     transform="translate(-410.28788,-244.0149)" />
  <path
     d="m 682.3532,385.79964 c 6.8613,0 13.44251,-2.72602 18.29419,-7.5777 4.85167,-4.85168 7.5777,-11.43288 7.5777,-18.29419 0,-6.8613 -2.72603,-13.44251 -7.5777,-18.29419 -4.85168,-4.85167 -11.43289,-7.5777 -18.29419,-7.5777 -6.86131,0 -13.44251,2.72603 -18.29419,7.5777 -4.85168,4.85168 -7.5777,11.43289 -7.5777,18.29419 0,6.86131 2.72602,13.44251 7.5777,18.29419 4.85168,4.85168 11.43288,7.5777 18.29419,7.5777 z"
     clip-path="url(#pc5fbab3a8c)"
     style="fill:#ffffff;fill-opacity:1;stroke:#000000;stroke-width:4;stroke-linejoin:miter;stroke-dasharray:none"
     id="path113"
     transform="translate(-410.28788,-244.0149)" />
  <path
     d="m 651.24524,343.5198 c 7.25609,0 14.21597,-2.88288 19.3468,-8.01371 5.13084,-5.13084 8.01371,-12.09071 8.01371,-19.34681 0,-7.25609 -2.88287,-14.21597 -8.01371,-19.3468 -5.13083,-5.13083 -12.09071,-8.01371 -19.3468,-8.01371 -7.25609,0 -14.21597,2.88288 -19.3468,8.01371 -5.13084,5.13083 -8.01371,12.09071 -8.01371,19.3468 0,7.2561 2.88287,14.21597 8.01371,19.34681 5.13083,5.13083 12.09071,8.01371 19.3468,8.01371 z"
     clip-path="url(#pc5fbab3a8c)"
     style="fill:#ffffff;fill-opacity:1;stroke:#000000;stroke-width:4;stroke-linejoin:miter;stroke-dasharray:none"
     id="path116"
     transform="translate(-410.28788,-244.0149)" />
  <path
     d="m 614.51682,304.33068 c 6.34425,0 12.4295,-2.52059 16.91556,-7.00666 4.48607,-4.48606 7.00666,-10.57132 7.00666,-16.91557 0,-6.34424 -2.52059,-12.4295 -7.00666,-16.91556 -4.48606,-4.48607 -10.57131,-7.00666 -16.91556,-7.00666 -6.34425,0 -12.42951,2.52059 -16.91557,7.00666 -4.48606,4.48606 -7.00666,10.57132 -7.00666,16.91556 0,6.34425 2.5206,12.42951 7.00666,16.91557 4.48606,4.48607 10.57132,7.00666 16.91557,7.00666 z"
     clip-path="url(#pc5fbab3a8c)"
     style="fill:#ffffff;fill-opacity:1;stroke:#000000;stroke-width:4;stroke-linejoin:miter;stroke-dasharray:none"
     id="path119"
     transform="translate(-410.28788,-244.0149)" />
  <path
     d="m 713.66046,637.596 c 7.09896,0 13.90811,-2.82044 18.92783,-7.84016 5.01972,-5.01972 7.84016,-11.82887 7.84016,-18.92783 0,-7.09895 -2.82044,-13.9081 -7.84016,-18.92782 -5.01972,-5.01972 -11.82887,-7.84016 -18.92783,-7.84016 -7.09895,0 -13.9081,2.82044 -18.92782,7.84016 -5.01972,5.01972 -7.84016,11.82887 -7.84016,18.92782 0,7.09896 2.82044,13.90811 7.84016,18.92783 5.01972,5.01972 11.82887,7.84016 18.92782,7.84016 z"
     clip-path="url(#pc5fbab3a8c)"
     style="fill:#ffffff;fill-opacity:1;stroke:#000000;stroke-width:4;stroke-linejoin:miter;stroke-dasharray:none"
     id="path122"
     transform="translate(-410.28788,-244.0149)" />
  <path
     d="m 688.01526,591.38711 c 6.30894,0 12.36033,-2.50657 16.82142,-6.96766 4.46109,-4.46109 6.96766,-10.51248 6.96766,-16.82142 0,-6.30894 -2.50657,-12.36033 -6.96766,-16.82142 -4.46109,-4.4611 -10.51248,-6.96766 -16.82142,-6.96766 -6.30894,0 -12.36033,2.50656 -16.82142,6.96766 -4.4611,4.46109 -6.96766,10.51248 -6.96766,16.82142 0,6.30894 2.50656,12.36033 6.96766,16.82142 4.46109,4.46109 10.51248,6.96766 16.82142,6.96766 z"
     clip-path="url(#pc5fbab3a8c)"
     style="fill:#ffffff;fill-opacity:1;stroke:#000000;stroke-width:4;stroke-linejoin:miter;stroke-dasharray:none"
     id="path125"
     transform="translate(-410.28788,-244.0149)" />
  <path
     d="m 653.47048,558.23485 c 6.81084,0 13.34365,-2.70598 18.15964,-7.52197 4.81599,-4.81599 7.52197,-11.34879 7.52197,-18.15964 0,-6.81084 -2.70598,-13.34364 -7.52197,-18.15963 -4.81599,-4.81599 -11.3488,-7.52197 -18.15964,-7.52197 -6.81084,0 -13.34364,2.70598 -18.15963,7.52197 -4.816,4.81599 -7.52197,11.34879 -7.52197,18.15963 0,6.81085 2.70597,13.34365 7.52197,18.15964 4.81599,4.81599 11.34879,7.52197 18.15963,7.52197 z"
     clip-path="url(#pc5fbab3a8c)"
     style="fill:#ffffff;fill-opacity:1;stroke:#000000;stroke-width:4;stroke-linejoin:miter;stroke-dasharray:none"
     id="path128"
     transform="translate(-410.28788,-244.0149)" />
  <path
     d="m 681.19991,515.28734 c 6.73346,0 13.19204,-2.67523 17.95332,-7.43651 4.76127,-4.76127 7.43651,-11.21986 7.43651,-17.95332 0,-6.73346 -2.67524,-13.19204 -7.43651,-17.95332 -4.76128,-4.76127 -11.21986,-7.43651 -17.95332,-7.43651 -6.73347,0 -13.19205,2.67524 -17.95333,7.43651 -4.76127,4.76128 -7.4365,11.21986 -7.4365,17.95332 0,6.73346 2.67523,13.19205 7.4365,17.95332 4.76128,4.76128 11.21986,7.43651 17.95333,7.43651 z"
     clip-path="url(#pc5fbab3a8c)"
     style="fill:#ffffff;fill-opacity:1;stroke:#000000;stroke-width:4;stroke-linejoin:miter;stroke-dasharray:none"
     id="path131"
     transform="translate(-410.28788,-244.0149)" />
  <path
     d="m 694.82573,466.47492 c 6.47741,0 12.6904,-2.5735 17.27062,-7.15372 4.58022,-4.58022 7.15372,-10.7932 7.15372,-17.27061 0,-6.47741 -2.5735,-12.6904 -7.15372,-17.27061 -4.58022,-4.58022 -10.79321,-7.15373 -17.27062,-7.15373 -6.4774,0 -12.69039,2.57351 -17.27061,7.15373 -4.58022,4.58021 -7.15372,10.7932 -7.15372,17.27061 0,6.47741 2.5735,12.69039 7.15372,17.27061 4.58022,4.58022 10.79321,7.15372 17.27061,7.15372 z"
     clip-path="url(#pc5fbab3a8c)"
     style="fill:#ffffff;fill-opacity:1;stroke:#000000;stroke-width:4;stroke-linejoin:miter;stroke-dasharray:none"
     id="path134"
     transform="translate(-410.28788,-244.0149)" />
  <path
     d="m 719.9072,424.81853 c 6.11624,0 11.98279,-2.43 16.30763,-6.75483 4.32483,-4.32484 6.75483,-10.19139 6.75483,-16.30762 0,-6.11624 -2.43,-11.98279 -6.75483,-16.30762 -4.32484,-4.32484 -10.19139,-6.75484 -16.30763,-6.75484 -6.11623,0 -11.98279,2.43 -16.30762,6.75484 -4.32483,4.32483 -6.75483,10.19138 -6.75483,16.30762 0,6.11623 2.43,11.98278 6.75483,16.30762 4.32483,4.32483 10.19139,6.75483 16.30762,6.75483 z"
     clip-path="url(#pc5fbab3a8c)"
     style="fill:#ffffff;fill-opacity:1;stroke:#000000;stroke-width:4;stroke-linejoin:miter;stroke-dasharray:none"
     id="path137"
     transform="translate(-410.28788,-244.0149)" />
  <path
     d="m 767.20103,405.15589 c 5.92033,0 11.59898,-2.35217 15.78528,-6.53848 4.18631,-4.1863 6.53848,-9.86495 6.53848,-15.78528 0,-5.92033 -2.35217,-11.59897 -6.53848,-15.78528 -4.1863,-4.1863 -9.86495,-6.53848 -15.78528,-6.53848 -5.92033,0 -11.59897,2.35218 -15.78528,6.53848 -4.1863,4.18631 -6.53848,9.86495 -6.53848,15.78528 0,5.92033 2.35218,11.59898 6.53848,15.78528 4.18631,4.18631 9.86495,6.53848 15.78528,6.53848 z"
     clip-path="url(#pc5fbab3a8c)"
     style="fill:#ffffff;fill-opacity:1;stroke:#000000;stroke-width:4;stroke-linejoin:miter;stroke-dasharray:none"
     id="path140"
     transform="translate(-410.28788,-244.0149)" />
  <path
     d="m 731.10992,378.46067 c 6.15235,0 12.05355,-2.44435 16.40392,-6.79472 4.35037,-4.35037 6.79473,-10.25157 6.79473,-16.40392 0,-6.15235 -2.44436,-12.05355 -6.79473,-16.40392 -4.35037,-4.35037 -10.25157,-6.79473 -16.40392,-6.79473 -6.15235,0 -12.05355,2.44436 -16.40392,6.79473 -4.35037,4.35037 -6.79473,10.25157 -6.79473,16.40392 0,6.15235 2.44436,12.05355 6.79473,16.40392 4.35037,4.35037 10.25157,6.79472 16.40392,6.79472 z"
     clip-path="url(#pc5fbab3a8c)"
     style="fill:#ffffff;fill-opacity:1;stroke:#000000;stroke-width:4;stroke-linejoin:miter;stroke-dasharray:none"
     id="path143"
     transform="translate(-410.28788,-244.0149)" />
  <path
     d="m 705.21282,339.31932 c 7.1007,0 13.91154,-2.82115 18.9325,-7.84211 5.02096,-5.02095 7.8421,-11.83179 7.8421,-18.9325 0,-7.1007 -2.82114,-13.91154 -7.8421,-18.9325 -5.02096,-5.02096 -11.8318,-7.8421 -18.9325,-7.8421 -7.10071,0 -13.91155,2.82114 -18.93251,7.8421 -5.02095,5.02096 -7.84209,11.8318 -7.84209,18.9325 0,7.10071 2.82114,13.91155 7.84209,18.9325 5.02096,5.02096 11.8318,7.84211 18.93251,7.84211 z"
     clip-path="url(#pc5fbab3a8c)"
     style="fill:#ffffff;fill-opacity:1;stroke:#000000;stroke-width:4;stroke-linejoin:miter;stroke-dasharray:none"
     id="path146"
     transform="translate(-410.28788,-244.0149)" />
  <path
     d="m 766.36367,637.596 c 7.00381,0 13.7217,-2.78264 18.67414,-7.73508 4.95244,-4.95244 7.73508,-11.67033 7.73508,-18.67414 0,-7.00381 -2.78264,-13.7217 -7.73508,-18.67414 -4.95244,-4.95244 -11.67033,-7.73508 -18.67414,-7.73508 -7.00381,0 -13.7217,2.78264 -18.67414,7.73508 -4.95244,4.95244 -7.73508,11.67033 -7.73508,18.67414 0,7.00381 2.78264,13.7217 7.73508,18.67414 4.95244,4.95244 11.67033,7.73508 18.67414,7.73508 z"
     clip-path="url(#pc5fbab3a8c)"
     style="fill:#ffffff;fill-opacity:1;stroke:#000000;stroke-width:4;stroke-linejoin:miter;stroke-dasharray:none"
     id="path149"
     transform="translate(-410.28788,-244.0149)" />
  <path
     d="m 740.58624,592.10492 c 6.15759,0 12.06382,-2.44644 16.41789,-6.80052 4.35408,-4.35407 6.80052,-10.2603 6.80052,-16.41789 0,-6.15759 -2.44644,-12.06382 -6.80052,-16.41789 -4.35407,-4.35408 -10.2603,-6.80052 -16.41789,-6.80052 -6.1576,0 -12.06382,2.44644 -16.41789,6.80052 -4.35408,4.35407 -6.80052,10.2603 -6.80052,16.41789 0,6.15759 2.44644,12.06382 6.80052,16.41789 4.35407,4.35408 10.26029,6.80052 16.41789,6.80052 z"
     clip-path="url(#pc5fbab3a8c)"
     style="fill:#ffffff;fill-opacity:1;stroke:#000000;stroke-width:4;stroke-linejoin:miter;stroke-dasharray:none"
     id="path152"
     transform="translate(-410.28788,-244.0149)" />
  <path
     d="m 715.74669,552.59123 c 6.74385,0 13.21239,-2.67936 17.98101,-7.44797 4.76862,-4.76862 7.44797,-11.23716 7.44797,-17.98101 0,-6.74384 -2.67935,-13.21239 -7.44797,-17.981 -4.76862,-4.76862 -11.23716,-7.44798 -17.98101,-7.44798 -6.74384,0 -13.21238,2.67936 -17.981,7.44798 -4.76862,4.76861 -7.44798,11.23716 -7.44798,17.981 0,6.74385 2.67936,13.21239 7.44798,17.98101 4.76862,4.76861 11.23716,7.44797 17.981,7.44797 z"
     clip-path="url(#pc5fbab3a8c)"
     style="fill:#ffffff;fill-opacity:1;stroke:#000000;stroke-width:4;stroke-linejoin:miter;stroke-dasharray:none"
     id="path155"
     transform="translate(-410.28788,-244.0149)" />
  <path
     d="m 769.915,555.52117 c 6.89429,0 13.50713,-2.73913 18.38213,-7.61413 4.875,-4.875 7.61413,-11.48784 7.61413,-18.38213 0,-6.89429 -2.73913,-13.50714 -7.61413,-18.38213 -4.875,-4.875 -11.48784,-7.61413 -18.38213,-7.61413 -6.89429,0 -13.50714,2.73913 -18.38213,7.61413 -4.875,4.87499 -7.61413,11.48784 -7.61413,18.38213 0,6.89429 2.73913,13.50713 7.61413,18.38213 4.87499,4.875 11.48784,7.61413 18.38213,7.61413 z"
     clip-path="url(#pc5fbab3a8c)"
     style="fill:#ffffff;fill-opacity:1;stroke:#000000;stroke-width:4;stroke-linejoin:miter;stroke-dasharray:none"
     id="path158"
     transform="translate(-410.28788,-244.0149)" />
  <path
     d="m 732.06029,504.54255 c 7.1863,0 14.07923,-2.85515 19.16071,-7.93662 5.08148,-5.08148 7.93662,-11.97442 7.93662,-19.16071 0,-7.1863 -2.85514,-14.07923 -7.93662,-19.16071 -5.08148,-5.08148 -11.97441,-7.93663 -19.16071,-7.93663 -7.1863,0 -14.07923,2.85515 -19.16071,7.93663 -5.08148,5.08148 -7.93662,11.97441 -7.93662,19.16071 0,7.18629 2.85514,14.07923 7.93662,19.16071 5.08148,5.08147 11.97441,7.93662 19.16071,7.93662 z"
     clip-path="url(#pc5fbab3a8c)"
     style="fill:#ffffff;fill-opacity:1;stroke:#000000;stroke-width:4;stroke-linejoin:miter;stroke-dasharray:none"
     id="path161"
     transform="translate(-410.28788,-244.0149)" />
  <path
     d="m 760.08804,458.30682 c 7.13229,0 13.97343,-2.83369 19.01673,-7.87698 5.04329,-5.0433 7.87699,-11.88443 7.87699,-19.01673 0,-7.1323 -2.8337,-13.97344 -7.87699,-19.01673 -5.0433,-5.0433 -11.88444,-7.87699 -19.01673,-7.87699 -7.1323,0 -13.97344,2.83369 -19.01673,7.87699 -5.0433,5.04329 -7.87699,11.88443 -7.87699,19.01673 0,7.1323 2.83369,13.97343 7.87699,19.01673 5.04329,5.04329 11.88443,7.87698 19.01673,7.87698 z"
     clip-path="url(#pc5fbab3a8c)"
     style="fill:#ffffff;fill-opacity:1;stroke:#000000;stroke-width:4;stroke-linejoin:miter;stroke-dasharray:none"
     id="path164"
     transform="translate(-410.28788,-244.0149)" />
  <path
     d="m 794.11441,369.32183 c 6.20997,0 12.16643,-2.46725 16.55754,-6.85836 4.39111,-4.39111 6.85836,-10.34757 6.85836,-16.55753 0,-6.20997 -2.46725,-12.16643 -6.85836,-16.55754 -4.39111,-4.39111 -10.34757,-6.85836 -16.55754,-6.85836 -6.20996,0 -12.16642,2.46725 -16.55753,6.85836 -4.39111,4.39111 -6.85836,10.34757 -6.85836,16.55754 0,6.20996 2.46725,12.16642 6.85836,16.55753 4.39111,4.39111 10.34757,6.85836 16.55753,6.85836 z"
     clip-path="url(#pc5fbab3a8c)"
     style="fill:#ffffff;fill-opacity:1;stroke:#000000;stroke-width:4;stroke-linejoin:miter;stroke-dasharray:none"
     id="path167"
     transform="translate(-410.28788,-244.0149)" />
  <path
     d="m 757.10609,339.67597 c 6.68249,0 13.09217,-2.65498 17.8174,-7.38021 4.72523,-4.72523 7.38021,-11.13491 7.38021,-17.8174 0,-6.68248 -2.65498,-13.09216 -7.38021,-17.81739 -4.72523,-4.72523 -11.13491,-7.38021 -17.8174,-7.38021 -6.68248,0 -13.09217,2.65498 -17.8174,7.38021 -4.72522,4.72523 -7.3802,11.13491 -7.3802,17.81739 0,6.68249 2.65498,13.09217 7.3802,17.8174 4.72523,4.72523 11.13492,7.38021 17.8174,7.38021 z"
     clip-path="url(#pc5fbab3a8c)"
     style="fill:#ffffff;fill-opacity:1;stroke:#000000;stroke-width:4;stroke-linejoin:miter;stroke-dasharray:none"
     id="path170"
     transform="translate(-410.28788,-244.0149)" />
  <path
     d="m 734.28818,294.88137 c 6.43663,0 12.6105,-2.5573 17.16188,-7.10868 4.55139,-4.55139 7.10869,-10.72526 7.10869,-17.16189 0,-6.43663 -2.5573,-12.61051 -7.10869,-17.16189 -4.55138,-4.55139 -10.72525,-7.10869 -17.16188,-7.10869 -6.43664,0 -12.61051,2.5573 -17.16189,7.10869 -4.55139,4.55138 -7.10869,10.72526 -7.10869,17.16189 0,6.43663 2.5573,12.6105 7.10869,17.16189 4.55138,4.55138 10.72525,7.10868 17.16189,7.10868 z"
     clip-path="url(#pc5fbab3a8c)"
     style="fill:#ffffff;fill-opacity:1;stroke:#000000;stroke-width:4;stroke-linejoin:miter;stroke-dasharray:none"
     id="path173"
     transform="translate(-410.28788,-244.0149)" />
  <path
     d="m 816.59948,637.596 c 6.46784,0 12.67166,-2.5697 17.24511,-7.14316 4.57346,-4.57346 7.14316,-10.77727 7.14316,-17.24512 0,-6.46784 -2.5697,-12.67165 -7.14316,-17.24511 -4.57345,-4.57346 -10.77727,-7.14316 -17.24511,-7.14316 -6.46785,0 -12.67166,2.5697 -17.24511,7.14316 -4.57346,4.57346 -7.14317,10.77727 -7.14317,17.24511 0,6.46785 2.56971,12.67166 7.14317,17.24512 4.57345,4.57346 10.77726,7.14316 17.24511,7.14316 z"
     clip-path="url(#pc5fbab3a8c)"
     style="fill:#ffffff;fill-opacity:1;stroke:#000000;stroke-width:4;stroke-linejoin:miter;stroke-dasharray:none"
     id="path176"
     transform="translate(-410.28788,-244.0149)" />
  <path
     d="m 836.04678,592.99842 c 7.1481,0 14.00441,-2.83997 19.05888,-7.89445 5.05447,-5.05447 7.89445,-11.91077 7.89445,-19.05888 0,-7.1481 -2.83998,-14.0044 -7.89445,-19.05888 -5.05447,-5.05447 -11.91078,-7.89444 -19.05888,-7.89444 -7.14811,0 -14.00441,2.83997 -19.05888,7.89444 -5.05448,5.05448 -7.89445,11.91078 -7.89445,19.05888 0,7.14811 2.83997,14.00441 7.89445,19.05888 5.05447,5.05448 11.91077,7.89445 19.05888,7.89445 z"
     clip-path="url(#pc5fbab3a8c)"
     style="fill:#ffffff;fill-opacity:1;stroke:#000000;stroke-width:4;stroke-linejoin:miter;stroke-dasharray:none"
     id="path179"
     transform="translate(-410.28788,-244.0149)" />
  <path
     d="m 869.66504,550.86043 c 7.26174,0 14.22704,-2.88512 19.36187,-8.01995 5.13482,-5.13482 8.01994,-12.10012 8.01994,-19.36186 0,-7.26174 -2.88512,-14.22704 -8.01994,-19.36186 -5.13483,-5.13483 -12.10013,-8.01995 -19.36187,-8.01995 -7.26174,0 -14.22703,2.88512 -19.36186,8.01995 -5.13482,5.13482 -8.01995,12.10012 -8.01995,19.36186 0,7.26174 2.88513,14.22704 8.01995,19.36186 5.13483,5.13483 12.10012,8.01995 19.36186,8.01995 z"
     clip-path="url(#pc5fbab3a8c)"
     style="fill:#ffffff;fill-opacity:1;stroke:#000000;stroke-width:4;stroke-linejoin:miter;stroke-dasharray:none"
     id="path182"
     transform="translate(-410.28788,-244.0149)" />
  <path
     d="m 818.63988,542.39654 c 6.3803,0 12.50014,-2.53492 17.0117,-7.04648 4.51155,-4.51155 7.04647,-10.63139 7.04647,-17.01169 0,-6.3803 -2.53492,-12.50014 -7.04647,-17.0117 -4.51156,-4.51155 -10.6314,-7.04647 -17.0117,-7.04647 -6.3803,0 -12.50014,2.53492 -17.01169,7.04647 -4.51156,4.51156 -7.04648,10.6314 -7.04648,17.0117 0,6.3803 2.53492,12.50014 7.04648,17.01169 4.51155,4.51156 10.63139,7.04648 17.01169,7.04648 z"
     clip-path="url(#pc5fbab3a8c)"
     style="fill:#ffffff;fill-opacity:1;stroke:#000000;stroke-width:4;stroke-linejoin:miter;stroke-dasharray:none"
     id="path185"
     transform="translate(-410.28788,-244.0149)" />
  <path
     d="m 786.23075,506.14183 c 7.24831,0 14.20072,-2.87978 19.32605,-8.00511 5.12533,-5.12533 8.00511,-12.07774 8.00511,-19.32605 0,-7.24831 -2.87978,-14.20072 -8.00511,-19.32605 -5.12533,-5.12533 -12.07774,-8.00511 -19.32605,-8.00511 -7.24831,0 -14.20072,2.87978 -19.32605,8.00511 -5.12533,5.12533 -8.00511,12.07774 -8.00511,19.32605 0,7.24831 2.87978,14.20072 8.00511,19.32605 5.12533,5.12533 12.07774,8.00511 19.32605,8.00511 z"
     clip-path="url(#pc5fbab3a8c)"
     style="fill:#ffffff;fill-opacity:1;stroke:#000000;stroke-width:4;stroke-linejoin:miter;stroke-dasharray:none"
     id="path188"
     transform="translate(-410.28788,-244.0149)" />
  <path
     d="m 822.51565,466.58275 c 6.48081,0 12.69705,-2.57485 17.27968,-7.15748 4.58262,-4.58262 7.15748,-10.79887 7.15748,-17.27968 0,-6.48081 -2.57486,-12.69706 -7.15748,-17.27968 -4.58263,-4.58262 -10.79887,-7.15748 -17.27968,-7.15748 -6.48081,0 -12.69706,2.57486 -17.27968,7.15748 -4.58263,4.58262 -7.15748,10.79887 -7.15748,17.27968 0,6.48081 2.57485,12.69706 7.15748,17.27968 4.58262,4.58263 10.79887,7.15748 17.27968,7.15748 z"
     clip-path="url(#pc5fbab3a8c)"
     style="fill:#ffffff;fill-opacity:1;stroke:#000000;stroke-width:4;stroke-linejoin:miter;stroke-dasharray:none"
     id="path191"
     transform="translate(-410.28788,-244.0149)" />
  <path
     d="m 815.61413,418.24041 c 7.13527,0 13.97926,-2.83487 19.02466,-7.88027 5.0454,-5.0454 7.88028,-11.88939 7.88028,-19.02467 0,-7.13527 -2.83488,-13.97926 -7.88028,-19.02466 -5.0454,-5.0454 -11.88939,-7.88027 -19.02466,-7.88027 -7.13528,0 -13.97927,2.83487 -19.02467,7.88027 -5.0454,5.0454 -7.88027,11.88939 -7.88027,19.02466 0,7.13528 2.83487,13.97927 7.88027,19.02467 5.0454,5.0454 11.88939,7.88027 19.02467,7.88027 z"
     clip-path="url(#pc5fbab3a8c)"
     style="fill:#ffffff;fill-opacity:1;stroke:#000000;stroke-width:4;stroke-linejoin:miter;stroke-dasharray:none"
     id="path194"
     transform="translate(-410.28788,-244.0149)" />
  <path
     d="m 835.76822,349.35349 c 5.94008,0 11.63767,-2.36002 15.83794,-6.56029 4.20027,-4.20027 6.56029,-9.89786 6.56029,-15.83794 0,-5.94009 -2.36002,-11.63768 -6.56029,-15.83795 -4.20027,-4.20027 -9.89786,-6.56029 -15.83794,-6.56029 -5.94009,0 -11.63768,2.36002 -15.83795,6.56029 -4.20027,4.20027 -6.56029,9.89786 -6.56029,15.83795 0,5.94008 2.36002,11.63767 6.56029,15.83794 4.20027,4.20027 9.89786,6.56029 15.83795,6.56029 z"
     clip-path="url(#pc5fbab3a8c)"
     style="fill:#ffffff;fill-opacity:1;stroke:#000000;stroke-width:4;stroke-linejoin:miter;stroke-dasharray:none"
     id="path197"
     transform="translate(-410.28788,-244.0149)" />
  <path
     d="m 802.84738,317.52151 c 6.89885,0 13.51608,-2.74095 18.39431,-7.61918 4.87823,-4.87822 7.61917,-11.49545 7.61917,-18.39431 0,-6.89885 -2.74094,-13.51608 -7.61917,-18.39431 -4.87823,-4.87823 -11.49546,-7.61917 -18.39431,-7.61917 -6.89886,0 -13.51608,2.74094 -18.39431,7.61917 -4.87823,4.87823 -7.61918,11.49546 -7.61918,18.39431 0,6.89886 2.74095,13.51609 7.61918,18.39431 4.87823,4.87823 11.49545,7.61918 18.39431,7.61918 z"
     clip-path="url(#pc5fbab3a8c)"
     style="fill:#ffffff;fill-opacity:1;stroke:#000000;stroke-width:4;stroke-linejoin:miter;stroke-dasharray:none"
     id="path200"
     transform="translate(-410.28788,-244.0149)" />
  <path
     d="m 863.64265,637.596 c 6.11813,0 11.9865,-2.43076 16.31267,-6.75693 4.32617,-4.32617 6.75693,-10.19454 6.75693,-16.31267 0,-6.11813 -2.43076,-11.98649 -6.75693,-16.31266 -4.32617,-4.32618 -10.19454,-6.75693 -16.31267,-6.75693 -6.11812,0 -11.98649,2.43075 -16.31266,6.75693 -4.32617,4.32617 -6.75693,10.19453 -6.75693,16.31266 0,6.11813 2.43076,11.9865 6.75693,16.31267 4.32617,4.32617 10.19454,6.75693 16.31266,6.75693 z"
     clip-path="url(#pc5fbab3a8c)"
     style="fill:#ffffff;fill-opacity:1;stroke:#000000;stroke-width:4;stroke-linejoin:miter;stroke-dasharray:none"
     id="path203"
     transform="translate(-410.28788,-244.0149)" />
  <path
     d="m 887.86187,598.3323 c 6.751,0 13.22641,-2.6822 18.00009,-7.45588 4.77368,-4.77368 7.45588,-11.24909 7.45588,-18.00009 0,-6.751 -2.6822,-13.22641 -7.45588,-18.00009 -4.77368,-4.77368 -11.24909,-7.45588 -18.00009,-7.45588 -6.751,0 -13.22641,2.6822 -18.00009,7.45588 -4.77368,4.77368 -7.45588,11.24909 -7.45588,18.00009 0,6.751 2.6822,13.22641 7.45588,18.00009 4.77368,4.77368 11.24909,7.45588 18.00009,7.45588 z"
     clip-path="url(#pc5fbab3a8c)"
     style="fill:#ffffff;fill-opacity:1;stroke:#000000;stroke-width:4;stroke-linejoin:miter;stroke-dasharray:none"
     id="path206"
     transform="translate(-410.28788,-244.0149)" />
  <path
     d="m 921.61615,561.22181 c 6.41073,0 12.55975,-2.54701 17.09282,-7.08007 4.53307,-4.53307 7.08008,-10.6821 7.08008,-17.09283 0,-6.41072 -2.54701,-12.55975 -7.08008,-17.09282 -4.53307,-4.53307 -10.68209,-7.08007 -17.09282,-7.08007 -6.41073,0 -12.55975,2.547 -17.09282,7.08007 -4.53307,4.53307 -7.08008,10.6821 -7.08008,17.09282 0,6.41073 2.54701,12.55976 7.08008,17.09283 4.53307,4.53306 10.68209,7.08007 17.09282,7.08007 z"
     clip-path="url(#pc5fbab3a8c)"
     style="fill:#ffffff;fill-opacity:1;stroke:#000000;stroke-width:4;stroke-linejoin:miter;stroke-dasharray:none"
     id="path209"
     transform="translate(-410.28788,-244.0149)" />
  <path
     d="m 909.93606,514.24962 c 7.15908,0 14.02591,-2.84433 19.08815,-7.90657 5.06223,-5.06223 7.90656,-11.92906 7.90656,-19.08814 0,-7.15908 -2.84433,-14.02591 -7.90656,-19.08814 -5.06224,-5.06224 -11.92907,-7.90657 -19.08815,-7.90657 -7.15908,0 -14.02591,2.84433 -19.08814,7.90657 -5.06224,5.06223 -7.90657,11.92906 -7.90657,19.08814 0,7.15908 2.84433,14.02591 7.90657,19.08814 5.06223,5.06224 11.92906,7.90657 19.08814,7.90657 z"
     clip-path="url(#pc5fbab3a8c)"
     style="fill:#ffffff;fill-opacity:1;stroke:#000000;stroke-width:4;stroke-linejoin:miter;stroke-dasharray:none"
     id="path212"
     transform="translate(-410.28788,-244.0149)" />
  <path
     d="m 909.85897,460.43728 c 7.25545,0 14.21472,-2.88262 19.3451,-8.013 5.13038,-5.13038 8.013,-12.08965 8.013,-19.3451 0,-7.25545 -2.88262,-14.21472 -8.013,-19.3451 -5.13038,-5.13038 -12.08965,-8.013 -19.3451,-8.013 -7.25545,0 -14.21472,2.88262 -19.3451,8.013 -5.13038,5.13038 -8.013,12.08965 -8.013,19.3451 0,7.25545 2.88262,14.21472 8.013,19.3451 5.13038,5.13038 12.08965,8.013 19.3451,8.013 z"
     clip-path="url(#pc5fbab3a8c)"
     style="fill:#ffffff;fill-opacity:1;stroke:#000000;stroke-width:4;stroke-linejoin:miter;stroke-dasharray:none"
     id="path215"
     transform="translate(-410.28788,-244.0149)" />
  <path
     d="m 860.71624,496.93566 c 6.47655,0 12.68871,-2.57316 17.26833,-7.15277 4.57961,-4.57962 7.15277,-10.79178 7.15277,-17.26833 0,-6.47656 -2.57316,-12.68872 -7.15277,-17.26834 -4.57962,-4.57961 -10.79178,-7.15277 -17.26833,-7.15277 -6.47656,0 -12.68872,2.57316 -17.26834,7.15277 -4.57961,4.57962 -7.15277,10.79178 -7.15277,17.26834 0,6.47655 2.57316,12.68871 7.15277,17.26833 4.57962,4.57961 10.79178,7.15277 17.26834,7.15277 z"
     clip-path="url(#pc5fbab3a8c)"
     style="fill:#ffffff;fill-opacity:1;stroke:#000000;stroke-width:4;stroke-linejoin:miter;stroke-dasharray:none"
     id="path218"
     transform="translate(-410.28788,-244.0149)" />
  <path
     d="m 862.02823,437.92229 c 6.51546,0 12.76495,-2.58862 17.37208,-7.19575 4.60713,-4.60713 7.19575,-10.85661 7.19575,-17.37208 0,-6.51547 -2.58862,-12.76495 -7.19575,-17.37208 -4.60713,-4.60713 -10.85662,-7.19575 -17.37208,-7.19575 -6.51547,0 -12.76495,2.58862 -17.37208,7.19575 -4.60713,4.60713 -7.19575,10.85661 -7.19575,17.37208 0,6.51547 2.58862,12.76495 7.19575,17.37208 4.60713,4.60713 10.85661,7.19575 17.37208,7.19575 z"
     clip-path="url(#pc5fbab3a8c)"
     style="fill:#ffffff;fill-opacity:1;stroke:#000000;stroke-width:4;stroke-linejoin:miter;stroke-dasharray:none"
     id="path221"
     transform="translate(-410.28788,-244.0149)" />
  <path
     d="m 870.66573,389.57503 c 7.24261,0 14.18956,-2.87752 19.31086,-7.99882 5.1213,-5.1213 7.99882,-12.06825 7.99882,-19.31086 0,-7.24261 -2.87752,-14.18956 -7.99882,-19.31086 -5.1213,-5.1213 -12.06825,-7.99882 -19.31086,-7.99882 -7.24261,0 -14.18956,2.87752 -19.31086,7.99882 -5.1213,5.1213 -7.99882,12.06825 -7.99882,19.31086 0,7.24261 2.87752,14.18956 7.99882,19.31086 5.1213,5.1213 12.06825,7.99882 19.31086,7.99882 z"
     clip-path="url(#pc5fbab3a8c)"
     style="fill:#ffffff;fill-opacity:1;stroke:#000000;stroke-width:4;stroke-linejoin:miter;stroke-dasharray:none"
     id="path224"
     transform="translate(-410.28788,-244.0149)" />
  <path
     d="m 877.55204,331.95439 c 6.15586,0 12.06041,-2.44574 16.41326,-6.79859 4.35284,-4.35285 6.79859,-10.2574 6.79859,-16.41326 0,-6.15585 -2.44575,-12.06041 -6.79859,-16.41325 -4.35285,-4.35285 -10.2574,-6.7986 -16.41326,-6.7986 -6.15585,0 -12.06041,2.44575 -16.41325,6.7986 -4.35285,4.35284 -6.7986,10.2574 -6.7986,16.41325 0,6.15586 2.44575,12.06041 6.7986,16.41326 4.35284,4.35285 10.2574,6.79859 16.41325,6.79859 z"
     clip-path="url(#pc5fbab3a8c)"
     style="fill:#ffffff;fill-opacity:1;stroke:#000000;stroke-width:4;stroke-linejoin:miter;stroke-dasharray:none"
     id="path227"
     transform="translate(-410.28788,-244.0149)" />
  <path
     d="m 908.63435,637.596 c 5.87525,0 11.51065,-2.33426 15.66508,-6.48869 4.15442,-4.15442 6.48868,-9.78982 6.48868,-15.66507 0,-5.87524 -2.33426,-11.51065 -6.48868,-15.66507 -4.15443,-4.15443 -9.78983,-6.48869 -15.66508,-6.48869 -5.87524,0 -11.51064,2.33426 -15.66507,6.48869 -4.15443,4.15442 -6.48869,9.78983 -6.48869,15.66507 0,5.87525 2.33426,11.51065 6.48869,15.66507 4.15443,4.15443 9.78983,6.48869 15.66507,6.48869 z"
     clip-path="url(#pc5fbab3a8c)"
     style="fill:#ffffff;fill-opacity:1;stroke:#000000;stroke-width:4;stroke-linejoin:miter;stroke-dasharray:none"
     id="path230"
     transform="translate(-410.28788,-244.0149)" />
  <path
     d="m 956.5528,637.596 c 6.96561,0 13.64687,-2.76747 18.5723,-7.6929 4.92543,-4.92543 7.6929,-11.60668 7.6929,-18.5723 0,-6.96561 -2.76747,-13.64686 -7.6929,-18.57229 -4.92543,-4.92544 -11.60669,-7.6929 -18.5723,-7.6929 -6.96561,0 -13.64686,2.76746 -18.5723,7.6929 -4.92543,4.92543 -7.69289,11.60668 -7.69289,18.57229 0,6.96562 2.76746,13.64687 7.69289,18.5723 4.92544,4.92543 11.60669,7.6929 18.5723,7.6929 z"
     clip-path="url(#pc5fbab3a8c)"
     style="fill:#ffffff;fill-opacity:1;stroke:#000000;stroke-width:4;stroke-linejoin:miter;stroke-dasharray:none"
     id="path233"
     transform="translate(-410.28788,-244.0149)" />
  <path
     d="m 960.46372,585.25045 c 5.92842,0 11.61483,-2.35539 15.80686,-6.54742 4.19203,-4.19203 6.54742,-9.87844 6.54742,-15.80686 0,-5.92842 -2.35539,-11.61483 -6.54742,-15.80686 -4.19203,-4.19203 -9.87844,-6.54742 -15.80686,-6.54742 -5.92842,0 -11.61483,2.35539 -15.80686,6.54742 -4.19203,4.19203 -6.54742,9.87844 -6.54742,15.80686 0,5.92842 2.35539,11.61483 6.54742,15.80686 4.19203,4.19203 9.87844,6.54742 15.80686,6.54742 z"
     clip-path="url(#pc5fbab3a8c)"
     style="fill:#ffffff;fill-opacity:1;stroke:#000000;stroke-width:4;stroke-linejoin:miter;stroke-dasharray:none"
     id="path236"
     transform="translate(-410.28788,-244.0149)" />
  <path
     d="m 958.16152,529.87676 c 6.53898,0 12.81101,-2.59796 17.43476,-7.22171 4.62376,-4.62376 7.22172,-10.89579 7.22172,-17.43477 0,-6.53897 -2.59796,-12.81101 -7.22172,-17.43476 -4.62375,-4.62376 -10.89578,-7.22172 -17.43476,-7.22172 -6.53898,0 -12.81101,2.59796 -17.43476,7.22172 -4.62376,4.62375 -7.22172,10.89579 -7.22172,17.43476 0,6.53898 2.59796,12.81101 7.22172,17.43477 4.62375,4.62375 10.89578,7.22171 17.43476,7.22171 z"
     clip-path="url(#pc5fbab3a8c)"
     style="fill:#ffffff;fill-opacity:1;stroke:#000000;stroke-width:4;stroke-linejoin:miter;stroke-dasharray:none"
     id="path239"
     transform="translate(-410.28788,-244.0149)" />
  <path
     d="m 957.45809,480.70998 c 6.72553,0 13.1765,-2.67208 17.93217,-7.42774 4.75566,-4.75567 7.42774,-11.20664 7.42774,-17.93216 0,-6.72553 -2.67208,-13.1765 -7.42774,-17.93217 -4.75567,-4.75566 -11.20664,-7.42774 -17.93217,-7.42774 -6.72552,0 -13.17649,2.67208 -17.93216,7.42774 -4.75566,4.75567 -7.42774,11.20664 -7.42774,17.93217 0,6.72552 2.67208,13.17649 7.42774,17.93216 4.75567,4.75566 11.20664,7.42774 17.93216,7.42774 z"
     clip-path="url(#pc5fbab3a8c)"
     style="fill:#ffffff;fill-opacity:1;stroke:#000000;stroke-width:4;stroke-linejoin:miter;stroke-dasharray:none"
     id="path242"
     transform="translate(-410.28788,-244.0149)" />
  <path
     d="m 959.27886,430.05841 c 6.23657,0 12.21854,-2.47781 16.62845,-6.88773 4.40992,-4.40992 6.88773,-10.39189 6.88773,-16.62845 0,-6.23656 -2.47781,-12.21853 -6.88773,-16.62845 -4.40991,-4.40991 -10.39188,-6.88773 -16.62845,-6.88773 -6.23656,0 -12.21853,2.47782 -16.62845,6.88773 -4.40991,4.40992 -6.88772,10.39189 -6.88772,16.62845 0,6.23656 2.47781,12.21853 6.88772,16.62845 4.40992,4.40992 10.39189,6.88773 16.62845,6.88773 z"
     clip-path="url(#pc5fbab3a8c)"
     style="fill:#ffffff;fill-opacity:1;stroke:#000000;stroke-width:4;stroke-linejoin:miter;stroke-dasharray:none"
     id="path245"
     transform="translate(-410.28788,-244.0149)" />
  <path
     d="m 917.2619,406.39836 c 6.27194,0 12.28784,-2.49186 16.72277,-6.92679 4.43493,-4.43493 6.92679,-10.45083 6.92679,-16.72277 0,-6.27193 -2.49186,-12.28783 -6.92679,-16.72276 -4.43493,-4.43493 -10.45083,-6.9268 -16.72277,-6.9268 -6.27193,0 -12.28783,2.49187 -16.72276,6.9268 -4.43493,4.43493 -6.9268,10.45083 -6.9268,16.72276 0,6.27194 2.49187,12.28784 6.9268,16.72277 4.43493,4.43493 10.45083,6.92679 16.72276,6.92679 z"
     clip-path="url(#pc5fbab3a8c)"
     style="fill:#ffffff;fill-opacity:1;stroke:#000000;stroke-width:4;stroke-linejoin:miter;stroke-dasharray:none"
     id="path248"
     transform="translate(-410.28788,-244.0149)" />
  <path
     d="m 916.65962,359.13977 c 6.36546,0 12.47106,-2.52903 16.97212,-7.03008 4.50105,-4.50106 7.03008,-10.60666 7.03008,-16.97212 0,-6.36546 -2.52903,-12.47106 -7.03008,-16.97211 -4.50106,-4.50106 -10.60666,-7.03008 -16.97212,-7.03008 -6.36545,0 -12.47105,2.52902 -16.97211,7.03008 -4.50106,4.50105 -7.03008,10.60665 -7.03008,16.97211 0,6.36546 2.52902,12.47106 7.03008,16.97212 4.50106,4.50105 10.60666,7.03008 16.97211,7.03008 z"
     clip-path="url(#pc5fbab3a8c)"
     style="fill:#ffffff;fill-opacity:1;stroke:#000000;stroke-width:4;stroke-linejoin:miter;stroke-dasharray:none"
     id="path251"
     transform="translate(-410.28788,-244.0149)" />
  <path
     d="m 958.61234,383.0344 c 6.41942,0 12.57678,-2.55046 17.11599,-7.08967 4.53921,-4.53921 7.08967,-10.69657 7.08967,-17.11598 0,-6.41942 -2.55046,-12.57677 -7.08967,-17.11599 -4.53921,-4.53921 -10.69657,-7.08967 -17.11599,-7.08967 -6.41941,0 -12.57677,2.55046 -17.11598,7.08967 -4.53921,4.53922 -7.08967,10.69657 -7.08967,17.11599 0,6.41941 2.55046,12.57677 7.08967,17.11598 4.53921,4.53921 10.69657,7.08967 17.11598,7.08967 z"
     clip-path="url(#pc5fbab3a8c)"
     style="fill:#ffffff;fill-opacity:1;stroke:#000000;stroke-width:4;stroke-linejoin:miter;stroke-dasharray:none"
     id="path254"
     transform="translate(-410.28788,-244.0149)" />
  <defs
     id="defs541">
    <clipPath
       id="pc5fbab3a8c">
      <rect
         x="431.19"
         y="85.968002"
         width="551.62799"
         height="551.62799"
         id="rect538" />
    </clipPath>
  </defs>
</svg>
