# time (s)	# positionX (m)	# positionY (m)
0.0	10.04	79.99984304
0.16	11.639999999999965	79.86485743999998
0.32	13.239999999999931	79.47873583999998
0.48	14.839999999999897	78.84147824
0.64	16.439999999999863	77.95308463999999
0.8	18.03999999999983	76.81355504
0.96	19.639999999999795	75.42288943999999
1.12	21.23999999999976	73.78108783999998
1.28	22.839999999999726	71.88815024
1.44	24.439999999999692	69.74407663999999
1.6	26.039999999999658	67.34886703999999
1.76	27.639999999999624	64.70252144000001
1.92	29.23999999999959	61.80503984000002
2.08	30.839999999999556	58.656422240000026
2.24	32.43999999999952	55.25666864000006
2.4	34.03999999999949	51.60577904000009
2.56	35.63999999999945	47.7037534400001
2.72	37.23999999999942	43.55059184000014
2.88	38.839999999999385	39.14629424000018
3.04	40.43999999999935	34.4908606400002
3.2	42.03999999999932	29.584291040000245
3.36	43.63999999999928	24.42658544000031
3.52	45.23999999999925	19.017743840000335
3.68	46.839999999999215	13.35776624000037
3.84	48.43999999999918	7.446652640000412
4.0	50.03999999999915	2.5611947839999942
4.16	51.63999999999911	8.03501782399995
4.32	53.23999999999908	13.257704863999898
4.48	54.839999999999044	18.229255903999853
4.64	56.43999999999901	22.949670943999816
4.8	58.039999999998976	27.418949983999795
4.96	59.63999999999894	31.63709302399974
5.12	61.23999999999891	35.60410006399971
5.28	62.839999999998874	39.319971103999706
5.44	64.43999999999892	42.78470614399966
5.6000000000000005	66.03999999999917	45.99830518399963
5.76	67.63999999999942	48.96076822399964
5.92	69.23999999999967	51.6720952639996
6.08	70.83999999999992	54.132286303999585
6.24	72.44000000000017	56.341341343999595
6.4	74.04000000000042	58.29926038399958
6.5600000000000005	75.64000000000067	60.00604342399957
6.72	77.24000000000092	61.46169046399959
6.88	78.84000000000117	62.66620150399959
7.04	80.44000000000142	63.619576543999585
7.2	82.04000000000167	64.32181558399961
7.36	83.64000000000192	64.77291862399959
7.5200000000000005	85.24000000000217	64.97288566399959
7.68	86.84000000000242	64.9217167039996
7.84	88.44000000000267	64.61941174399959
8.0	90.04000000000292	64.0659707839996
8.16	91.64000000000317	63.261393823999576
8.32	93.24000000000342	62.20568086399957
8.48	94.84000000000367	60.898831903999586
8.64	96.44000000000392	59.34084694399956
8.8	98.04000000000417	57.53172598399956
8.96	99.64000000000442	55.47146902399958
9.120000000000001	101.24000000000467	53.16007606399956
9.28	102.84000000000492	50.59754710399957
9.44	104.44000000000517	47.7838821439996
9.6	106.04000000000542	44.71908118399959
9.76	107.64000000000567	41.403144223999604
9.92	109.24000000000592	37.83607126399964
10.08	110.84000000000617	34.01786230399966
10.24	112.44000000000642	29.948517343999676
10.4	114.04000000000667	25.62803638399972
10.56	115.64000000000692	21.05641942399975
10.72	117.24000000000717	16.233666463999775
10.88	118.84000000000742	11.159777503999793
11.040000000000001	120.44000000000767	5.834752543999835
11.200000000000001	122.04000000000792	3.504244995199988
11.36	123.64000000000817	8.355156579199946
11.52	125.24000000000842	12.954932163199896
11.68	126.84000000000867	17.30357174719986
11.84	128.44000000000875	21.401075331199827
12.0	130.04000000000843	25.24744291519982
12.16	131.64000000000811	28.84267449919978
12.32	133.2400000000078	32.18677008319976
12.48	134.84000000000748	35.27972966719976
12.64	136.44000000000716	38.121553251199735
12.8	138.04000000000684	40.712240835199715
12.96	139.64000000000652	43.05179241919972
13.120000000000001	141.2400000000062	45.14020800319971
13.280000000000001	142.8400000000059	46.9774875871997
13.44	144.44000000000557	48.56363117119971
13.6	146.04000000000525	49.89863875519972
13.76	147.64000000000493	50.98251033919971
13.92	149.2400000000046	51.81524592319973
14.08	150.8400000000043	52.396845507199714
14.24	152.44000000000398	52.727309091199714
14.4	154.04000000000366	52.80663667519973
14.56	155.64000000000334	52.63482825919971
14.72	157.24000000000302	52.211883843199715
14.88	158.8400000000027	51.53780342719972
15.040000000000001	160.44000000000239	50.61258701119971
15.200000000000001	162.04000000000207	49.43623459519972
15.36	163.64000000000175	48.008746179199704
15.52	165.24000000000143	46.3301217631997
15.68	166.8400000000011	44.40036134719972
15.84	168.4400000000008	42.21946493119972
16.0	170.04000000000048	39.78743251519972
16.16	171.64000000000016	37.104264099199746
16.32	173.23999999999984	34.16995968319975
16.48	174.83999999999952	30.98451926719976
16.64	176.4399999999992	27.547942851199796
16.8	178.03999999999888	23.860230435199817
16.96	179.63999999999857	19.921382019199832
17.12	181.23999999999825	15.731397603199872
17.28	182.83999999999793	11.290277187199903
17.44	184.4399999999976	6.59802077119995
17.6	186.0399999999973	2.226627794719998
17.76	187.63999999999697	6.62733728911996
17.92	189.23999999999666	10.77691078351994
18.080000000000002	190.83999999999634	14.675348277919907
18.240000000000002	192.43999999999602	18.322649772319892
18.400000000000002	194.0399999999957	21.718815266719844
18.56	195.63999999999538	24.86384476111982
18.72	197.23999999999506	27.757738255519826
18.88	198.83999999999475	30.400495749919795
19.04	200.43999999999443	32.79211724431978
19.2	202.0399999999941	34.932602738719794
19.36	203.6399999999938	36.82195223311978
19.52	205.23999999999347	38.46016572751977
19.68	206.83999999999315	39.84724322191979
19.84	208.43999999999284	40.98318471631978
20.0	210.03999999999252	41.86799021071978
20.16	211.6399999999922	42.50165970511979
20.32	213.23999999999188	42.88419319951977
20.48	214.83999999999156	43.015590693919776
20.64	216.43999999999124	42.89585218831978
20.8	218.03999999999093	42.524977682719765
20.96	219.6399999999906	41.90296717711978
21.12	221.2399999999903	41.029820671519765
21.28	222.83999999998997	39.90553816591976
21.44	224.43999999998965	38.53011966031977
21.6	226.03999999998933	36.90356515471974
21.76	227.63999999998902	35.02587464911974
21.92	229.2399999999887	32.89704814351977
22.080000000000002	230.83999999998838	30.517085637919756
22.240000000000002	232.43999999998806	27.885987132319762
22.400000000000002	234.03999999998774	25.003752626719795
22.56	235.63999999998742	21.870382121119796
22.72	237.2399999999871	18.48587561551981
22.88	238.8399999999868	14.850233109919836
23.04	240.43999999998647	10.963454604319866
23.2	242.03999999998615	6.825540098719911
23.36	243.63999999998583	2.4364895931199504
23.52	245.2399999999855	5.564736861535971
23.68	246.8399999999852	9.286976396575934
23.84	248.43999999998488	12.7580799316159
24.0	250.03999999998456	15.978047466655891
24.16	251.63999999998424	18.946879001695873
24.32	253.23999999998392	21.66457453673588
24.48	254.8399999999836	24.131134071775858
24.64	256.43999999998357	26.346557606815846
24.8	258.0399999999844	28.31084514185586
24.96	259.6399999999852	30.023996676895848
25.12	261.239999999986	31.486012211935844
25.28	262.83999999998684	32.696891746975865
25.44	264.43999999998766	33.656635282015856
25.6	266.0399999999885	34.36524281705586
25.76	267.6399999999893	34.82271435209587
25.92	269.2399999999901	35.029049887135855
26.080000000000002	270.83999999999094	34.984249422175864
26.240000000000002	272.43999999999176	34.688312957215864
26.400000000000002	274.0399999999926	34.141240492255854
26.560000000000002	275.6399999999934	33.34303202729587
26.72	277.2399999999942	32.29368756233585
26.88	278.83999999999503	30.993207097375844
27.04	280.43999999999585	29.441590632415867
27.2	282.03999999999667	27.638838167455845
27.36	283.6399999999975	25.584949702495848
27.52	285.2399999999983	23.279925237535878
27.68	286.8399999999991	20.72376477257587
27.84	288.43999999999994	17.91646830761588
28.0	290.04000000000076	14.858035842655903
28.16	291.6400000000016	11.54846737769593
28.32	293.2400000000024	7.987762912735966
28.48	294.8400000000032	4.175922447775992
28.64	296.44000000000403	3.619795420308787
28.8	298.04000000000485	7.037267198772759
28.96	299.64000000000567	10.203602977236754
29.12	301.2400000000065	13.11880275570073
29.28	302.8400000000073	15.782866534164706
29.44	304.4400000000081	18.195794312628674
29.6	306.04000000000894	20.357586091092667
29.76	307.64000000000976	22.268241869556686
29.92	309.2400000000106	23.927761648020663
30.080000000000002	310.8400000000114	25.336145426484663
30.240000000000002	312.4400000000122	26.49339320494868
30.400000000000002	314.04000000001304	27.399504983412662
30.560000000000002	315.64000000001386	28.05448076187667
30.72	317.2400000000147	28.45832054034067
30.88	318.8400000000155	28.611024318804656
31.04	320.4400000000163	28.51259209726867
31.2	322.04000000001713	28.163023875732655
31.36	323.64000000001795	27.56231965419665
31.52	325.24000000001877	26.710479432660666
31.68	326.8400000000196	25.60750321112464
31.84	328.4400000000204	24.25339098958864
32.0	330.0400000000212	22.648142768052647
32.160000000000004	331.64000000002204	20.79175854651663
32.32	333.24000000002286	18.684238324980637
32.480000000000004	334.8400000000237	16.32558210344466
32.64	336.4400000000245	13.715789881908679
32.8	338.0400000000253	10.854861660372684
32.96	339.64000000002613	7.742797438836689
33.12	341.24000000002695	4.379597217300711
33.28	342.84000000002777	3.052908336799274
33.44	344.4400000000286	6.126248696181655
33.6	346.0400000000294	8.948453055564045
33.76	347.6400000000302	11.519521414946453
33.92	349.24000000003105	13.839453774328824
34.08	350.84000000003186	15.90825013371122
34.24	352.4400000000327	17.725910493093608
34.4	354.0400000000335	19.29243485247602
34.56	355.6400000000343	20.60782321185843
34.72	357.24000000003514	21.672075571240825
34.88	358.84000000003596	22.485191930623245
35.04	360.4400000000368	23.047172290005626
35.2	362.0400000000376	23.358016649388027
35.36	363.6400000000384	23.417725008770443
35.52	365.24000000003923	23.226297368152824
35.68	366.84000000004005	22.783733727535232
35.84	368.44000000004087	22.090034086917633
36.0	370.0400000000417	21.14519844630002
36.160000000000004	371.6400000000425	19.949226805682436
36.32	373.2400000000433	18.502119165064816
36.480000000000004	374.84000000004414	16.80387552444721
36.64	376.44000000004496	14.85449588382961
36.800000000000004	378.0400000000458	12.653980243212022
36.96	379.6400000000466	10.202328602594447
37.12	381.2400000000474	7.499540961976839
37.28	382.84000000004824	4.5456173213592574
37.44	384.44000000004905	2.5117188293972683
37.6	386.0400000000499	5.288284025953097
37.76	387.6400000000507	7.813713222508919
37.92	389.2400000000515	10.088006419064731
38.08	390.8400000000523	12.111163615620567
38.24	392.44000000005315	13.883184812176427
38.4	394.04000000005396	15.404070008732244
38.56	395.6400000000548	16.673819205288073
38.72	397.2400000000556	17.692432401843906
38.88	398.8400000000564	18.459909598399765
39.04	400.44000000005724	18.976250794955583
39.2	402.04000000005806	19.241455991511422
39.36	403.6400000000589	19.25552518806727
39.52	405.2400000000597	19.01845838462309
39.68	406.8400000000605	18.53025558117894
39.84	408.44000000006133	17.790916777734775
40.0	410.04000000006215	16.800441974290603
40.160000000000004	411.64000000006297	15.558831170846444
40.32	413.2400000000638	14.066084367402288
40.480000000000004	414.8400000000646	12.322201563958133
40.64	416.4400000000654	10.327182760513958
40.800000000000004	418.04000000006624	8.081027957069809
40.96	419.64000000006706	5.583737153625651
41.12	421.2400000000679	2.8353103501815076
41.28	422.8400000000687	3.7882028381698127
41.44	424.4400000000695	6.129312721269549
41.6	426.04000000007034	8.21928660436929
41.76	427.64000000007115	10.058124487469025
41.92	429.240000000072	11.645826370568786
42.08	430.8400000000728	12.982392253668529
42.24	432.4400000000736	14.067822136768271
42.4	434.04000000007443	14.902116019868036
42.56	435.64000000007525	15.485273902967759
42.72	437.24000000007607	15.817295786067508
42.88	438.8400000000769	15.89818166916726
43.04	440.4400000000777	15.72793155226699
43.2	442.0400000000785	15.306545435366745
43.36	443.64000000007934	14.634023318466486
43.52	445.24000000008016	13.710365201566223
43.68	446.840000000081	12.53557108466598
43.84	448.4400000000818	11.109640967765698
44.0	450.0400000000826	9.432574850865441
44.160000000000004	451.64000000008343	7.5043727339652015
44.32	453.24000000008425	5.325034617064956
44.480000000000004	454.84000000008507	2.8945605001647063
44.64	456.4400000000859	3.4858984303866443
44.800000000000004	458.0400000000867	5.564708815596873
44.96	459.6400000000875	7.392383200807096
45.12	461.24000000008834	8.968921586017345
45.28	462.84000000008916	10.294323971227566
45.44	464.44000000009	11.368590356437796
45.6	466.0400000000908	12.191720741648039
45.76	467.6400000000916	12.76371512685825
45.92	469.24000000009244	13.084573512068486
46.08	470.84000000009326	13.154295897278717
46.24	472.4400000000941	12.972882282488934
46.4	474.0400000000949	12.540332667699177
46.56	475.6400000000957	11.856647052909398
46.72	477.24000000009653	10.921825438119622
46.88	478.84000000009735	9.73586782332986
47.04	480.44000000009817	8.298774208540065
47.2	482.040000000099	6.610544593750296
47.36	483.6400000000998	4.671178978960523
47.52	485.2400000001006	2.480677364170758
47.68	486.84000000010144	3.570206988315861
47.84	488.44000000010226	5.3733973216266495
48.0	490.0400000001031	6.925451654937449
