<?xml version="1.0" encoding="UTF-8" standalone="no"?>
<!-- Created with matplotlib (http://matplotlib.org/) -->

<svg
   xmlns:dc="http://purl.org/dc/elements/1.1/"
   xmlns:cc="http://creativecommons.org/ns#"
   xmlns:rdf="http://www.w3.org/1999/02/22-rdf-syntax-ns#"
   xmlns:svg="http://www.w3.org/2000/svg"
   xmlns="http://www.w3.org/2000/svg"
   xmlns:xlink="http://www.w3.org/1999/xlink"
   xmlns:sodipodi="http://sodipodi.sourceforge.net/DTD/sodipodi-0.dtd"
   xmlns:inkscape="http://www.inkscape.org/namespaces/inkscape"
   height="623.88586pt"
   version="1.1"
   viewBox="0 0 1156.3704 623.88587"
   width="1156.3704pt"
   id="svg1433"
   sodipodi:docname="loss-stoch.svg"
   inkscape:version="0.92.3 (2405546, 2018-03-11)">
  <metadata
     id="metadata1437">
    <rdf:RDF>
      <cc:Work
         rdf:about="">
        <dc:format>image/svg+xml</dc:format>
        <dc:type
           rdf:resource="http://purl.org/dc/dcmitype/StillImage" />
        <dc:title></dc:title>
      </cc:Work>
    </rdf:RDF>
  </metadata>
  <sodipodi:namedview
     pagecolor="#ffffff"
     bordercolor="#666666"
     borderopacity="1"
     objecttolerance="10"
     gridtolerance="10"
     guidetolerance="10"
     inkscape:pageopacity="0"
     inkscape:pageshadow="2"
     inkscape:window-width="1916"
     inkscape:window-height="1041"
     id="namedview1435"
     showgrid="false"
     fit-margin-top="0"
     fit-margin-left="0"
     fit-margin-right="0"
     fit-margin-bottom="0"
     inkscape:zoom="0.54455941"
     inkscape:cx="650.77704"
     inkscape:cy="292.92868"
     inkscape:window-x="0"
     inkscape:window-y="18"
     inkscape:window-maximized="0"
     inkscape:current-layer="svg1433" />
  <defs
     id="defs1167"
     style="stroke-linecap:butt;stroke-linejoin:round">
    <style
       type="text/css"
       id="style1165">
*{stroke-linecap:butt;stroke-linejoin:round;}
  </style>
    <defs
       id="defs1397">
      <path
         d="M 9.421875,75.984375 H 18.40625 V 0 H 9.421875 Z"
         id="DejaVuSans-6c"
         inkscape:connector-curvature="0"
         style="stroke-linecap:butt;stroke-linejoin:round" />
      <path
         d="m 44.28125,53.078125 v -8.5 Q 40.484375,46.53125 36.375,47.5 q -4.09375,0.984375 -8.5,0.984375 -6.6875,0 -10.03125,-2.046875 Q 14.5,44.390625 14.5,40.28125 q 0,-3.125 2.390625,-4.90625 2.390625,-1.78125 9.625,-3.390625 l 3.078125,-0.6875 Q 39.15625,29.25 43.1875,25.515625 47.21875,21.78125 47.21875,15.09375 q 0,-7.625 -6.03125,-12.078125 -6.03125,-4.4375 -16.578125,-4.4375 -4.390625,0 -9.15625,0.859375 Q 10.6875,0.296875 5.421875,2 v 9.28125 q 4.984375,-2.59375 9.8125,-3.890625 4.828125,-1.28125 9.578125,-1.28125 6.34375,0 9.75,2.171875 3.421875,2.171875 3.421875,6.125 0,3.65625 -2.46875,5.609375 -2.453125,1.953125 -10.8125,3.765625 l -3.125,0.734375 q -8.34375,1.75 -12.0625,5.390625 -3.703125,3.640625 -3.703125,9.984375 0,7.71875 5.46875,11.90625 Q 16.75,56 26.8125,56 q 4.96875,0 9.359375,-0.734375 4.40625,-0.71875 8.109375,-2.1875 z"
         id="DejaVuSans-73"
         inkscape:connector-curvature="0"
         style="stroke-linecap:butt;stroke-linejoin:round" />
    </defs>
    <defs
       id="defs1306">
      <path
         inkscape:connector-curvature="0"
         style="stroke:#000000;stroke-width:0.80000001;stroke-linecap:butt;stroke-linejoin:round"
         id="m60584d358c"
         d="M 0,0 H -3.5" />
    </defs>
    <defs
       id="defs1325">
      <path
         style="stroke-linecap:butt;stroke-linejoin:round"
         inkscape:connector-curvature="0"
         id="DejaVuSans-35"
         d="m 10.796875,72.90625 h 38.71875 v -8.3125 h -29.6875 V 46.734375 q 2.140625,0.734375 4.28125,1.09375 2.15625,0.359375 4.3125,0.359375 Q 40.625,48.1875 47.75,41.5 54.890625,34.8125 54.890625,23.390625 54.890625,11.625 47.5625,5.09375 40.234375,-1.421875 26.90625,-1.421875 q -4.59375,0 -9.359375,0.78125 -4.75,0.78125 -9.828125,2.34375 V 11.625 q 4.390625,-2.390625 9.078125,-3.5625 4.6875,-1.171875 9.90625,-1.171875 8.453125,0 13.375,4.4375 4.9375,4.4375 4.9375,12.0625 0,7.609375 -4.9375,12.046875 -4.921875,4.453125 -13.375,4.453125 -3.953125,0 -7.890625,-0.875 -3.921875,-0.875 -8.015625,-2.734375 z" />
    </defs>
    <style
       id="style7035"
       type="text/css">
*{stroke-linecap:butt;stroke-linejoin:round;}
  </style>
    <path
       style="stroke:#000000;stroke-width:0.8;"
       id="me825a7822a"
       d="M 0 0  L 0 3.5  " />
    <path
       id="DejaVuSans-30"
       d="M 31.78125 66.40625  Q 24.171875 66.40625 20.328125 58.90625  Q 16.5 51.421875 16.5 36.375  Q 16.5 21.390625 20.328125 13.890625  Q 24.171875 6.390625 31.78125 6.390625  Q 39.453125 6.390625 43.28125 13.890625  Q 47.125 21.390625 47.125 36.375  Q 47.125 51.421875 43.28125 58.90625  Q 39.453125 66.40625 31.78125 66.40625  z M 31.78125 74.21875  Q 44.046875 74.21875 50.515625 64.515625  Q 56.984375 54.828125 56.984375 36.375  Q 56.984375 17.96875 50.515625 8.265625  Q 44.046875 -1.421875 31.78125 -1.421875  Q 19.53125 -1.421875 13.0625 8.265625  Q 6.59375 17.96875 6.59375 36.375  Q 6.59375 54.828125 13.0625 64.515625  Q 19.53125 74.21875 31.78125 74.21875  z " />
    <path
       id="DejaVuSans-32"
       d="M 19.1875 8.296875  L 53.609375 8.296875  L 53.609375 0  L 7.328125 0  L 7.328125 8.296875  Q 12.9375 14.109375 22.625 23.890625  Q 32.328125 33.6875 34.8125 36.53125  Q 39.546875 41.84375 41.421875 45.53125  Q 43.3125 49.21875 43.3125 52.78125  Q 43.3125 58.59375 39.234375 62.25  Q 35.15625 65.921875 28.609375 65.921875  Q 23.96875 65.921875 18.8125 64.3125  Q 13.671875 62.703125 7.8125 59.421875  L 7.8125 69.390625  Q 13.765625 71.78125 18.9375 73  Q 24.125 74.21875 28.421875 74.21875  Q 39.75 74.21875 46.484375 68.546875  Q 53.21875 62.890625 53.21875 53.421875  Q 53.21875 48.921875 51.53125 44.890625  Q 49.859375 40.875 45.40625 35.40625  Q 44.1875 33.984375 37.640625 27.21875  Q 31.109375 20.453125 19.1875 8.296875  z " />
    <path
       id="DejaVuSans-34"
       d="M 37.796875 64.3125  L 12.890625 25.390625  L 37.796875 25.390625  z M 35.203125 72.90625  L 47.609375 72.90625  L 47.609375 25.390625  L 58.015625 25.390625  L 58.015625 17.1875  L 47.609375 17.1875  L 47.609375 0  L 37.796875 0  L 37.796875 17.1875  L 4.890625 17.1875  L 4.890625 26.703125  z " />
    <path
       id="DejaVuSans-36"
       d="M 33.015625 40.375  Q 26.375 40.375 22.484375 35.828125  Q 18.609375 31.296875 18.609375 23.390625  Q 18.609375 15.53125 22.484375 10.953125  Q 26.375 6.390625 33.015625 6.390625  Q 39.65625 6.390625 43.53125 10.953125  Q 47.40625 15.53125 47.40625 23.390625  Q 47.40625 31.296875 43.53125 35.828125  Q 39.65625 40.375 33.015625 40.375  z M 52.59375 71.296875  L 52.59375 62.3125  Q 48.875 64.0625 45.09375 64.984375  Q 41.3125 65.921875 37.59375 65.921875  Q 27.828125 65.921875 22.671875 59.328125  Q 17.53125 52.734375 16.796875 39.40625  Q 19.671875 43.65625 24.015625 45.921875  Q 28.375 48.1875 33.59375 48.1875  Q 44.578125 48.1875 50.953125 41.515625  Q 57.328125 34.859375 57.328125 23.390625  Q 57.328125 12.15625 50.6875 5.359375  Q 44.046875 -1.421875 33.015625 -1.421875  Q 20.359375 -1.421875 13.671875 8.265625  Q 6.984375 17.96875 6.984375 36.375  Q 6.984375 53.65625 15.1875 63.9375  Q 23.390625 74.21875 37.203125 74.21875  Q 40.921875 74.21875 44.703125 73.484375  Q 48.484375 72.75 52.59375 71.296875  z " />
    <path
       id="DejaVuSans-38"
       d="M 31.78125 34.625  Q 24.75 34.625 20.71875 30.859375  Q 16.703125 27.09375 16.703125 20.515625  Q 16.703125 13.921875 20.71875 10.15625  Q 24.75 6.390625 31.78125 6.390625  Q 38.8125 6.390625 42.859375 10.171875  Q 46.921875 13.96875 46.921875 20.515625  Q 46.921875 27.09375 42.890625 30.859375  Q 38.875 34.625 31.78125 34.625  z M 21.921875 38.8125  Q 15.578125 40.375 12.03125 44.71875  Q 8.5 49.078125 8.5 55.328125  Q 8.5 64.0625 14.71875 69.140625  Q 20.953125 74.21875 31.78125 74.21875  Q 42.671875 74.21875 48.875 69.140625  Q 55.078125 64.0625 55.078125 55.328125  Q 55.078125 49.078125 51.53125 44.71875  Q 48 40.375 41.703125 38.8125  Q 48.828125 37.15625 52.796875 32.3125  Q 56.78125 27.484375 56.78125 20.515625  Q 56.78125 9.90625 50.3125 4.234375  Q 43.84375 -1.421875 31.78125 -1.421875  Q 19.734375 -1.421875 13.25 4.234375  Q 6.78125 9.90625 6.78125 20.515625  Q 6.78125 27.484375 10.78125 32.3125  Q 14.796875 37.15625 21.921875 38.8125  z M 18.3125 54.390625  Q 18.3125 48.734375 21.84375 45.5625  Q 25.390625 42.390625 31.78125 42.390625  Q 38.140625 42.390625 41.71875 45.5625  Q 45.3125 48.734375 45.3125 54.390625  Q 45.3125 60.0625 41.71875 63.234375  Q 38.140625 66.40625 31.78125 66.40625  Q 25.390625 66.40625 21.84375 63.234375  Q 18.3125 60.0625 18.3125 54.390625  z " />
    <path
       id="DejaVuSans-31"
       d="M 12.40625 8.296875  L 28.515625 8.296875  L 28.515625 63.921875  L 10.984375 60.40625  L 10.984375 69.390625  L 28.421875 72.90625  L 38.28125 72.90625  L 38.28125 8.296875  L 54.390625 8.296875  L 54.390625 0  L 12.40625 0  z " />
    <path
       id="DejaVuSans-65"
       d="M 56.203125 29.59375  L 56.203125 25.203125  L 14.890625 25.203125  Q 15.484375 15.921875 20.484375 11.0625  Q 25.484375 6.203125 34.421875 6.203125  Q 39.59375 6.203125 44.453125 7.46875  Q 49.3125 8.734375 54.109375 11.28125  L 54.109375 2.78125  Q 49.265625 0.734375 44.1875 -0.34375  Q 39.109375 -1.421875 33.890625 -1.421875  Q 20.796875 -1.421875 13.15625 6.1875  Q 5.515625 13.8125 5.515625 26.8125  Q 5.515625 40.234375 12.765625 48.109375  Q 20.015625 56 32.328125 56  Q 43.359375 56 49.78125 48.890625  Q 56.203125 41.796875 56.203125 29.59375  z M 47.21875 32.234375  Q 47.125 39.59375 43.09375 43.984375  Q 39.0625 48.390625 32.421875 48.390625  Q 24.90625 48.390625 20.390625 44.140625  Q 15.875 39.890625 15.1875 32.171875  z " />
    <path
       id="DejaVuSans-70"
       d="M 18.109375 8.203125  L 18.109375 -20.796875  L 9.078125 -20.796875  L 9.078125 54.6875  L 18.109375 54.6875  L 18.109375 46.390625  Q 20.953125 51.265625 25.265625 53.625  Q 29.59375 56 35.59375 56  Q 45.5625 56 51.78125 48.09375  Q 58.015625 40.1875 58.015625 27.296875  Q 58.015625 14.40625 51.78125 6.484375  Q 45.5625 -1.421875 35.59375 -1.421875  Q 29.59375 -1.421875 25.265625 0.953125  Q 20.953125 3.328125 18.109375 8.203125  z M 48.6875 27.296875  Q 48.6875 37.203125 44.609375 42.84375  Q 40.53125 48.484375 33.40625 48.484375  Q 26.265625 48.484375 22.1875 42.84375  Q 18.109375 37.203125 18.109375 27.296875  Q 18.109375 17.390625 22.1875 11.75  Q 26.265625 6.109375 33.40625 6.109375  Q 40.53125 6.109375 44.609375 11.75  Q 48.6875 17.390625 48.6875 27.296875  z " />
    <path
       id="DejaVuSans-6f"
       d="M 30.609375 48.390625  Q 23.390625 48.390625 19.1875 42.75  Q 14.984375 37.109375 14.984375 27.296875  Q 14.984375 17.484375 19.15625 11.84375  Q 23.34375 6.203125 30.609375 6.203125  Q 37.796875 6.203125 41.984375 11.859375  Q 46.1875 17.53125 46.1875 27.296875  Q 46.1875 37.015625 41.984375 42.703125  Q 37.796875 48.390625 30.609375 48.390625  z M 30.609375 56  Q 42.328125 56 49.015625 48.375  Q 55.71875 40.765625 55.71875 27.296875  Q 55.71875 13.875 49.015625 6.21875  Q 42.328125 -1.421875 30.609375 -1.421875  Q 18.84375 -1.421875 12.171875 6.21875  Q 5.515625 13.875 5.515625 27.296875  Q 5.515625 40.765625 12.171875 48.375  Q 18.84375 56 30.609375 56  z " />
    <path
       id="DejaVuSans-63"
       d="M 48.78125 52.59375  L 48.78125 44.1875  Q 44.96875 46.296875 41.140625 47.34375  Q 37.3125 48.390625 33.40625 48.390625  Q 24.65625 48.390625 19.8125 42.84375  Q 14.984375 37.3125 14.984375 27.296875  Q 14.984375 17.28125 19.8125 11.734375  Q 24.65625 6.203125 33.40625 6.203125  Q 37.3125 6.203125 41.140625 7.25  Q 44.96875 8.296875 48.78125 10.40625  L 48.78125 2.09375  Q 45.015625 0.34375 40.984375 -0.53125  Q 36.96875 -1.421875 32.421875 -1.421875  Q 20.0625 -1.421875 12.78125 6.34375  Q 5.515625 14.109375 5.515625 27.296875  Q 5.515625 40.671875 12.859375 48.328125  Q 20.21875 56 33.015625 56  Q 37.15625 56 41.109375 55.140625  Q 45.0625 54.296875 48.78125 52.59375  z " />
    <path
       id="DejaVuSans-68"
       d="M 54.890625 33.015625  L 54.890625 0  L 45.90625 0  L 45.90625 32.71875  Q 45.90625 40.484375 42.875 44.328125  Q 39.84375 48.1875 33.796875 48.1875  Q 26.515625 48.1875 22.3125 43.546875  Q 18.109375 38.921875 18.109375 30.90625  L 18.109375 0  L 9.078125 0  L 9.078125 75.984375  L 18.109375 75.984375  L 18.109375 46.1875  Q 21.34375 51.125 25.703125 53.5625  Q 30.078125 56 35.796875 56  Q 45.21875 56 50.046875 50.171875  Q 54.890625 44.34375 54.890625 33.015625  z " />
    <path
       style="stroke:#000000;stroke-width:0.8;"
       id="m190378d0c3"
       d="M 0 0  L -3.5 0  " />
    <path
       id="DejaVuSans-35-2"
       d="M 10.796875 72.90625  L 49.515625 72.90625  L 49.515625 64.59375  L 19.828125 64.59375  L 19.828125 46.734375  Q 21.96875 47.46875 24.109375 47.828125  Q 26.265625 48.1875 28.421875 48.1875  Q 40.625 48.1875 47.75 41.5  Q 54.890625 34.8125 54.890625 23.390625  Q 54.890625 11.625 47.5625 5.09375  Q 40.234375 -1.421875 26.90625 -1.421875  Q 22.3125 -1.421875 17.546875 -0.640625  Q 12.796875 0.140625 7.71875 1.703125  L 7.71875 11.625  Q 12.109375 9.234375 16.796875 8.0625  Q 21.484375 6.890625 26.703125 6.890625  Q 35.15625 6.890625 40.078125 11.328125  Q 45.015625 15.765625 45.015625 23.390625  Q 45.015625 31 40.078125 35.4375  Q 35.15625 39.890625 26.703125 39.890625  Q 22.75 39.890625 18.8125 39.015625  Q 14.890625 38.140625 10.796875 36.28125  z " />
    <path
       id="DejaVuSans-33"
       d="M 40.578125 39.3125  Q 47.65625 37.796875 51.625 33  Q 55.609375 28.21875 55.609375 21.1875  Q 55.609375 10.40625 48.1875 4.484375  Q 40.765625 -1.421875 27.09375 -1.421875  Q 22.515625 -1.421875 17.65625 -0.515625  Q 12.796875 0.390625 7.625 2.203125  L 7.625 11.71875  Q 11.71875 9.328125 16.59375 8.109375  Q 21.484375 6.890625 26.8125 6.890625  Q 36.078125 6.890625 40.9375 10.546875  Q 45.796875 14.203125 45.796875 21.1875  Q 45.796875 27.640625 41.28125 31.265625  Q 36.765625 34.90625 28.71875 34.90625  L 20.21875 34.90625  L 20.21875 43.015625  L 29.109375 43.015625  Q 36.375 43.015625 40.234375 45.921875  Q 44.09375 48.828125 44.09375 54.296875  Q 44.09375 59.90625 40.109375 62.90625  Q 36.140625 65.921875 28.71875 65.921875  Q 24.65625 65.921875 20.015625 65.03125  Q 15.375 64.15625 9.8125 62.3125  L 9.8125 71.09375  Q 15.4375 72.65625 20.34375 73.4375  Q 25.25 74.21875 29.59375 74.21875  Q 40.828125 74.21875 47.359375 69.109375  Q 53.90625 64.015625 53.90625 55.328125  Q 53.90625 49.265625 50.4375 45.09375  Q 46.96875 40.921875 40.578125 39.3125  z " />
    <path
       id="DejaVuSans-6c-1"
       d="M 9.421875 75.984375  L 18.40625 75.984375  L 18.40625 0  L 9.421875 0  z " />
    <path
       id="DejaVuSans-73-2"
       d="M 44.28125 53.078125  L 44.28125 44.578125  Q 40.484375 46.53125 36.375 47.5  Q 32.28125 48.484375 27.875 48.484375  Q 21.1875 48.484375 17.84375 46.4375  Q 14.5 44.390625 14.5 40.28125  Q 14.5 37.15625 16.890625 35.375  Q 19.28125 33.59375 26.515625 31.984375  L 29.59375 31.296875  Q 39.15625 29.25 43.1875 25.515625  Q 47.21875 21.78125 47.21875 15.09375  Q 47.21875 7.46875 41.1875 3.015625  Q 35.15625 -1.421875 24.609375 -1.421875  Q 20.21875 -1.421875 15.453125 -0.5625  Q 10.6875 0.296875 5.421875 2  L 5.421875 11.28125  Q 10.40625 8.6875 15.234375 7.390625  Q 20.0625 6.109375 24.8125 6.109375  Q 31.15625 6.109375 34.5625 8.28125  Q 37.984375 10.453125 37.984375 14.40625  Q 37.984375 18.0625 35.515625 20.015625  Q 33.0625 21.96875 24.703125 23.78125  L 21.578125 24.515625  Q 13.234375 26.265625 9.515625 29.90625  Q 5.8125 33.546875 5.8125 39.890625  Q 5.8125 47.609375 11.28125 51.796875  Q 16.75 56 26.8125 56  Q 31.78125 56 36.171875 55.265625  Q 40.578125 54.546875 44.28125 53.078125  z " />
    <clipPath
       id="p81290c50dd">
      <rect
         id="rect7304"
         y="87.0048"
         x="172.44"
         width="1069.128"
         height="558.2808" />
    </clipPath>
    <clipPath
       id="p81290c50dd-3">
      <rect
         id="rect7304-6"
         y="87.004799"
         x="172.44"
         width="1069.1281"
         height="558.28082" />
    </clipPath>
  </defs>
  <g
     id="line2d_1"
     style="stroke-linecap:butt;stroke-linejoin:round"
     transform="translate(-85.597618,-86.6048)">
    <defs
       id="defs1176">
      <path
         d="M 0,0 V 3.5"
         id="mbf65fef6e1"
         style="stroke:#000000;stroke-width:0.80000001;stroke-linecap:butt;stroke-linejoin:round"
         inkscape:connector-curvature="0" />
    </defs>
    <g
       id="g1180"
       style="stroke-linecap:butt;stroke-linejoin:round">
      <use
         style="stroke:#000000;stroke-width:0.80000001;stroke-linecap:butt;stroke-linejoin:round"
         x="221.03673"
         xlink:href="#mbf65fef6e1"
         y="645.28558"
         id="use1178"
         width="100%"
         height="100%" />
    </g>
  </g>
  <use
     style="stroke:#000000;stroke-width:0.80000001;stroke-linecap:butt;stroke-linejoin:round"
     x="172.44"
     xlink:href="#m60584d358c"
     y="634.79346"
     id="use1308"
     width="100%"
     height="100%"
     transform="translate(-85.597618,-86.6048)" />
  <use
     style="stroke:#000000;stroke-width:0.80000001;stroke-linecap:butt;stroke-linejoin:round"
     x="172.44"
     xlink:href="#m60584d358c"
     y="530.31104"
     id="use1319"
     width="100%"
     height="100%"
     transform="translate(-85.597618,-86.6048)" />
  <use
     style="stroke:#000000;stroke-width:0.80000001;stroke-linecap:butt;stroke-linejoin:round"
     x="172.44"
     xlink:href="#m60584d358c"
     y="425.82855"
     id="use1335"
     width="100%"
     height="100%"
     transform="translate(-85.597618,-86.6048)" />
  <use
     style="stroke:#000000;stroke-width:0.80000001;stroke-linecap:butt;stroke-linejoin:round"
     x="172.44"
     xlink:href="#m60584d358c"
     y="321.3461"
     id="use1350"
     width="100%"
     height="100%"
     transform="translate(-85.597618,-86.6048)" />
  <use
     style="stroke:#000000;stroke-width:0.80000001;stroke-linecap:butt;stroke-linejoin:round"
     x="172.44"
     xlink:href="#m60584d358c"
     y="216.86365"
     id="use1365"
     width="100%"
     height="100%"
     transform="translate(-85.597618,-86.6048)" />
  <use
     style="stroke:#000000;stroke-width:0.80000001;stroke-linecap:butt;stroke-linejoin:round"
     x="172.44"
     xlink:href="#m60584d358c"
     y="112.3812"
     id="use1380"
     width="100%"
     height="100%"
     transform="translate(-85.597618,-86.6048)" />
  <path
     inkscape:connector-curvature="0"
     id="path1414"
     style="fill:none;stroke:#000000;stroke-width:0.80000001;stroke-linecap:square;stroke-linejoin:miter"
     d="M 86.842378,558.6808 V 0.40000003" />
  <g
     id="patch_4"
     style="stroke-linecap:butt;stroke-linejoin:round"
     transform="translate(-85.597618,-86.6048)">
    <path
       d="M 1241.568,645.2856 V 87.0048"
       style="fill:none;stroke:#000000;stroke-width:0.80000001;stroke-linecap:square;stroke-linejoin:miter"
       id="path1417"
       inkscape:connector-curvature="0" />
  </g>
  <g
     id="patch_5"
     style="stroke-linecap:butt;stroke-linejoin:round"
     transform="translate(-85.597618,-86.6048)">
    <path
       d="M 172.44,645.2856 H 1241.568"
       style="fill:none;stroke:#000000;stroke-width:0.80000001;stroke-linecap:square;stroke-linejoin:miter"
       id="path1420"
       inkscape:connector-curvature="0" />
  </g>
  <g
     id="patch_6"
     style="stroke-linecap:butt;stroke-linejoin:round"
     transform="translate(-85.597618,-86.6048)">
    <path
       d="M 172.44,87.0048 H 1241.568"
       style="fill:none;stroke:#000000;stroke-width:0.80000001;stroke-linecap:square;stroke-linejoin:miter"
       id="path1423"
       inkscape:connector-curvature="0" />
  </g>
  <defs
     id="defs1431">
    <clipPath
       id="p2e08660455"
       style="stroke-linecap:butt;stroke-linejoin:round">
      <rect
         height="558.28082"
         width="1069.1281"
         x="172.44"
         y="87.004799"
         id="rect1428"
         style="stroke-linecap:butt;stroke-linejoin:round" />
    </clipPath>
  </defs>
  <text
     xml:space="preserve"
     style="font-style:normal;font-weight:normal;font-size:20px;line-height:125%;font-family:sans-serif;text-align:center;letter-spacing:0px;word-spacing:0px;text-anchor:middle;fill:#000000;fill-opacity:1;stroke:none;stroke-width:0.75px;stroke-linecap:butt;stroke-linejoin:miter;stroke-opacity:1"
     x="632.64984"
     y="619.72571"
     id="text1943"><tspan
       sodipodi:role="line"
       id="tspan1941"
       style="font-size:20px;text-align:center;text-anchor:middle;stroke-width:0.75px;stroke-linecap:butt;stroke-linejoin:round"
       x="632.64984"
       y="619.72571">Epoch</tspan></text>
  <text
     xml:space="preserve"
     style="font-style:normal;font-weight:normal;font-size:20px;line-height:125%;font-family:sans-serif;text-align:center;letter-spacing:0px;word-spacing:0px;text-anchor:middle;fill:#000000;fill-opacity:1;stroke:none;stroke-width:0.75px;stroke-linecap:butt;stroke-linejoin:miter;stroke-opacity:1"
     x="134.28796"
     y="594.12866"
     id="text1943-3"><tspan
       sodipodi:role="line"
       id="tspan1941-6"
       style="font-size:20px;text-align:center;text-anchor:middle;stroke-width:0.75px;stroke-linecap:butt;stroke-linejoin:round"
       x="134.28796"
       y="594.12866">0</tspan></text>
  <text
     xml:space="preserve"
     style="font-style:normal;font-weight:normal;font-size:20px;line-height:125%;font-family:sans-serif;text-align:center;letter-spacing:0px;word-spacing:0px;text-anchor:middle;fill:#000000;fill-opacity:1;stroke:none;stroke-width:0.75px;stroke-linecap:butt;stroke-linejoin:miter;stroke-opacity:1"
     x="329.79309"
     y="594.12866"
     id="text1943-3-7"><tspan
       sodipodi:role="line"
       id="tspan1941-6-5"
       style="font-size:20px;text-align:center;text-anchor:middle;stroke-width:0.75px;stroke-linecap:butt;stroke-linejoin:round"
       x="329.79309"
       y="594.12866">200</tspan></text>
  <g
     id="line2d_2"
     style="stroke-linecap:butt;stroke-linejoin:round"
     transform="translate(-85.597618,-86.6048)">
    <g
       id="g1194"
       style="stroke-linecap:butt;stroke-linejoin:round">
      <use
         style="stroke:#000000;stroke-width:0.80000001;stroke-linecap:butt;stroke-linejoin:round"
         x="415.61823"
         xlink:href="#mbf65fef6e1"
         y="645.28558"
         id="use1192"
         width="100%"
         height="100%" />
    </g>
  </g>
  <g
     id="line2d_3"
     style="stroke-linecap:butt;stroke-linejoin:round"
     transform="translate(-85.597618,-86.6048)">
    <g
       id="g1212"
       style="stroke-linecap:butt;stroke-linejoin:round">
      <use
         style="stroke:#000000;stroke-width:0.80000001;stroke-linecap:butt;stroke-linejoin:round"
         x="610.19971"
         xlink:href="#mbf65fef6e1"
         y="645.28558"
         id="use1210"
         width="100%"
         height="100%" />
    </g>
  </g>
  <g
     id="line2d_4"
     style="stroke-linecap:butt;stroke-linejoin:round"
     transform="translate(-85.597618,-86.6048)">
    <g
       id="g1230"
       style="stroke-linecap:butt;stroke-linejoin:round">
      <use
         style="stroke:#000000;stroke-width:0.80000001;stroke-linecap:butt;stroke-linejoin:round"
         x="804.78119"
         xlink:href="#mbf65fef6e1"
         y="645.28558"
         id="use1228"
         width="100%"
         height="100%" />
    </g>
  </g>
  <g
     id="line2d_5"
     style="stroke-linecap:butt;stroke-linejoin:round"
     transform="translate(-85.597618,-86.6048)">
    <g
       id="g1248"
       style="stroke-linecap:butt;stroke-linejoin:round">
      <use
         style="stroke:#000000;stroke-width:0.80000001;stroke-linecap:butt;stroke-linejoin:round"
         x="999.36267"
         xlink:href="#mbf65fef6e1"
         y="645.28558"
         id="use1246"
         width="100%"
         height="100%" />
    </g>
  </g>
  <g
     id="line2d_6"
     style="stroke-linecap:butt;stroke-linejoin:round"
     transform="translate(-85.597618,-86.6048)">
    <g
       id="g1266"
       style="stroke-linecap:butt;stroke-linejoin:round">
      <use
         style="stroke:#000000;stroke-width:0.80000001;stroke-linecap:butt;stroke-linejoin:round"
         x="1193.9442"
         xlink:href="#mbf65fef6e1"
         y="645.28558"
         id="use1264"
         width="100%"
         height="100%" />
    </g>
  </g>
  <text
     xml:space="preserve"
     style="font-style:normal;font-weight:normal;font-size:20px;line-height:125%;font-family:sans-serif;text-align:center;letter-spacing:0px;word-spacing:0px;text-anchor:middle;fill:#000000;fill-opacity:1;stroke:none;stroke-width:0.75px;stroke-linecap:butt;stroke-linejoin:miter;stroke-opacity:1"
     x="524.55267"
     y="594.12866"
     id="text1943-3-3"><tspan
       sodipodi:role="line"
       id="tspan1941-6-56"
       style="font-size:20px;text-align:center;text-anchor:middle;stroke-width:0.75px;stroke-linecap:butt;stroke-linejoin:round"
       x="524.55267"
       y="594.12866">400</tspan></text>
  <text
     xml:space="preserve"
     style="font-style:normal;font-weight:normal;font-size:20px;line-height:125%;font-family:sans-serif;text-align:center;letter-spacing:0px;word-spacing:0px;text-anchor:middle;fill:#000000;fill-opacity:1;stroke:none;stroke-width:0.75px;stroke-linecap:butt;stroke-linejoin:miter;stroke-opacity:1"
     x="719.43494"
     y="594.12866"
     id="text1943-3-2"><tspan
       sodipodi:role="line"
       id="tspan1941-6-9"
       style="font-size:20px;text-align:center;text-anchor:middle;stroke-width:0.75px;stroke-linecap:butt;stroke-linejoin:round"
       x="719.43494"
       y="594.12866">600</tspan></text>
  <text
     xml:space="preserve"
     style="font-style:normal;font-weight:normal;font-size:20px;line-height:125%;font-family:sans-serif;text-align:center;letter-spacing:0px;word-spacing:0px;text-anchor:middle;fill:#000000;fill-opacity:1;stroke:none;stroke-width:0.75px;stroke-linecap:butt;stroke-linejoin:miter;stroke-opacity:1"
     x="915.4491"
     y="594.12866"
     id="text1943-3-1"><tspan
       sodipodi:role="line"
       id="tspan1941-6-2"
       style="font-size:20px;text-align:center;text-anchor:middle;stroke-width:0.75px;stroke-linecap:butt;stroke-linejoin:round"
       x="915.4491"
       y="594.12866">800</tspan></text>
  <text
     xml:space="preserve"
     style="font-style:normal;font-weight:normal;font-size:20px;line-height:125%;font-family:sans-serif;text-align:center;letter-spacing:0px;word-spacing:0px;text-anchor:middle;fill:#000000;fill-opacity:1;stroke:none;stroke-width:0.75px;stroke-linecap:butt;stroke-linejoin:miter;stroke-opacity:1"
     x="1108.8314"
     y="594.12866"
     id="text1943-3-70"><tspan
       sodipodi:role="line"
       id="tspan1941-6-93"
       style="font-size:20px;text-align:center;text-anchor:middle;stroke-width:0.75px;stroke-linecap:butt;stroke-linejoin:round"
       x="1108.8314"
       y="594.12866">1000</tspan></text>
  <text
     xml:space="preserve"
     style="font-style:normal;font-weight:normal;font-size:20px;line-height:125%;font-family:sans-serif;text-align:end;letter-spacing:0px;word-spacing:0px;text-anchor:end;fill:#000000;fill-opacity:1;stroke:none;stroke-width:0.75px;stroke-linecap:butt;stroke-linejoin:miter;stroke-opacity:1"
     x="76.867126"
     y="553.46704"
     id="text1943-3-6"><tspan
       sodipodi:role="line"
       id="tspan1941-6-0"
       style="font-size:20px;text-align:end;text-anchor:end;stroke-width:0.75px;stroke-linecap:butt;stroke-linejoin:round"
       x="76.867126"
       y="553.46704">0</tspan></text>
  <text
     xml:space="preserve"
     style="font-style:normal;font-weight:normal;font-size:20px;line-height:125%;font-family:sans-serif;text-align:end;letter-spacing:0px;word-spacing:0px;text-anchor:end;fill:#000000;fill-opacity:1;stroke:none;stroke-width:0.75px;stroke-linecap:butt;stroke-linejoin:miter;stroke-opacity:1"
     x="76.867126"
     y="448.95047"
     id="text1943-3-6-6"><tspan
       sodipodi:role="line"
       id="tspan1941-6-0-2"
       style="font-size:20px;text-align:end;text-anchor:end;stroke-width:0.75px;stroke-linecap:butt;stroke-linejoin:round"
       x="76.867126"
       y="448.95047">5</tspan></text>
  <text
     xml:space="preserve"
     style="font-style:normal;font-weight:normal;font-size:20px;line-height:125%;font-family:sans-serif;text-align:end;letter-spacing:0px;word-spacing:0px;text-anchor:end;fill:#000000;fill-opacity:1;stroke:none;stroke-width:0.75px;stroke-linecap:butt;stroke-linejoin:miter;stroke-opacity:1"
     x="76.867126"
     y="344.96732"
     id="text1943-3-6-61"><tspan
       sodipodi:role="line"
       id="tspan1941-6-0-8"
       style="font-size:20px;text-align:end;text-anchor:end;stroke-width:0.75px;stroke-linecap:butt;stroke-linejoin:round"
       x="76.867126"
       y="344.96732">10</tspan></text>
  <text
     xml:space="preserve"
     style="font-style:normal;font-weight:normal;font-size:20px;line-height:125%;font-family:sans-serif;text-align:end;letter-spacing:0px;word-spacing:0px;text-anchor:end;fill:#000000;fill-opacity:1;stroke:none;stroke-width:0.75px;stroke-linecap:butt;stroke-linejoin:miter;stroke-opacity:1"
     x="76.867126"
     y="241.67281"
     id="text1943-3-6-7"><tspan
       sodipodi:role="line"
       id="tspan1941-6-0-9"
       style="font-size:20px;text-align:end;text-anchor:end;stroke-width:0.75px;stroke-linecap:butt;stroke-linejoin:round"
       x="76.867126"
       y="241.67281">15</tspan></text>
  <text
     xml:space="preserve"
     style="font-style:normal;font-weight:normal;font-size:20px;line-height:125%;font-family:sans-serif;text-align:end;letter-spacing:0px;word-spacing:0px;text-anchor:end;fill:#000000;fill-opacity:1;stroke:none;stroke-width:0.75px;stroke-linecap:butt;stroke-linejoin:miter;stroke-opacity:1"
     x="76.867126"
     y="138.3783"
     id="text1943-3-6-2"><tspan
       sodipodi:role="line"
       id="tspan1941-6-0-0"
       style="font-size:20px;text-align:end;text-anchor:end;stroke-width:0.75px;stroke-linecap:butt;stroke-linejoin:round"
       x="76.867126"
       y="138.3783">20</tspan></text>
  <text
     xml:space="preserve"
     style="font-style:normal;font-weight:normal;font-size:20px;line-height:125%;font-family:sans-serif;text-align:end;letter-spacing:0px;word-spacing:0px;text-anchor:end;fill:#000000;fill-opacity:1;stroke:none;stroke-width:0.75px;stroke-linecap:butt;stroke-linejoin:miter;stroke-opacity:1"
     x="76.867126"
     y="31.640621"
     id="text1943-3-6-23"><tspan
       sodipodi:role="line"
       id="tspan1941-6-0-7"
       style="font-size:20px;text-align:end;text-anchor:end;stroke-width:0.75px;stroke-linecap:butt;stroke-linejoin:round"
       x="76.867126"
       y="31.640621">25</tspan></text>
  <text
     xml:space="preserve"
     style="font-style:normal;font-weight:normal;font-size:20px;line-height:125%;font-family:sans-serif;text-align:center;letter-spacing:0px;word-spacing:0px;text-anchor:middle;fill:#000000;fill-opacity:1;stroke:none;stroke-width:0.75px;stroke-linecap:butt;stroke-linejoin:miter;stroke-opacity:1"
     x="-282.39005"
     y="15.195312"
     id="text1943-5"
     transform="rotate(-90)"><tspan
       sodipodi:role="line"
       id="tspan1941-9"
       style="font-size:20px;text-align:center;text-anchor:middle;stroke-width:0.75px;stroke-linecap:butt;stroke-linejoin:round"
       x="-282.39005"
       y="15.195312">loss</tspan></text>
  <g
     id="line2d_14"
     style="stroke-linecap:butt;stroke-linejoin:round;stroke-width:5.66929139;stroke-miterlimit:4;stroke-dasharray:none"
     transform="translate(-85.597618,-86.6048)">
    <path
       id="path7287"
       style="fill:none;stroke:#1f77b4;stroke-width:5.66929139;stroke-linecap:square;stroke-linejoin:round;stroke-miterlimit:4;stroke-dasharray:none"
       d="m 221.03673,112.3812 0.9729,448.60862 0.97291,51.98305 0.97291,-0.72167 0.97291,1.44221 0.9729,-0.45421 1.94582,1.01897 0.97291,1.77401 0.9729,-1.10882 1.94582,0.15657 0.97291,-1.5627 0.9729,2.25142 0.97291,-0.73205 1.94582,0.56687 0.9729,-0.52049 0.97291,0.8649 0.97291,0.1688 0.97291,0.39359 0.9729,-1.71681 0.97291,1.33907 0.97291,-0.52123 0.97291,0.73025 0.9729,0.53737 0.97291,-0.80418 0.97291,0.51152 0.97291,0.0845 0.9729,-0.80283 0.97291,1.32917 0.97291,-0.0187 0.97291,-0.29541 0.9729,0.0323 1.94582,-0.2731 0.97291,0.90391 1.94581,-1.09143 0.97291,0.87599 0.97291,-0.0712 0.9729,-0.70321 0.97291,0.63556 0.97291,0.0308 0.9729,-0.52018 0.97291,0.8137 0.97291,-0.48345 0.97291,0.23752 0.9729,-0.0685 0.97291,0.705 0.97291,0.072 0.97291,-0.88174 0.9729,0.39161 0.97291,-0.44182 0.97291,0.27448 0.97291,0.058 0.9729,0.46816 0.97291,-0.47621 0.97291,0.73615 0.97291,-0.5996 0.9729,-0.24245 0.97291,0.3544 0.97291,-0.31685 0.97291,0.61035 0.9729,0.1216 0.97291,-0.4592 0.97291,0.19415 0.97291,-0.0819 0.9729,0.13033 0.97291,0.32135 0.97291,-0.87848 0.97291,0.46421 0.9729,-0.47068 0.97291,0.81554 2.91872,-0.48566 0.97291,0.58888 0.97291,0.19361 0.97291,-0.3689 0.9729,0.28114 0.97291,-0.42045 0.97291,0.20645 0.97291,-1.16549 0.9729,1.21448 0.97291,0.0176 0.97291,-0.22865 0.97291,0.0154 0.9729,-0.66245 0.97291,1.06359 0.97291,-0.11655 0.9729,0.0243 0.97291,-0.49264 0.97291,0.73103 0.97291,-0.21539 0.97291,-0.42421 0.9729,0.56688 0.97291,0.0104 0.97291,-0.56625 0.9729,0.39104 0.97291,-0.0944 0.97291,0.20343 0.97291,-0.51717 0.9729,0.0731 0.97291,0.28106 0.97291,-0.18005 0.97291,0.48046 2.91872,-0.069 0.97291,-0.3219 0.9729,0.51765 0.97291,-0.83176 0.97291,0.7604 0.97291,-0.71075 0.9729,0.43843 0.97291,0.30148 1.94582,0.0793 0.9729,-6e-5 0.97291,-0.87218 0.97291,0.36542 0.97291,0.51365 0.9729,0.27124 1.94582,-0.89499 0.97291,0.27048 0.9729,-0.88987 0.97291,0.89653 0.97291,0.51415 0.97291,-0.98354 0.9729,0.64727 2.91873,0.37171 0.9729,-0.8095 0.97291,0.48569 0.97291,-0.45705 0.97291,0.48472 1.94581,-0.64578 0.97291,-0.0751 0.97291,0.72778 0.9729,0.004 0.97291,-0.34506 0.97291,0.44759 0.9729,-0.31288 0.97291,0.0224 0.97291,0.34353 0.97291,-0.57134 0.9729,0.8064 0.97291,0.027 0.97291,-0.78688 0.97291,-0.24189 0.97291,0.28598 0.9729,0.57579 0.97291,-0.13087 0.97291,-0.3563 0.9729,0.0604 0.97291,0.3827 0.97291,-0.75279 0.97291,0.64389 0.9729,-0.58527 0.97291,0.60827 0.97291,-1.17077 0.97291,1.40632 0.9729,-0.49276 0.97291,0.27474 0.97291,-0.41813 0.97291,0.23718 0.9729,0.36648 0.97291,-0.27693 0.97291,-0.75229 0.97291,0.9036 0.9729,0.2312 0.97291,-0.57528 0.97291,0.65004 0.97291,-0.31718 0.9729,0.099 0.97291,-0.5921 0.97291,0.30126 0.97291,0.028 0.9729,-0.23106 0.97291,0.45512 0.97291,-0.48411 0.97291,0.59607 1.94581,-0.2198 0.97291,0.48473 0.97291,-0.29429 3.89163,-0.20228 0.9729,0.0899 0.97291,-0.0314 0.97291,0.14904 1.94581,0.1061 0.97291,-0.15375 0.97291,-1.1503 0.9729,0.93882 0.97291,-0.14067 0.97291,0.26424 0.97291,0.10771 0.9729,-0.94648 1.94582,1.07498 1.94582,-0.29852 0.9729,-0.50326 1.94582,0.89988 0.9729,-0.72627 0.97291,0.62744 0.97291,-0.47827 0.97291,-1.06968 0.9729,1.39508 0.97291,0.01 0.97291,-0.27196 0.97291,0.21287 0.9729,0.0738 0.97291,-0.11709 2.91872,-0.0456 0.97291,-0.10345 0.97291,0.30196 0.97291,-0.31278 0.9729,0.41489 0.97291,-0.61941 0.97291,0.55696 0.97291,-0.42945 0.9729,0.0733 1.94582,0.44403 0.97291,-0.27482 0.9729,0.27561 0.97291,0.0477 0.97291,-0.3656 0.97291,0.34536 0.9729,-0.31729 0.97291,-0.13578 0.97291,0.19339 0.97291,-0.5206 0.9729,0.012 0.97291,0.54523 0.97291,-0.45931 0.97291,0.22677 0.9729,0.006 0.97291,0.18821 1.94581,0.0263 0.97291,-0.21107 0.97291,0.0688 0.97291,0.38861 0.97291,-0.98024 0.9729,0.72174 0.97291,0.0133 0.97291,-0.15998 0.9729,0.35677 0.97291,-0.41446 0.97291,0.27655 2.91872,0.0167 0.97291,-0.25324 0.97291,0.17812 0.9729,-0.23247 0.97291,0.71417 0.97291,-0.97332 0.97291,0.23733 0.9729,0.38051 0.97291,0.0177 0.97291,-0.22297 0.97291,0.28595 0.9729,-0.7657 0.97291,0.50196 0.97291,-0.14306 1.94581,0.52879 4.86454,-0.35926 0.97291,0.26679 2.91872,-0.0287 0.97291,0.22098 0.97291,-0.40011 1.94581,0.39054 0.97291,-0.6188 0.97291,0.5929 0.9729,-0.2128 1.94582,-0.16164 0.97291,-0.34235 0.9729,0.56785 0.97291,-0.48151 0.97291,0.34726 0.97291,0.0704 0.9729,-0.34845 0.97291,0.4794 0.97291,0.13023 0.97291,-0.30907 0.9729,0.11921 0.97291,-0.3876 0.97291,-0.0581 0.97291,0.12131 0.9729,0.34405 0.97291,0.0576 0.97291,-0.34787 0.9729,0.29583 0.97291,-0.47656 0.97291,0.48061 0.97291,0.20728 0.97291,-0.49834 0.9729,0.0674 0.97291,0.30165 1.94582,-0.14066 0.9729,0.0504 1.94582,-0.50764 0.9729,0.33588 0.97291,0.16185 0.97291,-0.3499 0.97291,0.49397 0.9729,-0.22249 0.97291,0.24662 0.97291,-0.16664 0.97291,-0.0267 0.9729,0.70899 0.97291,-0.79504 0.97291,0.026 0.97291,0.16673 0.9729,0.0461 0.97291,-0.86518 0.97291,0.6619 0.97291,0.19804 0.9729,-0.12501 0.97291,-0.50063 0.97291,0.54344 0.97291,-0.22733 1.94581,0.35414 0.97291,-0.75906 0.97291,0.0289 0.9729,0.75028 0.97291,-0.4098 0.97291,0.14126 0.97291,-0.0489 0.9729,0.21334 0.97291,-0.16245 0.97291,0.49532 0.9729,-0.48065 1.94582,0.0833 0.97291,-0.2755 0.97291,0.30513 1.94581,-0.2878 0.97291,0.23704 0.9729,-0.24316 0.97291,0.44374 0.97291,-0.5472 0.97291,-0.0635 0.9729,0.44845 0.97291,-0.11576 0.97291,0.28613 0.97291,-0.88177 0.97291,0.86337 0.9729,-0.54766 0.97291,0.45059 0.97291,-0.53503 0.9729,0.6048 0.97291,-0.81575 0.97291,0.35351 0.97291,0.22184 1.94581,0.15477 0.97291,0.19184 0.97291,-0.52099 0.9729,0.11506 0.97291,-0.096 1.94582,0.39305 0.9729,0.0227 0.97291,-0.38005 0.97291,-0.0182 0.97291,0.13707 0.9729,0.57943 0.97291,-0.44987 0.97291,-0.0226 0.97291,0.19034 0.9729,-0.30949 0.97291,-0.0776 0.97291,-0.31108 0.97291,-0.0805 0.9729,0.57915 0.97291,-0.0139 0.97291,-0.50146 0.97291,0.31271 0.9729,0.0517 0.97291,0.20225 0.97291,0.0654 0.97291,-0.091 0.9729,0.1572 0.97291,-0.19224 0.97291,0.15696 0.9729,0.0398 0.97291,-0.39929 0.97291,0.24329 0.97291,0.11471 0.97291,-0.027 0.9729,-0.31309 0.97291,0.2259 0.97291,-0.20614 1.94581,0.24398 0.97291,-0.41609 0.97291,0.53503 0.9729,-0.22035 0.97291,0.24991 0.97291,-0.15966 1.94582,0.11894 0.9729,-0.14263 0.97291,-0.73692 0.97291,0.71788 0.9729,-0.0965 1.94582,0.23818 0.97291,-0.49211 0.9729,0.53318 0.97291,-0.51944 0.97291,0.57846 0.97291,-0.43641 0.9729,0.36679 0.97291,-0.29295 3.89163,0.28763 0.97291,-0.60559 0.97291,0.67335 0.9729,-0.81259 0.97291,0.77905 0.97291,-0.704 0.97291,0.43748 0.9729,0.0212 0.97291,0.16818 0.97291,-0.0196 0.97291,-0.29757 0.9729,0.19811 0.97291,-0.29955 0.97291,0.46508 0.97291,-0.81328 0.9729,0.85763 0.97291,-0.3498 0.97291,0.2695 1.94581,-0.22887 0.97291,0.30119 0.97291,-0.46147 0.9729,0.78995 0.97291,-0.61177 0.97291,-0.3209 0.97291,0.0808 0.97291,0.49576 1.94581,0.0544 0.97291,-0.26071 1.94581,0.25438 0.97291,-1.46786 1.94581,1.54299 0.97291,-0.44801 0.97291,0.48606 0.97291,0.056 0.9729,-0.64419 0.97291,0.41233 0.97291,-0.50294 1.94581,-0.1099 1.94582,0.53986 0.97291,-0.19894 0.9729,0.24805 0.97291,-0.0102 0.97291,-0.14961 0.97291,0.15042 0.9729,-0.27238 0.97291,0.30832 0.97291,-0.0403 0.97291,-0.21748 0.9729,0.13209 0.97291,0.29447 0.97291,-0.35123 1.94581,0.33197 0.97291,-0.38315 0.97291,-0.0842 0.97291,0.26799 0.9729,-0.0706 1.94582,0.23308 0.97291,-0.87856 0.9729,0.96733 0.97291,-0.72298 0.97291,0.30281 0.97291,-0.0564 1.94581,0.1858 0.97291,-0.24861 0.9729,0.37179 0.97291,-0.0877 0.97291,0.21927 0.97291,-0.24764 2.91872,0.0553 0.97291,-0.13166 1.94581,0.26886 1.94582,-0.18439 0.9729,0.28844 0.97291,-0.51375 0.97291,0.23479 0.97291,0.11733 1.94581,-0.2217 0.97291,-0.0814 0.97291,0.58636 2.91872,-0.38854 0.97291,0.0458 0.9729,-0.4056 0.97291,0.2748 0.97291,-0.0905 0.97291,0.22942 0.9729,0.0333 0.97291,-0.31987 0.97291,0.0189 0.97291,0.34379 0.9729,-0.16807 0.97291,0.21308 0.97291,-0.0785 0.97291,0.30081 0.9729,-0.45655 0.97291,0.25777 0.97291,-0.38726 2.91872,0.55035 0.97291,-0.3873 0.97291,-0.0442 0.9729,-0.29023 0.97291,0.39654 0.97291,0.12352 0.97291,-0.18763 0.9729,-0.75538 0.97291,0.8355 0.97291,-0.36995 1.94581,0.51649 0.97291,-0.0906 0.97291,-0.29068 1.94581,0.004 0.97291,0.17614 0.97291,-0.25553 0.97291,-0.0468 0.9729,0.57736 0.97291,-0.1945 0.97291,-0.37787 1.94581,0.2671 1.94582,0.11249 0.9729,0.0475 0.97291,-0.14939 1.94582,-0.006 0.9729,-0.0585 0.97291,0.13415 0.97291,-0.50473 0.97291,0.63102 0.9729,-0.0619 0.97291,-0.66392 0.97291,0.15027 0.97291,0.55999 0.9729,-0.35146 0.97291,0.3203 3.89163,-0.10393 0.97291,-0.32591 0.97291,-0.0173 0.9729,0.16057 0.97291,0.34172 0.97291,-0.16779 0.97291,0.19078 0.9729,-0.0154 0.97291,-0.59551 0.97291,0.58662 0.97291,-0.0415 0.9729,0.18542 0.97291,-0.33078 0.97291,0.2189 0.97291,-0.31804 0.9729,0.27564 0.97291,0.0676 0.97291,-0.19605 0.97291,0.0937 1.94581,-0.0321 0.97291,0.0598 0.9729,0.19122 1.94582,-0.64545 1.94581,0.55631 0.97291,-0.2034 0.97291,-0.3461 0.97291,0.57385 1.94581,-0.37692 0.97291,-0.32903 0.97291,0.63724 0.9729,-0.1635 2.91873,-0.0449 0.9729,-0.11615 0.97291,-0.002 0.97291,0.39823 2.91872,0.0612 1.94582,-0.57486 0.9729,0.46294 0.97291,-0.20225 0.97291,-0.005 0.97291,0.1307 0.9729,-0.0528 0.97291,0.17619 0.97291,-0.14976 0.97291,0.15656 0.9729,0.0352 0.97291,-0.20209 0.97291,0.20784 0.97291,-0.46644 0.9729,0.10213 0.97291,-0.23205 0.97291,0.32392 0.97291,0.04 0.9729,-0.22518 0.97291,0.35386 0.97291,-0.0723 0.97291,0.25343 0.9729,-0.81888 0.97291,0.56733 0.97291,-0.25712 0.97291,0.35757 0.9729,-0.50687 0.97291,0.44726 0.97291,-0.11335 0.97291,0.2477 0.9729,-0.40248 0.97291,0.30023 0.97291,-0.29291 0.9729,-0.12889 0.97291,0.27751 0.97291,-0.30513 0.97291,0.17499 0.9729,0.29049 1.94582,-0.3449 0.97291,0.0672 0.97291,-0.20921 0.9729,0.37636 1.94582,-0.0242 0.9729,-0.41224 0.97291,0.18111 0.97291,0.43258 1.94581,-0.3522 0.97291,0.1024 0.97291,-0.0292 0.97291,0.20352 0.9729,0.0479 0.97291,-0.24161 1.94582,-0.09 0.9729,0.30069 0.97291,-0.25421 0.97291,0.0364 0.97291,0.27016 0.9729,-0.32439 0.97291,0.2994 0.97291,-0.20002 0.97291,-0.0641 0.9729,0.13833 0.97291,-0.055 0.97291,0.22249 0.97291,-0.11982 1.94581,-0.37096 0.97291,0.32531 0.97291,-0.0222 0.9729,-0.23297 0.97291,0.25989 0.97291,0.0194 0.97291,-0.5283 1.94581,0.54408 0.97291,0.0376 0.97291,-0.3417 0.9729,0.16958 0.97291,-0.004 0.97291,-0.23362 0.9729,0.48733 0.97291,-0.19826 0.97291,0.0164 0.97291,-0.19653 1.94581,0.009 0.97291,-0.20939 0.97291,0.45953 0.97291,-0.0683 1.94581,0.17294 0.97291,-0.24105 0.97291,0.43676 0.9729,-0.80739 0.97291,0.25991 2.91872,0.32096 0.97291,0.05 1.94581,-0.22827 0.97291,0.2521 0.97291,-0.70699 0.97291,0.63369 2.91872,-0.2999 0.97291,0.25143 0.9729,-0.0273 0.97291,-0.26638 0.97291,0.4221 1.94581,-0.14511 0.97291,-0.33363 0.97291,-0.002 0.97291,0.23942 0.9729,-0.0221 0.97291,-0.51252 1.94582,0.71775 0.9729,-0.15745 1.94582,0.20828 0.97291,-0.32822 1.94581,0.42441 0.97291,-0.47363 1.94581,0.21897 0.97291,-0.14476 0.97291,0.27635 0.97291,-0.25819 0.9729,-0.0628 0.97291,0.2988 0.97291,-0.20966 0.9729,-0.73437 0.97291,0.92438 0.97291,0.0315 0.97291,-0.44565 0.9729,0.44653 0.97291,0.20558 0.97291,-0.27486 1.94582,-0.14037 0.9729,-0.14623 2.91872,0.32607 0.97291,-0.112 0.97291,0.024 1.94581,-0.25743 0.9729,0.29601 0.9729,-0.0255 0.9729,-0.33798 0.9729,0.38795 0.9729,0.0133 1.9459,-0.42088 0.9729,0.35709 0.9729,0.13885 0.9729,0.0144 0.9729,-0.45284 2.9187,0.2701 1.9458,0.12316 0.9729,-0.23752 0.9729,0.11214 0.9729,0.24373 0.973,6.2e-4 0.9729,-0.19181 0.9729,-0.0685 0.9729,0.0897 0.9729,-0.10772 0.9729,0.1824 0.9729,-0.086 0.9729,-0.38529 0.9729,0.42786 0.9729,-0.0679 0.9729,-0.49988 0.9729,0.5341 0.9729,-0.15589 0.973,0.0144 0.9729,0.20719 0.9729,10e-4 0.9729,-0.24366 4.8645,0.32137 0.9729,-0.32371 1.9458,0.22056 0.9729,-0.30325 0.9729,-0.0987 0.973,0.27855 0.9729,-0.28406 0.9729,0.0761 0.9729,0.43192 0.9729,-0.5104 0.9729,0.48887 0.9729,-0.416 0.9729,-0.11966 0.9729,0.59958 0.9729,-0.24376 0.9729,0.27781 0.9729,-0.54636 1.9459,0.30586 0.9729,-0.0798 0.9729,0.20232 0.9729,-0.12508 0.9729,-0.73407 0.9729,0.95382 0.9729,-0.48894 0.9729,0.38365 0.9729,0.10966 0.9729,-0.33849 0.9729,0.0621 0.9729,-0.12107 0.9729,0.18438 0.9729,-0.12951 0.973,0.22952 0.9729,-0.0278 0.9729,-0.60728 0.9729,0.56446 0.9729,-0.10916 0.9729,0.12058 0.9729,-0.0649 0.9729,0.19537 0.9729,-0.39625 3.8916,0.36995 1.9459,-0.28017 0.9729,0.14755 0.9729,-0.0132 0.9729,-0.2042 0.9729,0.15698 0.9729,0.004 1.9458,0.29971 1.9458,-0.46637 0.9729,0.007 0.9729,-0.2724 0.973,0.34295 0.9729,0.19759 1.9458,-0.15886 0.9729,0.28683 0.9729,0.0709 0.9729,-0.49486 0.9729,-0.082 0.9729,0.33153 0.9729,0.0994 0.9729,-0.22186 0.9729,0.0281 0.9729,0.17231 1.9459,0.12845 0.9729,-0.51017 0.9729,0.1128 0.9729,0.27209 1.9458,-0.21814 0.9729,0.35755 0.9729,-0.54159 0.9729,0.48674 0.9729,-0.13786 0.9729,0.004 0.9729,-0.1624 1.9459,0.23637 0.9729,-0.12492 0.9729,-0.2435 0.9729,0.1724 1.9458,0.0675 0.9729,0.17168 0.9729,-0.26744 1.9458,-0.15993 0.9729,0.48313 2.9187,-0.43067 0.973,0.45195 1.9458,-0.4867 0.9729,0.0797 0.9729,0.33163 0.9729,-0.009 0.9729,-0.26053 1.9458,0.32619 0.9729,-0.0442 0.9729,-0.18795 0.9729,0.17979 1.9459,-0.17026 0.9729,-0.27635 0.9729,0.13392 0.9729,0.32838 0.9729,-0.35008 0.9729,-0.15604 0.9729,0.55893 0.9729,-0.92464 0.9729,0.70568 0.9729,-0.20957 0.9729,0.33277 0.9729,0.0418 0.9729,-0.20954 0.9729,0.0793 0.973,-0.29816 0.9729,0.45942 0.9729,-0.40393 0.9729,-0.0134 0.9729,0.36736 0.9729,0.10851 0.9729,-0.25032 0.9729,0.16254 0.9729,-0.26124 0.9729,-0.10095 0.9729,0.61638 0.9729,-0.48561 0.9729,0.21609 0.973,-0.27357 0.9729,0.22937 0.9729,0.0122 0.9729,-0.37423 0.9729,0.34917 0.9729,0.086 0.9729,-0.71566 0.9729,0.46016 0.9729,-0.0261 0.9729,0.0973 1.9458,-0.12066 0.9729,0.23982 0.973,-0.10206 0.9729,-0.3489 1.9458,0.51596 v 0"
       clip-path="url(#p81290c50dd)"
       inkscape:connector-curvature="0" />
  </g>
  <ellipse
     style="opacity:1;fill:none;fill-opacity:1;stroke:#000000;stroke-width:0.75;stroke-linecap:round;stroke-linejoin:round;stroke-miterlimit:100;stroke-dasharray:0.75000001, 2.25000002;stroke-dashoffset:0;stroke-opacity:1"
     id="path907"
     cx="152.79662"
     cy="532.82904"
     rx="14.608051"
     ry="15.094986" />
  <g
     id="line2d_14-7"
     style="stroke-width:5.6692915;stroke-linecap:butt;stroke-linejoin:round;stroke-miterlimit:4;stroke-dasharray:none"
     transform="translate(-44.574968,-170.81794)">
    <path
       id="path7287-5"
       style="fill:none;stroke:#1f77b4;stroke-width:0.61101228;stroke-linecap:square;stroke-linejoin:round;stroke-miterlimit:4;stroke-dasharray:0.61101228,0.61101228;stroke-dashoffset:0"
       d="m 222.98254,612.97287 0.97291,-0.72167 0.97291,1.44221 0.9729,-0.45421 1.94582,1.01897 0.97291,1.77401 0.9729,-1.10882 1.94582,0.15657 0.97291,-1.5627 0.9729,2.25142 0.97291,-0.73205 1.94582,0.56687 0.9729,-0.52049 0.97291,0.8649 0.97291,0.1688 0.97291,0.39359 0.9729,-1.71681 0.97291,1.33907 0.97291,-0.52123 0.97291,0.73025 0.9729,0.53737 0.97291,-0.80418 0.97291,0.51152 0.97291,0.0845 0.9729,-0.80283 0.97291,1.32917 0.97291,-0.0187 0.97291,-0.29541 0.9729,0.0323 1.94582,-0.2731 0.97291,0.90391 1.94581,-1.09143 0.97291,0.87599"
       clip-path="url(#p81290c50dd-3)"
       inkscape:connector-curvature="0"
       sodipodi:nodetypes="ccccccccccccccccccccccccccccccccc"
       transform="matrix(6.1373562,0,0,6.1373562,-1125.1688,-3192.0138)" />
  </g>
  <path
     style="fill:none;fill-rule:evenodd;stroke:#000000;stroke-width:0.75;stroke-linecap:butt;stroke-linejoin:miter;stroke-miterlimit:4;stroke-dasharray:0.75000001, 1.50000001;stroke-dashoffset:0;stroke-opacity:1"
     d="M 139.33074,527.08861 186.25265,409.14753"
     id="path933"
     inkscape:connector-curvature="0"
     sodipodi:nodetypes="cc" />
  <path
     style="fill:none;fill-rule:evenodd;stroke:#000000;stroke-width:0.75;stroke-linecap:butt;stroke-linejoin:miter;stroke-miterlimit:4;stroke-dasharray:0.75000001, 1.50000001;stroke-dashoffset:0;stroke-opacity:1"
     d="M 157.76695,546.95014 407.68635,436.53761"
     id="path935"
     inkscape:connector-curvature="0"
     sodipodi:nodetypes="cc" />
  <ellipse
     style="opacity:1;fill:none;fill-opacity:1;stroke:#000000;stroke-width:0.75000001;stroke-linecap:round;stroke-linejoin:round;stroke-miterlimit:100;stroke-dasharray:0.75000001,2.25000002;stroke-dashoffset:0;stroke-opacity:1"
     id="path907-3"
     cx="311.15146"
     cy="410.36484"
     rx="125.15493"
     ry="41.64558" />
  <text
     xml:space="preserve"
     style="font-style:normal;font-weight:normal;font-size:20px;line-height:125%;font-family:sans-serif;text-align:end;letter-spacing:0px;word-spacing:0px;text-anchor:end;fill:#000000;fill-opacity:1;stroke:none;stroke-width:0.75px;stroke-linecap:butt;stroke-linejoin:miter;stroke-opacity:1"
     x="1108.248"
     y="58.725708"
     id="text1943-5-3"><tspan
       sodipodi:role="line"
       id="tspan1941-9-6"
       style="font-size:20px;text-align:end;text-anchor:end;stroke-width:0.75px;stroke-linecap:butt;stroke-linejoin:round"
       x="1108.248"
       y="58.725708"><tspan
   style="font-style:normal;font-variant:normal;font-weight:bold;font-stretch:normal;font-family:sans-serif;-inkscape-font-specification:'sans-serif Bold';stroke-linecap:butt;stroke-linejoin:round"
   id="tspan1077">\textbf{stochastic}</tspan> gradient descent algorithm</tspan></text>
</svg>
