<?xml version="1.0" encoding="UTF-8" standalone="no"?>
<!-- Created with Inkscape (http://www.inkscape.org/) -->

<svg
   xmlns:dc="http://purl.org/dc/elements/1.1/"
   xmlns:cc="http://creativecommons.org/ns#"
   xmlns:rdf="http://www.w3.org/1999/02/22-rdf-syntax-ns#"
   xmlns:svg="http://www.w3.org/2000/svg"
   xmlns="http://www.w3.org/2000/svg"
   xmlns:sodipodi="http://sodipodi.sourceforge.net/DTD/sodipodi-0.dtd"
   xmlns:inkscape="http://www.inkscape.org/namespaces/inkscape"
   width="76.324898mm"
   height="31.340246mm"
   viewBox="0 0 76.324897 31.340246"
   version="1.1"
   id="svg48086"
   inkscape:version="0.92.3 (2405546, 2018-03-11)"
   sodipodi:docname="neuron.svg">
  <defs
     id="defs48080">
    <marker
       inkscape:stockid="Arrow1Mend"
       orient="auto"
       refY="0"
       refX="0"
       id="Arrow1Mend"
       style="overflow:visible"
       inkscape:isstock="true">
      <path
         id="path18445"
         d="M 0,0 5,-5 -12.5,0 5,5 Z"
         style="fill:#000000;fill-opacity:1;fill-rule:evenodd;stroke:#000000;stroke-width:1.00000003pt;stroke-opacity:1"
         transform="matrix(-0.4,0,0,-0.4,-4,0)"
         inkscape:connector-curvature="0" />
    </marker>
    <marker
       inkscape:stockid="Arrow1Lstart"
       orient="auto"
       refY="0"
       refX="0"
       id="marker18702"
       style="overflow:visible"
       inkscape:isstock="true">
      <path
         id="path18436"
         d="M 0,0 5,-5 -12.5,0 5,5 Z"
         style="fill:#000000;fill-opacity:1;fill-rule:evenodd;stroke:#000000;stroke-width:1.00000003pt;stroke-opacity:1"
         transform="matrix(0.8,0,0,0.8,10,0)"
         inkscape:connector-curvature="0" />
    </marker>
    <marker
       inkscape:stockid="Arrow1Lend"
       orient="auto"
       refY="0"
       refX="0"
       id="marker18699"
       style="overflow:visible"
       inkscape:isstock="true">
      <path
         id="path18439"
         d="M 0,0 5,-5 -12.5,0 5,5 Z"
         style="fill:#000000;fill-opacity:1;fill-rule:evenodd;stroke:#000000;stroke-width:1.00000003pt;stroke-opacity:1"
         transform="matrix(-0.8,0,0,-0.8,-10,0)"
         inkscape:connector-curvature="0" />
    </marker>
    <marker
       inkscape:stockid="Arrow1Lstart"
       orient="auto"
       refY="0"
       refX="0"
       id="Arrow1Lstart"
       style="overflow:visible"
       inkscape:isstock="true">
      <path
         id="path49627"
         d="M 0,0 5,-5 -12.5,0 5,5 Z"
         style="fill:#000000;fill-opacity:1;fill-rule:evenodd;stroke:#000000;stroke-width:1.00000003pt;stroke-opacity:1"
         transform="matrix(0.8,0,0,0.8,10,0)"
         inkscape:connector-curvature="0" />
    </marker>
    <marker
       inkscape:stockid="Arrow1Lend"
       orient="auto"
       refY="0"
       refX="0"
       id="marker52714"
       style="overflow:visible"
       inkscape:isstock="true">
      <path
         id="path52712"
         d="M 0,0 5,-5 -12.5,0 5,5 Z"
         style="fill:#000000;fill-opacity:1;fill-rule:evenodd;stroke:#000000;stroke-width:1.00000003pt;stroke-opacity:1"
         transform="matrix(-0.8,0,0,-0.8,-10,0)"
         inkscape:connector-curvature="0" />
    </marker>
    <marker
       inkscape:isstock="true"
       style="overflow:visible"
       id="marker52218"
       refX="0"
       refY="0"
       orient="auto"
       inkscape:stockid="DotL">
      <path
         inkscape:connector-curvature="0"
         transform="matrix(0.8,0,0,0.8,5.92,0.8)"
         style="fill:#000000;fill-opacity:1;fill-rule:evenodd;stroke:#000000;stroke-width:1.00000003pt;stroke-opacity:1"
         d="m -2.5,-1 c 0,2.76 -2.24,5 -5,5 -2.76,0 -5,-2.24 -5,-5 0,-2.76 2.24,-5 5,-5 2.76,0 5,2.24 5,5 z"
         id="path52216" />
    </marker>
    <clipPath
       clipPathUnits="userSpaceOnUse"
       id="clipPath22136">
      <path
         d="M 0,0 H 599.24542 V 345.97549 H 0 Z"
         id="path22134"
         inkscape:connector-curvature="0" />
    </clipPath>
    <clipPath
       clipPathUnits="userSpaceOnUse"
       id="clipPath22136-7">
      <path
         d="M 0,0 H 599.24542 V 345.97549 H 0 Z"
         id="path22134-7"
         inkscape:connector-curvature="0" />
    </clipPath>
    <clipPath
       clipPathUnits="userSpaceOnUse"
       id="clipPath22136-7-7">
      <path
         d="M 0,0 H 599.24542 V 345.97549 H 0 Z"
         id="path22134-7-9"
         inkscape:connector-curvature="0" />
    </clipPath>
    <clipPath
       clipPathUnits="userSpaceOnUse"
       id="clipPath22136-7-7-2">
      <path
         d="M 0,0 H 599.24542 V 345.97549 H 0 Z"
         id="path22134-7-9-3"
         inkscape:connector-curvature="0" />
    </clipPath>
    <clipPath
       clipPathUnits="userSpaceOnUse"
       id="clipPath22136-7-7-2-7">
      <path
         d="M 0,0 H 599.24542 V 345.97549 H 0 Z"
         id="path22134-7-9-3-2"
         inkscape:connector-curvature="0" />
    </clipPath>
    <clipPath
       clipPathUnits="userSpaceOnUse"
       id="clipPath22136-7-7-2-1">
      <path
         d="M 0,0 H 599.24542 V 345.97549 H 0 Z"
         id="path22134-7-9-3-7"
         inkscape:connector-curvature="0" />
    </clipPath>
    <marker
       inkscape:stockid="DotL"
       orient="auto"
       refY="0"
       refX="0"
       id="DotL-5"
       style="overflow:visible"
       inkscape:isstock="true">
      <path
         inkscape:connector-curvature="0"
         id="path49688-5"
         d="m -2.5,-1 c 0,2.76 -2.24,5 -5,5 -2.76,0 -5,-2.24 -5,-5 0,-2.76 2.24,-5 5,-5 2.76,0 5,2.24 5,5 z"
         style="fill:#000000;fill-opacity:1;fill-rule:evenodd;stroke:#000000;stroke-width:1.00000003pt;stroke-opacity:1"
         transform="matrix(0.8,0,0,0.8,5.92,0.8)" />
    </marker>
    <marker
       inkscape:stockid="Arrow1Lend"
       orient="auto"
       refY="0"
       refX="0"
       id="Arrow1Lend-6"
       style="overflow:visible"
       inkscape:isstock="true">
      <path
         inkscape:connector-curvature="0"
         id="path49630-0"
         d="M 0,0 5,-5 -12.5,0 5,5 Z"
         style="fill:#000000;fill-opacity:1;fill-rule:evenodd;stroke:#000000;stroke-width:1.00000003pt;stroke-opacity:1"
         transform="matrix(-0.8,0,0,-0.8,-10,0)" />
    </marker>
    <marker
       inkscape:stockid="Arrow1Lstart"
       orient="auto"
       refY="0"
       refX="0"
       id="Arrow1Lstart-2"
       style="overflow:visible"
       inkscape:isstock="true">
      <path
         inkscape:connector-curvature="0"
         id="path49627-6"
         d="M 0,0 5,-5 -12.5,0 5,5 Z"
         style="fill:#000000;fill-opacity:1;fill-rule:evenodd;stroke:#000000;stroke-width:1.00000003pt;stroke-opacity:1"
         transform="matrix(0.8,0,0,0.8,10,0)" />
    </marker>
    <marker
       inkscape:stockid="Arrow1Lstart"
       orient="auto"
       refY="0"
       refX="0"
       id="marker18702-5"
       style="overflow:visible"
       inkscape:isstock="true">
      <path
         inkscape:connector-curvature="0"
         id="path18436-3"
         d="M 0,0 5,-5 -12.5,0 5,5 Z"
         style="fill:#000000;fill-opacity:1;fill-rule:evenodd;stroke:#000000;stroke-width:1.00000003pt;stroke-opacity:1"
         transform="matrix(0.8,0,0,0.8,10,0)" />
    </marker>
  </defs>
  <sodipodi:namedview
     id="base"
     pagecolor="#ffffff"
     bordercolor="#666666"
     borderopacity="1.0"
     inkscape:pageopacity="0.0"
     inkscape:pageshadow="2"
     inkscape:zoom="2.8"
     inkscape:cx="160.13493"
     inkscape:cy="37.316397"
     inkscape:document-units="mm"
     inkscape:current-layer="layer1"
     showgrid="false"
     fit-margin-top="0"
     fit-margin-left="0"
     fit-margin-right="0"
     fit-margin-bottom="0"
     showguides="true"
     inkscape:window-width="1916"
     inkscape:window-height="1041"
     inkscape:window-x="0"
     inkscape:window-y="18"
     inkscape:window-maximized="0"
     inkscape:guide-bbox="true"
     inkscape:lockguides="true">
    <sodipodi:guide
       position="-11.60406,49.853703"
       orientation="1,0"
       id="guide49520"
       inkscape:locked="true" />
  </sodipodi:namedview>
  <metadata
     id="metadata48083">
    <rdf:RDF>
      <cc:Work
         rdf:about="">
        <dc:format>image/svg+xml</dc:format>
        <dc:type
           rdf:resource="http://purl.org/dc/dcmitype/StillImage" />
        <dc:title />
      </cc:Work>
    </rdf:RDF>
  </metadata>
  <g
     inkscape:label="Calque 1"
     inkscape:groupmode="layer"
     id="layer1"
     transform="translate(-55.917012,-128.55296)">
    <g
       id="g22460"
       transform="matrix(0.12515497,0,0,0.12515497,47.429797,109.923)" />
    <text
       xml:space="preserve"
       style="font-style:normal;font-weight:normal;font-size:2.11666656px;line-height:125%;font-family:sans-serif;text-align:end;letter-spacing:0px;word-spacing:0px;text-anchor:end;fill:#000000;fill-opacity:1;stroke:none;stroke-width:0.26458332px;stroke-linecap:butt;stroke-linejoin:miter;stroke-opacity:1"
       x="79.268555"
       y="130.16113"
       id="text48887-3"><tspan
         sodipodi:role="line"
         id="tspan48885-5"
         x="79.268555"
         y="130.16113"
         style="font-size:2.11666656px;text-align:end;text-anchor:end;stroke-width:0.26458332px">Transfert function $a$</tspan></text>
    <path
       d="m 75.54594,135.06698 10.250566,7.14825"
       style="fill:none;stroke:#000000;stroke-width:0.13229167;stroke-linecap:butt;stroke-linejoin:miter;stroke-miterlimit:4;stroke-dasharray:none;stroke-opacity:1"
       id="path22258-1"
       inkscape:connector-curvature="0"
       sodipodi:nodetypes="cc" />
    <path
       style="fill:none;fill-rule:evenodd;stroke:#000000;stroke-width:0.15000001;stroke-linecap:butt;stroke-linejoin:miter;stroke-miterlimit:4;stroke-dasharray:none;stroke-opacity:1;marker-start:url(#marker18702)"
       d="m 87.746671,139.34641 -7.683279,-9.52612"
       id="path49897"
       inkscape:connector-curvature="0"
       sodipodi:nodetypes="cc" />
    <path
       style="fill:none;fill-rule:evenodd;stroke:#000000;stroke-width:0.13229167;stroke-linecap:butt;stroke-linejoin:miter;stroke-miterlimit:4;stroke-dasharray:none;stroke-opacity:1;marker-end:url(#Arrow1Mend)"
       d="m 102.34893,146.96203 13.24936,-0.0937"
       id="path49897-5"
       inkscape:connector-curvature="0"
       sodipodi:nodetypes="cc" />
    <g
       id="g18386"
       transform="translate(-3.0238095,-70.49256)">
      <path
         d="m 90.136323,214.39512 0.0054,0.20776 2.54753,3.17531 -2.57594,3.0643 -0.0073,0.19311 4.994434,-0.0259 c 0.04894,-0.61839 0.182852,-1.25744 0.297744,-1.86707 l -0.162326,-0.0405 c -0.151563,0.3413 -0.259071,0.7065 -0.58172,0.93279 -0.353939,0.24843 -0.820892,0.21714 -1.231025,0.21714 h -2.299222 l 2.343652,-2.83127 -2.113366,-2.64189 1.230523,-0.005 c 0.788477,0 1.910491,-0.19011 2.222377,0.75781 0.05332,0.16183 0.09049,0.33042 0.104129,0.50062 h 0.175592 l -0.134917,-1.63678 z"
         style="fill:#000000;fill-opacity:1;fill-rule:nonzero;stroke:none;stroke-width:0.12515497"
         id="path22482-0"
         inkscape:connector-curvature="0" />
      <g
         transform="translate(4.353761,124.22327)"
         id="g49610">
        <g
           id="g22486-7"
           transform="matrix(0.12515497,0,0,0.12515497,54.109619,71.112817)">
          <path
             inkscape:connector-curvature="0"
             id="path22484-8"
             style="fill:none;stroke:#000000;stroke-width:0.36598301;stroke-linecap:butt;stroke-linejoin:miter;stroke-miterlimit:4;stroke-dasharray:none;stroke-opacity:1"
             d="m 308.762,178.77 54.437,0.085" />
        </g>
        <g
           id="g22490-9"
           transform="matrix(0.12515497,0,0,0.12515497,54.109619,71.112817)">
          <path
             inkscape:connector-curvature="0"
             id="path22488-9"
             style="fill:none;stroke:#000000;stroke-width:0.36598301;stroke-linecap:butt;stroke-linejoin:miter;stroke-miterlimit:4;stroke-dasharray:none;stroke-opacity:1"
             d="m 336.023,144.355 -0.085,68.915" />
        </g>
        <g
           id="g22494-3"
           transform="matrix(0.12515497,0,0,0.12515497,54.109619,71.112817)">
          <path
             inkscape:connector-curvature="0"
             id="path22492-9"
             style="fill:none;stroke:#000000;stroke-width:3.41944408;stroke-linecap:round;stroke-linejoin:miter;stroke-miterlimit:4;stroke-dasharray:none;stroke-opacity:1"
             d="m 313.344,205.281 22.613,0.133 0.133,-51.762 h 21.433" />
        </g>
      </g>
      <g
         transform="matrix(0.72541822,0,0,0.72541822,25.507133,59.999949)"
         id="g18373">
        <path
           d="m 110.09595,217.05361 c 0,6.65679 -5.39578,12.05257 -12.052002,12.05257 -6.656221,0 -12.052425,-5.39578 -12.052425,-12.05257 0,-6.65624 5.396204,-12.052 12.052425,-12.052 6.656222,0 12.052002,5.39576 12.052002,12.052 z"
           style="fill:none;stroke:#000600;stroke-width:0.7163524;stroke-linecap:butt;stroke-linejoin:round;stroke-miterlimit:4;stroke-dasharray:none;stroke-opacity:1"
           id="path22250-5"
           inkscape:connector-curvature="0" />
        <path
           style="fill:none;fill-rule:evenodd;stroke:#000000;stroke-width:0.26458332px;stroke-linecap:butt;stroke-linejoin:miter;stroke-opacity:1"
           d="m 98.014066,205.01738 0.09449,24.19048"
           id="path18361"
           inkscape:connector-curvature="0" />
      </g>
    </g>
    <path
       d="m 72.563447,143.95651 12.347664,1.92531"
       style="fill:none;stroke:#000000;stroke-width:0.13229167;stroke-linecap:butt;stroke-linejoin:miter;stroke-miterlimit:4;stroke-dasharray:none;stroke-opacity:1"
       id="path22258-1-3"
       inkscape:connector-curvature="0"
       sodipodi:nodetypes="cc" />
    <path
       d="M 76.450744,159.78469 86.70131,152.63644"
       style="fill:none;stroke:#000000;stroke-width:0.13229167;stroke-linecap:butt;stroke-linejoin:miter;stroke-miterlimit:4;stroke-dasharray:none;stroke-opacity:1"
       id="path22258-1-6"
       inkscape:connector-curvature="0"
       sodipodi:nodetypes="cc" />
    <path
       d="m 72.866894,151.36288 12.347664,-1.92531"
       style="fill:none;stroke:#000000;stroke-width:0.13229167;stroke-linecap:butt;stroke-linejoin:miter;stroke-miterlimit:4;stroke-dasharray:none;stroke-opacity:1"
       id="path22258-1-3-7"
       inkscape:connector-curvature="0"
       sodipodi:nodetypes="cc" />
    <path
       style="fill:none;fill-rule:evenodd;stroke:#000000;stroke-width:0.15000001;stroke-linecap:butt;stroke-linejoin:miter;stroke-miterlimit:4;stroke-dasharray:none;stroke-opacity:1;marker-start:url(#marker18702-5)"
       d="m 100.849,140.69274 6.45486,-5.0849"
       id="path49897-56"
       inkscape:connector-curvature="0"
       sodipodi:nodetypes="cc" />
    <text
       xml:space="preserve"
       style="font-style:normal;font-weight:normal;font-size:2.11666656px;line-height:125%;font-family:sans-serif;text-align:start;letter-spacing:0px;word-spacing:0px;text-anchor:start;fill:#000000;fill-opacity:1;stroke:none;stroke-width:0.26458332px;stroke-linecap:butt;stroke-linejoin:miter;stroke-opacity:1"
       x="108.12245"
       y="136.10228"
       id="text48887-3-29"><tspan
         sodipodi:role="line"
         id="tspan48885-5-1"
         x="108.12245"
         y="136.10228"
         style="font-size:2.11666656px;text-align:start;text-anchor:start;stroke-width:0.26458332px">activation function $z$</tspan></text>
    <text
       xml:space="preserve"
       style="font-style:normal;font-weight:normal;font-size:2.11666656px;line-height:125%;font-family:sans-serif;text-align:start;letter-spacing:0px;word-spacing:0px;text-anchor:start;fill:#000000;fill-opacity:1;stroke:none;stroke-width:0.26458332px;stroke-linecap:butt;stroke-linejoin:miter;stroke-opacity:1"
       x="109.84506"
       y="145.3282"
       id="text48887-3-29-2"><tspan
         sodipodi:role="line"
         id="tspan48885-5-1-7"
         x="109.84506"
         y="145.3282"
         style="font-size:2.11666656px;text-align:start;text-anchor:start;stroke-width:0.26458332px">output $y$</tspan></text>
    <text
       xml:space="preserve"
       style="font-style:normal;font-weight:normal;font-size:2.11666656px;line-height:125%;font-family:sans-serif;text-align:end;letter-spacing:0px;word-spacing:0px;text-anchor:end;fill:#000000;fill-opacity:1;stroke:none;stroke-width:0.26458332px;stroke-linecap:butt;stroke-linejoin:miter;stroke-opacity:1"
       x="75.217865"
       y="141.95631"
       id="text48887-3-29-2-0"><tspan
         sodipodi:role="line"
         id="tspan48885-5-1-7-9"
         x="75.217865"
         y="141.95631"
         style="font-size:2.11666656px;text-align:end;text-anchor:end;stroke-width:0.26458332px">input $\mathbf{x}$</tspan></text>
  </g>
</svg>
