<?xml version="1.0" encoding="UTF-8" standalone="no"?>
<!-- Created with Inkscape (http://www.inkscape.org/) -->

<svg
   xmlns:dc="http://purl.org/dc/elements/1.1/"
   xmlns:cc="http://creativecommons.org/ns#"
   xmlns:rdf="http://www.w3.org/1999/02/22-rdf-syntax-ns#"
   xmlns:svg="http://www.w3.org/2000/svg"
   xmlns="http://www.w3.org/2000/svg"
   xmlns:sodipodi="http://sodipodi.sourceforge.net/DTD/sodipodi-0.dtd"
   xmlns:inkscape="http://www.inkscape.org/namespaces/inkscape"
   width="138.88159mm"
   height="70.998688mm"
   viewBox="0 0 138.88159 70.998688"
   version="1.1"
   id="svg48086"
   inkscape:version="0.92.3 (2405546, 2018-03-11)"
   sodipodi:docname="perceptron-scheme2.svg">
  <defs
     id="defs48080">
    <marker
       inkscape:stockid="Arrow1Lstart"
       orient="auto"
       refY="0"
       refX="0"
       id="Arrow1Lstart"
       style="overflow:visible"
       inkscape:isstock="true">
      <path
         id="path49627"
         d="M 0,0 5,-5 -12.5,0 5,5 Z"
         style="fill:#000000;fill-opacity:1;fill-rule:evenodd;stroke:#000000;stroke-width:1.00000003pt;stroke-opacity:1"
         transform="matrix(0.8,0,0,0.8,10,0)"
         inkscape:connector-curvature="0" />
    </marker>
    <marker
       inkscape:stockid="Arrow1Lend"
       orient="auto"
       refY="0"
       refX="0"
       id="marker52714"
       style="overflow:visible"
       inkscape:isstock="true">
      <path
         id="path52712"
         d="M 0,0 5,-5 -12.5,0 5,5 Z"
         style="fill:#000000;fill-opacity:1;fill-rule:evenodd;stroke:#000000;stroke-width:1.00000003pt;stroke-opacity:1"
         transform="matrix(-0.8,0,0,-0.8,-10,0)"
         inkscape:connector-curvature="0" />
    </marker>
    <marker
       inkscape:isstock="true"
       style="overflow:visible"
       id="marker52218"
       refX="0"
       refY="0"
       orient="auto"
       inkscape:stockid="DotL">
      <path
         inkscape:connector-curvature="0"
         transform="matrix(0.8,0,0,0.8,5.92,0.8)"
         style="fill:#000000;fill-opacity:1;fill-rule:evenodd;stroke:#000000;stroke-width:1.00000003pt;stroke-opacity:1"
         d="m -2.5,-1 c 0,2.76 -2.24,5 -5,5 -2.76,0 -5,-2.24 -5,-5 0,-2.76 2.24,-5 5,-5 2.76,0 5,2.24 5,5 z"
         id="path52216" />
    </marker>
    <marker
       inkscape:isstock="true"
       style="overflow:visible"
       id="marker52154"
       refX="0"
       refY="0"
       orient="auto"
       inkscape:stockid="Arrow1Lend"
       inkscape:collect="always">
      <path
         inkscape:connector-curvature="0"
         transform="matrix(-0.8,0,0,-0.8,-10,0)"
         style="fill:#000000;fill-opacity:1;fill-rule:evenodd;stroke:#000000;stroke-width:1.00000003pt;stroke-opacity:1"
         d="M 0,0 5,-5 -12.5,0 5,5 Z"
         id="path52152" />
    </marker>
    <marker
       inkscape:stockid="Arrow1Lend"
       orient="auto"
       refY="0"
       refX="0"
       id="Arrow1Lend"
       style="overflow:visible"
       inkscape:isstock="true"
       inkscape:collect="always">
      <path
         id="path49630"
         d="M 0,0 5,-5 -12.5,0 5,5 Z"
         style="fill:#000000;fill-opacity:1;fill-rule:evenodd;stroke:#000000;stroke-width:1.00000003pt;stroke-opacity:1"
         transform="matrix(-0.8,0,0,-0.8,-10,0)"
         inkscape:connector-curvature="0" />
    </marker>
    <marker
       inkscape:stockid="DotL"
       orient="auto"
       refY="0"
       refX="0"
       id="DotL"
       style="overflow:visible"
       inkscape:isstock="true"
       inkscape:collect="always">
      <path
         id="path49688"
         d="m -2.5,-1 c 0,2.76 -2.24,5 -5,5 -2.76,0 -5,-2.24 -5,-5 0,-2.76 2.24,-5 5,-5 2.76,0 5,2.24 5,5 z"
         style="fill:#000000;fill-opacity:1;fill-rule:evenodd;stroke:#000000;stroke-width:1.00000003pt;stroke-opacity:1"
         transform="matrix(0.8,0,0,0.8,5.92,0.8)"
         inkscape:connector-curvature="0" />
    </marker>
    <clipPath
       clipPathUnits="userSpaceOnUse"
       id="clipPath22136">
      <path
         d="M 0,0 H 599.24542 V 345.97549 H 0 Z"
         id="path22134"
         inkscape:connector-curvature="0" />
    </clipPath>
    <clipPath
       clipPathUnits="userSpaceOnUse"
       id="clipPath22136-7">
      <path
         d="M 0,0 H 599.24542 V 345.97549 H 0 Z"
         id="path22134-7"
         inkscape:connector-curvature="0" />
    </clipPath>
    <clipPath
       clipPathUnits="userSpaceOnUse"
       id="clipPath22136-7-7">
      <path
         d="M 0,0 H 599.24542 V 345.97549 H 0 Z"
         id="path22134-7-9"
         inkscape:connector-curvature="0" />
    </clipPath>
    <clipPath
       clipPathUnits="userSpaceOnUse"
       id="clipPath22136-7-7-2">
      <path
         d="M 0,0 H 599.24542 V 345.97549 H 0 Z"
         id="path22134-7-9-3"
         inkscape:connector-curvature="0" />
    </clipPath>
    <clipPath
       clipPathUnits="userSpaceOnUse"
       id="clipPath22136-7-7-2-7">
      <path
         d="M 0,0 H 599.24542 V 345.97549 H 0 Z"
         id="path22134-7-9-3-2"
         inkscape:connector-curvature="0" />
    </clipPath>
    <clipPath
       clipPathUnits="userSpaceOnUse"
       id="clipPath22136-7-7-2-1">
      <path
         d="M 0,0 H 599.24542 V 345.97549 H 0 Z"
         id="path22134-7-9-3-7"
         inkscape:connector-curvature="0" />
    </clipPath>
    <marker
       inkscape:stockid="DotL"
       orient="auto"
       refY="0"
       refX="0"
       id="DotL-5"
       style="overflow:visible"
       inkscape:isstock="true">
      <path
         inkscape:connector-curvature="0"
         id="path49688-5"
         d="m -2.5,-1 c 0,2.76 -2.24,5 -5,5 -2.76,0 -5,-2.24 -5,-5 0,-2.76 2.24,-5 5,-5 2.76,0 5,2.24 5,5 z"
         style="fill:#000000;fill-opacity:1;fill-rule:evenodd;stroke:#000000;stroke-width:1.00000003pt;stroke-opacity:1"
         transform="matrix(0.8,0,0,0.8,5.92,0.8)" />
    </marker>
    <marker
       inkscape:stockid="Arrow1Lend"
       orient="auto"
       refY="0"
       refX="0"
       id="Arrow1Lend-6"
       style="overflow:visible"
       inkscape:isstock="true">
      <path
         inkscape:connector-curvature="0"
         id="path49630-0"
         d="M 0,0 5,-5 -12.5,0 5,5 Z"
         style="fill:#000000;fill-opacity:1;fill-rule:evenodd;stroke:#000000;stroke-width:1.00000003pt;stroke-opacity:1"
         transform="matrix(-0.8,0,0,-0.8,-10,0)" />
    </marker>
    <marker
       inkscape:stockid="Arrow1Lstart"
       orient="auto"
       refY="0"
       refX="0"
       id="Arrow1Lstart-2"
       style="overflow:visible"
       inkscape:isstock="true">
      <path
         inkscape:connector-curvature="0"
         id="path49627-6"
         d="M 0,0 5,-5 -12.5,0 5,5 Z"
         style="fill:#000000;fill-opacity:1;fill-rule:evenodd;stroke:#000000;stroke-width:1.00000003pt;stroke-opacity:1"
         transform="matrix(0.8,0,0,0.8,10,0)" />
    </marker>
  </defs>
  <sodipodi:namedview
     id="base"
     pagecolor="#ffffff"
     bordercolor="#666666"
     borderopacity="1.0"
     inkscape:pageopacity="0.0"
     inkscape:pageshadow="2"
     inkscape:zoom="1.979899"
     inkscape:cx="250.43782"
     inkscape:cy="-2.2063111"
     inkscape:document-units="mm"
     inkscape:current-layer="layer1"
     showgrid="false"
     fit-margin-top="0"
     fit-margin-left="0"
     fit-margin-right="0"
     fit-margin-bottom="0"
     showguides="true"
     inkscape:window-width="1916"
     inkscape:window-height="1041"
     inkscape:window-x="0"
     inkscape:window-y="18"
     inkscape:window-maximized="0"
     inkscape:guide-bbox="true"
     inkscape:lockguides="true">
    <sodipodi:guide
       position="-11.60406,49.853703"
       orientation="1,0"
       id="guide49520"
       inkscape:locked="true" />
  </sodipodi:namedview>
  <metadata
     id="metadata48083">
    <rdf:RDF>
      <cc:Work
         rdf:about="">
        <dc:format>image/svg+xml</dc:format>
        <dc:type
           rdf:resource="http://purl.org/dc/dcmitype/StillImage" />
        <dc:title></dc:title>
      </cc:Work>
    </rdf:RDF>
  </metadata>
  <g
     inkscape:label="Calque 1"
     inkscape:groupmode="layer"
     id="layer1"
     transform="translate(-42.262577,-103.49712)">
    <g
       id="g22128"
       transform="matrix(0.12515497,0,0,-0.12515497,47.429797,161.69021)">
      <g
         id="g22130">
        <g
           id="g22132" />
        <g
           id="g22148">
          <g
             clip-path="url(#clipPath22136)"
             id="g22146">
            <g
               transform="matrix(1,0,0,-1,0,345.97549)"
               id="g22144">
              <g
                 id="g22142">
                <g
                   id="g22140">
                  <path
                     d="m 86.734,69.613 c 0,23.364 -18.941,42.305 -42.304,42.305 -23.364,0 -42.305,-18.941 -42.305,-42.305 0,-23.363 18.941,-42.301 42.305,-42.301 23.363,0 42.304,18.938 42.304,42.301 z"
                     style="fill:none;stroke:#000600;stroke-width:4.25196886;stroke-linecap:butt;stroke-linejoin:round;stroke-miterlimit:4;stroke-dasharray:none;stroke-opacity:1"
                     id="path22138"
                     inkscape:connector-curvature="0" />
                </g>
              </g>
            </g>
          </g>
        </g>
      </g>
    </g>
    <path
       inkscape:connector-curvature="0"
       id="path22172"
       style="fill:none;stroke:#000600;stroke-width:0.53215504;stroke-linecap:butt;stroke-linejoin:round;stroke-miterlimit:4;stroke-dasharray:none;stroke-opacity:1"
       d="m 58.284987,139.41419 c 0,2.92412 -2.37056,5.29418 -5.29455,5.29418 -2.92413,0 -5.29468,-2.37006 -5.29468,-5.29418 0,-2.924 2.37055,-5.29456 5.29468,-5.29456 2.92399,0 5.29455,2.37056 5.29455,5.29456 z" />
    <text
       id="text22200"
       style="font-variant:normal;font-weight:normal;font-size:2.46020174px;font-family:SFSS0700;-inkscape-font-specification:SFSS0700;writing-mode:lr-tb;fill:#000000;fill-opacity:1;fill-rule:nonzero;stroke:none;stroke-width:0.35277775"
       transform="rotate(90)"
       x="145.77116"
       y="-52.75462">
      <tspan
         style="stroke-width:0.35277775"
         id="tspan22198"
         sodipodi:role="line"
         y="-52.75462"
         x="145.77116 146.52815 147.28516">...</tspan>
    </text>
    <path
       d="m 58.284987,154.87433 c 0,2.924 -2.37056,5.29406 -5.29455,5.29406 -2.92413,0 -5.29468,-2.37006 -5.29468,-5.29406 0,-2.92412 2.37055,-5.29468 5.29468,-5.29468 2.92399,0 5.29455,2.37056 5.29455,5.29468 z"
       style="fill:none;stroke:#000600;stroke-width:0.53215504;stroke-linecap:butt;stroke-linejoin:round;stroke-miterlimit:4;stroke-dasharray:none;stroke-opacity:1"
       id="path22216"
       inkscape:connector-curvature="0" />
    <path
       d="m 58.284988,127.10207 17.162879,3.4638"
       style="fill:none;stroke:#000000;stroke-width:0.09386622;stroke-linecap:butt;stroke-linejoin:miter;stroke-miterlimit:4;stroke-dasharray:none;stroke-opacity:1"
       id="path22258"
       inkscape:connector-curvature="0"
       sodipodi:nodetypes="cc" />
    <path
       d="m 57.812517,137.52431 16.912174,-2.26765"
       style="fill:none;stroke:#000000;stroke-width:0.09386622;stroke-linecap:butt;stroke-linejoin:miter;stroke-miterlimit:4;stroke-dasharray:none;stroke-opacity:1"
       id="path22262"
       inkscape:connector-curvature="0"
       sodipodi:nodetypes="cc" />
    <path
       d="M 57.836187,152.86096 77.031822,139.45629"
       style="fill:none;stroke:#000000;stroke-width:0.09386622;stroke-linecap:butt;stroke-linejoin:miter;stroke-miterlimit:4;stroke-dasharray:none;stroke-opacity:1"
       id="path22266"
       inkscape:connector-curvature="0"
       sodipodi:nodetypes="cc" />
    <g
       id="g22456"
       transform="matrix(0.18080666,0,0,0.15375432,40.839351,105.42081)">
      <path
         inkscape:connector-curvature="0"
         id="path22454"
         style="fill:none;stroke:#000600;stroke-width:0.59321803;stroke-linecap:butt;stroke-linejoin:round;stroke-miterlimit:4;stroke-dasharray:0.593218, 1.186437;stroke-dashoffset:0;stroke-opacity:1"
         d="m 165.949,181.82 c 0,80.223 -14.051,145.258 -31.387,145.258 -17.335,0 -31.386,-65.035 -31.386,-145.258 0,-80.222 14.051,-145.258 31.386,-145.258 17.336,0 31.387,65.036 31.387,145.258 z" />
    </g>
    <g
       id="g22460"
       transform="matrix(0.12515497,0,0,0.12515497,47.429797,109.923)" />
    <text
       xml:space="preserve"
       style="font-style:normal;font-weight:normal;font-size:2.11666656px;line-height:125%;font-family:sans-serif;text-align:center;letter-spacing:0px;word-spacing:0px;text-anchor:middle;fill:#000000;fill-opacity:1;stroke:none;stroke-width:0.26458332px;stroke-linecap:butt;stroke-linejoin:miter;stroke-opacity:1"
       x="52.615433"
       y="120.46851"
       id="text48887"><tspan
         sodipodi:role="line"
         id="tspan48885"
         x="52.615433"
         y="120.46851"
         style="font-size:2.11666656px;text-align:center;text-anchor:middle;stroke-width:0.26458332px">input $\mathbf{x}$</tspan></text>
    <text
       xml:space="preserve"
       style="font-style:normal;font-weight:normal;font-size:2.11666656px;line-height:125%;font-family:sans-serif;text-align:center;letter-spacing:0px;word-spacing:0px;text-anchor:middle;fill:#000000;fill-opacity:1;stroke:none;stroke-width:0.26458332px;stroke-linecap:butt;stroke-linejoin:miter;stroke-opacity:1"
       x="52.898964"
       y="127.78446"
       id="text48887-7"><tspan
         sodipodi:role="line"
         id="tspan48885-0"
         x="52.898964"
         y="127.78446"
         style="font-size:2.11666656px;text-align:center;text-anchor:middle;stroke-width:0.26458332px">$x_0$</tspan></text>
    <text
       xml:space="preserve"
       style="font-style:normal;font-weight:normal;font-size:2.11666656px;line-height:125%;font-family:sans-serif;text-align:center;letter-spacing:0px;word-spacing:0px;text-anchor:middle;fill:#000000;fill-opacity:1;stroke:none;stroke-width:0.26458332px;stroke-linecap:butt;stroke-linejoin:miter;stroke-opacity:1"
       x="52.898964"
       y="140.32274"
       id="text48887-7-6"><tspan
         sodipodi:role="line"
         id="tspan48885-0-0"
         x="52.898964"
         y="140.32274"
         style="font-size:2.11666656px;text-align:center;text-anchor:middle;stroke-width:0.26458332px">$x_1$</tspan></text>
    <text
       xml:space="preserve"
       style="font-style:normal;font-weight:normal;font-size:2.11666656px;line-height:125%;font-family:sans-serif;text-align:center;letter-spacing:0px;word-spacing:0px;text-anchor:middle;fill:#000000;fill-opacity:1;stroke:none;stroke-width:0.26458332px;stroke-linecap:butt;stroke-linejoin:miter;stroke-opacity:1"
       x="52.898964"
       y="155.53627"
       id="text48887-7-6-4"><tspan
         sodipodi:role="line"
         id="tspan48885-0-0-1"
         x="52.898964"
         y="155.53627"
         style="font-size:2.11666656px;text-align:center;text-anchor:middle;stroke-width:0.26458332px">$x_n$</tspan></text>
    <text
       xml:space="preserve"
       style="font-style:normal;font-weight:normal;font-size:2.11666656px;line-height:125%;font-family:sans-serif;text-align:start;letter-spacing:0px;word-spacing:0px;text-anchor:start;fill:#000000;fill-opacity:1;stroke:none;stroke-width:0.26458332px;stroke-linecap:butt;stroke-linejoin:miter;stroke-opacity:1"
       x="66.825081"
       y="158.00912"
       id="text48887-3"><tspan
         sodipodi:role="line"
         id="tspan48885-5"
         x="66.825081"
         y="158.00912"
         style="font-size:2.11666656px;text-align:start;text-anchor:start;stroke-width:0.26458332px">weights $\mathbf{w}$</tspan></text>
    <text
       xml:space="preserve"
       style="font-style:normal;font-weight:normal;font-size:2.11666656px;line-height:125%;font-family:sans-serif;text-align:start;letter-spacing:0px;word-spacing:0px;text-anchor:start;fill:#000000;fill-opacity:1;stroke:none;stroke-width:0.26458332px;stroke-linecap:butt;stroke-linejoin:miter;stroke-opacity:1"
       x="122.25311"
       y="125.4437"
       id="text48887-3-4"><tspan
         sodipodi:role="line"
         x="122.25311"
         y="125.4437"
         style="font-size:2.11666656px;text-align:start;text-anchor:start;stroke-width:0.26458332px"
         id="tspan52112">activation function $z(a) = \left\{\begin{array}{rl}1 &amp; \mbox{if } a&gt;0 \\0 &amp; \mbox{otherwise}\end{array}\right.\nonumber$</tspan></text>
    <text
       xml:space="preserve"
       style="font-style:normal;font-weight:normal;font-size:2.11666656px;line-height:125%;font-family:sans-serif;text-align:start;letter-spacing:0px;word-spacing:0px;text-anchor:start;fill:#000000;fill-opacity:1;stroke:none;stroke-width:0.26458332px;stroke-linecap:butt;stroke-linejoin:miter;stroke-opacity:1"
       x="88.212204"
       y="111.8615"
       id="text48887-3-4-6"><tspan
         sodipodi:role="line"
         id="tspan48885-5-3-4"
         x="88.212204"
         y="111.8615"
         style="font-size:2.11666656px;text-align:start;text-anchor:start;stroke-width:0.26458332px">transfer function $a(\mathbf{x}) = b + \sum\limits_{i=1}^{n}( x_i w_i)$</tspan></text>
    <text
       xml:space="preserve"
       style="font-style:normal;font-weight:normal;font-size:2.11666656px;line-height:125%;font-family:sans-serif;text-align:start;letter-spacing:0px;word-spacing:0px;text-anchor:start;fill:#000000;fill-opacity:1;stroke:none;stroke-width:0.26458332px;stroke-linecap:butt;stroke-linejoin:miter;stroke-opacity:1"
       x="163.68434"
       y="136.98035"
       id="text48887-3-4-6-3"><tspan
         sodipodi:role="line"
         id="tspan48885-5-3-4-1"
         x="163.68434"
         y="136.98035"
         style="font-size:2.11666656px;text-align:start;text-anchor:start;stroke-width:0.26458332px">output $y=z(a)$</tspan></text>
    <g
       id="g22128-4"
       transform="matrix(0.12515497,0,0,-0.12515497,47.538688,143.64552)">
      <g
         id="g22130-1">
        <g
           id="g22132-1" />
        <g
           id="g22148-9">
          <g
             clip-path="url(#clipPath22136-7)"
             id="g22146-1">
            <g
               transform="matrix(1,0,0,-1,0,345.97549)"
               id="g22144-3">
              <g
                 id="g22142-8">
                <g
                   id="g22140-7">
                  <path
                     d="m 86.734,69.613 c 0,23.364 -18.941,42.305 -42.304,42.305 -23.364,0 -42.305,-18.941 -42.305,-42.305 0,-23.363 18.941,-42.301 42.305,-42.301 23.363,0 42.304,18.938 42.304,42.301 z"
                     style="fill:none;stroke:#000600;stroke-width:4.25196886;stroke-linecap:butt;stroke-linejoin:round;stroke-miterlimit:4;stroke-dasharray:none;stroke-opacity:1"
                     id="path22138-4"
                     inkscape:connector-curvature="0" />
                </g>
              </g>
            </g>
          </g>
        </g>
      </g>
    </g>
    <text
       xml:space="preserve"
       style="font-style:normal;font-weight:normal;font-size:2.11666656px;line-height:125%;font-family:sans-serif;text-align:center;letter-spacing:0px;word-spacing:0px;text-anchor:middle;fill:#000000;fill-opacity:1;stroke:none;stroke-width:0.26458332px;stroke-linecap:butt;stroke-linejoin:miter;stroke-opacity:1"
       x="53.007854"
       y="109.73975"
       id="text48887-7-9"><tspan
         sodipodi:role="line"
         id="tspan48885-0-3"
         x="53.007854"
         y="109.73975"
         style="font-size:2.11666656px;text-align:center;text-anchor:middle;stroke-width:0.26458332px">$1$</tspan></text>
    <path
       d="m 57.592071,112.01044 21.400864,15.74721"
       style="fill:none;stroke:#000000;stroke-width:0.09386622;stroke-linecap:butt;stroke-linejoin:miter;stroke-miterlimit:4;stroke-dasharray:none;stroke-opacity:1"
       id="path22258-1"
       inkscape:connector-curvature="0"
       sodipodi:nodetypes="cc" />
    <g
       id="g49311"
       transform="translate(-1.22842,13.607142)">
      <g
         style="fill:#ffffff;fill-opacity:1;stroke-width:5.4759264;stroke-miterlimit:4;stroke-dasharray:none"
         transform="matrix(0.073047,0,0,-0.073047,63.249644,124.275)"
         id="g22128-4-3">
        <g
           style="fill:#ffffff;fill-opacity:1;stroke-width:5.4759264;stroke-miterlimit:4;stroke-dasharray:none"
           id="g22130-1-8">
          <g
             style="fill:#ffffff;fill-opacity:1;stroke-width:5.4759264;stroke-miterlimit:4;stroke-dasharray:none"
             id="g22132-1-8" />
          <g
             style="fill:#ffffff;fill-opacity:1;stroke-width:5.4759264;stroke-miterlimit:4;stroke-dasharray:none"
             id="g22148-9-4">
            <g
               style="fill:#ffffff;fill-opacity:1;stroke-width:5.4759264;stroke-miterlimit:4;stroke-dasharray:none"
               id="g22146-1-0"
               clip-path="url(#clipPath22136-7-7)">
              <g
                 style="fill:#ffffff;fill-opacity:1;stroke-width:5.4759264;stroke-miterlimit:4;stroke-dasharray:none"
                 id="g22144-3-0"
                 transform="matrix(1,0,0,-1,0,345.97549)">
                <g
                   style="fill:#ffffff;fill-opacity:1;stroke-width:5.4759264;stroke-miterlimit:4;stroke-dasharray:none"
                   id="g22142-8-8">
                  <g
                     style="fill:#ffffff;fill-opacity:1;stroke-width:5.4759264;stroke-miterlimit:4;stroke-dasharray:none"
                     id="g22140-7-6">
                    <path
                       inkscape:connector-curvature="0"
                       id="path22138-4-8"
                       style="fill:#ffffff;fill-opacity:1;stroke:#000600;stroke-width:5.4759264;stroke-linecap:butt;stroke-linejoin:round;stroke-miterlimit:4;stroke-dasharray:none;stroke-opacity:1"
                       d="m 86.734,69.613 c 0,23.364 -18.941,42.305 -42.304,42.305 -23.364,0 -42.305,-18.941 -42.305,-42.305 0,-23.363 18.941,-42.301 42.305,-42.301 23.363,0 42.304,18.938 42.304,42.301 z" />
                  </g>
                </g>
              </g>
            </g>
          </g>
        </g>
      </g>
      <text
         id="text48887-7-3-3"
         y="104.73624"
         x="66.51799"
         style="font-style:normal;font-weight:normal;font-size:2.11666656px;line-height:125%;font-family:sans-serif;text-align:center;letter-spacing:0px;word-spacing:0px;text-anchor:middle;fill:#000000;fill-opacity:1;stroke:none;stroke-width:0.26458332px;stroke-linecap:butt;stroke-linejoin:miter;stroke-opacity:1"
         xml:space="preserve"><tspan
           style="font-size:2.11666656px;text-align:center;text-anchor:middle;stroke-width:0.26458332px"
           y="104.73624"
           x="66.51799"
           id="tspan48885-0-02-8"
           sodipodi:role="line">$b$</tspan></text>
    </g>
    <g
       id="g49492"
       transform="translate(-10.772322,25.097618)">
      <g
         style="fill:#ffffff;fill-opacity:1;stroke-width:5.4759264;stroke-miterlimit:4;stroke-dasharray:none"
         transform="matrix(0.073047,0,0,-0.073047,72.793546,123.6131)"
         id="g22128-4-3-5">
        <g
           style="fill:#ffffff;fill-opacity:1;stroke-width:5.4759264;stroke-miterlimit:4;stroke-dasharray:none"
           id="g22130-1-8-0">
          <g
             style="fill:#ffffff;fill-opacity:1;stroke-width:5.4759264;stroke-miterlimit:4;stroke-dasharray:none"
             id="g22132-1-8-5" />
          <g
             style="fill:#ffffff;fill-opacity:1;stroke-width:5.4759264;stroke-miterlimit:4;stroke-dasharray:none"
             id="g22148-9-4-9">
            <g
               style="fill:#ffffff;fill-opacity:1;stroke-width:5.4759264;stroke-miterlimit:4;stroke-dasharray:none"
               id="g22146-1-0-2"
               clip-path="url(#clipPath22136-7-7-2)">
              <g
                 style="fill:#ffffff;fill-opacity:1;stroke-width:5.4759264;stroke-miterlimit:4;stroke-dasharray:none"
                 id="g22144-3-0-6"
                 transform="matrix(1,0,0,-1,0,345.97549)">
                <g
                   style="fill:#ffffff;fill-opacity:1;stroke-width:5.4759264;stroke-miterlimit:4;stroke-dasharray:none"
                   id="g22142-8-8-8">
                  <g
                     style="fill:#ffffff;fill-opacity:1;stroke-width:5.4759264;stroke-miterlimit:4;stroke-dasharray:none"
                     id="g22140-7-6-5">
                    <path
                       inkscape:connector-curvature="0"
                       id="path22138-4-8-2"
                       style="fill:#ffffff;fill-opacity:1;stroke:#000600;stroke-width:5.4759264;stroke-linecap:butt;stroke-linejoin:round;stroke-miterlimit:4;stroke-dasharray:none;stroke-opacity:1"
                       d="m 86.734,69.613 c 0,23.364 -18.941,42.305 -42.304,42.305 -23.364,0 -42.305,-18.941 -42.305,-42.305 0,-23.363 18.941,-42.301 42.305,-42.301 23.363,0 42.304,18.938 42.304,42.301 z" />
                  </g>
                </g>
              </g>
            </g>
          </g>
        </g>
      </g>
      <text
         id="text48887-7-3-3-8"
         y="104.07434"
         x="76.06189"
         style="font-style:normal;font-weight:normal;font-size:2.11666656px;line-height:125%;font-family:sans-serif;text-align:center;letter-spacing:0px;word-spacing:0px;text-anchor:middle;fill:#000000;fill-opacity:1;stroke:none;stroke-width:0.26458332px;stroke-linecap:butt;stroke-linejoin:miter;stroke-opacity:1"
         xml:space="preserve"><tspan
           style="font-size:2.11666656px;text-align:center;text-anchor:middle;stroke-width:0.26458332px"
           y="104.07434"
           x="76.06189"
           id="tspan48885-0-02-8-3"
           sodipodi:role="line">$w_0$</tspan></text>
    </g>
    <g
       id="g49518"
       transform="translate(-31.938989,35.86994)">
      <g
         style="fill:#ffffff;fill-opacity:1;stroke-width:5.4759264;stroke-miterlimit:4;stroke-dasharray:none"
         transform="matrix(0.073047,0,0,-0.073047,93.960213,120.96727)"
         id="g22128-4-3-5-6">
        <g
           style="fill:#ffffff;fill-opacity:1;stroke-width:5.4759264;stroke-miterlimit:4;stroke-dasharray:none"
           id="g22130-1-8-0-6">
          <g
             style="fill:#ffffff;fill-opacity:1;stroke-width:5.4759264;stroke-miterlimit:4;stroke-dasharray:none"
             id="g22132-1-8-5-2" />
          <g
             style="fill:#ffffff;fill-opacity:1;stroke-width:5.4759264;stroke-miterlimit:4;stroke-dasharray:none"
             id="g22148-9-4-9-9">
            <g
               style="fill:#ffffff;fill-opacity:1;stroke-width:5.4759264;stroke-miterlimit:4;stroke-dasharray:none"
               id="g22146-1-0-2-7"
               clip-path="url(#clipPath22136-7-7-2-7)">
              <g
                 style="fill:#ffffff;fill-opacity:1;stroke-width:5.4759264;stroke-miterlimit:4;stroke-dasharray:none"
                 id="g22144-3-0-6-0"
                 transform="matrix(1,0,0,-1,0,345.97549)">
                <g
                   style="fill:#ffffff;fill-opacity:1;stroke-width:5.4759264;stroke-miterlimit:4;stroke-dasharray:none"
                   id="g22142-8-8-8-3">
                  <g
                     style="fill:#ffffff;fill-opacity:1;stroke-width:5.4759264;stroke-miterlimit:4;stroke-dasharray:none"
                     id="g22140-7-6-5-7">
                    <path
                       inkscape:connector-curvature="0"
                       id="path22138-4-8-2-2"
                       style="fill:#ffffff;fill-opacity:1;stroke:#000600;stroke-width:5.4759264;stroke-linecap:butt;stroke-linejoin:round;stroke-miterlimit:4;stroke-dasharray:none;stroke-opacity:1"
                       d="m 86.734,69.613 c 0,23.364 -18.941,42.305 -42.304,42.305 -23.364,0 -42.305,-18.941 -42.305,-42.305 0,-23.363 18.941,-42.301 42.305,-42.301 23.363,0 42.304,18.938 42.304,42.301 z" />
                  </g>
                </g>
              </g>
            </g>
          </g>
        </g>
      </g>
      <text
         id="text48887-7-3-3-8-3"
         y="101.42851"
         x="97.228554"
         style="font-style:normal;font-weight:normal;font-size:2.11666656px;line-height:125%;font-family:sans-serif;text-align:center;letter-spacing:0px;word-spacing:0px;text-anchor:middle;fill:#000000;fill-opacity:1;stroke:none;stroke-width:0.26458332px;stroke-linecap:butt;stroke-linejoin:miter;stroke-opacity:1"
         xml:space="preserve"><tspan
           style="font-size:2.11666656px;text-align:center;text-anchor:middle;stroke-width:0.26458332px"
           y="101.42851"
           x="97.228554"
           id="tspan48885-0-02-8-3-5"
           sodipodi:role="line">$w_1$</tspan></text>
    </g>
    <g
       id="g49505"
       transform="translate(-21.261161,55.241219)">
      <g
         style="fill:#ffffff;fill-opacity:1;stroke-width:5.4759264;stroke-miterlimit:4;stroke-dasharray:none"
         transform="matrix(0.073047,0,0,-0.073047,83.282385,112.4628)"
         id="g22128-4-3-5-8">
        <g
           style="fill:#ffffff;fill-opacity:1;stroke-width:5.4759264;stroke-miterlimit:4;stroke-dasharray:none"
           id="g22130-1-8-0-9">
          <g
             style="fill:#ffffff;fill-opacity:1;stroke-width:5.4759264;stroke-miterlimit:4;stroke-dasharray:none"
             id="g22132-1-8-5-4" />
          <g
             style="fill:#ffffff;fill-opacity:1;stroke-width:5.4759264;stroke-miterlimit:4;stroke-dasharray:none"
             id="g22148-9-4-9-1">
            <g
               style="fill:#ffffff;fill-opacity:1;stroke-width:5.4759264;stroke-miterlimit:4;stroke-dasharray:none"
               id="g22146-1-0-2-6"
               clip-path="url(#clipPath22136-7-7-2-1)">
              <g
                 style="fill:#ffffff;fill-opacity:1;stroke-width:5.4759264;stroke-miterlimit:4;stroke-dasharray:none"
                 id="g22144-3-0-6-4"
                 transform="matrix(1,0,0,-1,0,345.97549)">
                <g
                   style="fill:#ffffff;fill-opacity:1;stroke-width:5.4759264;stroke-miterlimit:4;stroke-dasharray:none"
                   id="g22142-8-8-8-35">
                  <g
                     style="fill:#ffffff;fill-opacity:1;stroke-width:5.4759264;stroke-miterlimit:4;stroke-dasharray:none"
                     id="g22140-7-6-5-4">
                    <path
                       inkscape:connector-curvature="0"
                       id="path22138-4-8-2-8"
                       style="fill:#ffffff;fill-opacity:1;stroke:#000600;stroke-width:5.4759264;stroke-linecap:butt;stroke-linejoin:round;stroke-miterlimit:4;stroke-dasharray:none;stroke-opacity:1"
                       d="m 86.734,69.613 c 0,23.364 -18.941,42.305 -42.304,42.305 -23.364,0 -42.305,-18.941 -42.305,-42.305 0,-23.363 18.941,-42.301 42.305,-42.301 23.363,0 42.304,18.938 42.304,42.301 z" />
                  </g>
                </g>
              </g>
            </g>
          </g>
        </g>
      </g>
      <text
         id="text48887-7-3-3-8-7"
         y="92.924049"
         x="86.550728"
         style="font-style:normal;font-weight:normal;font-size:2.11666656px;line-height:125%;font-family:sans-serif;text-align:center;letter-spacing:0px;word-spacing:0px;text-anchor:middle;fill:#000000;fill-opacity:1;stroke:none;stroke-width:0.26458332px;stroke-linecap:butt;stroke-linejoin:miter;stroke-opacity:1"
         xml:space="preserve"><tspan
           style="font-size:2.11666656px;text-align:center;text-anchor:middle;stroke-width:0.26458332px"
           y="92.924049"
           x="86.550728"
           id="tspan48885-0-02-8-3-3"
           sodipodi:role="line">$w_n$</tspan></text>
    </g>
    <g
       id="g49614"
       transform="translate(-6.1124313,36.265399)">
      <path
         inkscape:connector-curvature="0"
         id="path22250-5"
         style="fill:none;stroke:#000600;stroke-width:0.40000001;stroke-linecap:butt;stroke-linejoin:round;stroke-miterlimit:4;stroke-dasharray:none;stroke-opacity:1"
         d="m 94.066027,97.822562 c 0,3.717048 -3.012919,6.729968 -6.729648,6.729968 -3.71673,0 -6.729886,-3.01292 -6.729886,-6.729968 0,-3.716737 3.013156,-6.729649 6.729886,-6.729649 3.716729,0 6.729648,3.012912 6.729648,6.729649 z" />
      <path
         d="m 84.720481,94.502485 0.0054,0.20776 2.54753,3.17531 -2.57594,3.064295 -0.0073,0.19311 4.994434,-0.0259 c 0.04894,-0.61839 0.182852,-1.257435 0.297744,-1.867065 l -0.162326,-0.0405 c -0.151563,0.34129 -0.259071,0.7065 -0.58172,0.932785 -0.353939,0.24843 -0.820892,0.21714 -1.231025,0.21714 h -2.299222 l 2.343652,-2.831265 -2.113366,-2.64189 1.230523,-0.005 c 0.788477,0 1.910491,-0.19011 2.222377,0.75781 0.05332,0.16182 0.09049,0.33041 0.104129,0.50062 h 0.175592 l -0.134917,-1.63678 z"
         style="fill:#000000;fill-opacity:1;fill-rule:nonzero;stroke:none;stroke-width:0.12515497"
         id="path22482-0"
         inkscape:connector-curvature="0" />
    </g>
    <path
       style="fill:none;fill-rule:evenodd;stroke:#000000;stroke-width:0.15000001;stroke-linecap:butt;stroke-linejoin:miter;stroke-miterlimit:4;stroke-dasharray:none;stroke-opacity:1;marker-start:url(#DotL)"
       d="m 82.109453,127.39431 5.252431,-15.47368"
       id="path49897"
       inkscape:connector-curvature="0"
       sodipodi:nodetypes="cc" />
    <g
       id="g51605"
       transform="translate(21.166667,3.1749999)">
      <g
         transform="translate(17.044612,37.203036)"
         id="g49610">
        <g
           id="g22486-7"
           transform="matrix(0.12515497,0,0,0.12515497,54.109619,71.112817)">
          <path
             inkscape:connector-curvature="0"
             id="path22484-8"
             style="fill:none;stroke:#000000;stroke-width:0.36598301;stroke-linecap:butt;stroke-linejoin:miter;stroke-miterlimit:4;stroke-dasharray:none;stroke-opacity:1"
             d="m 308.762,178.77 54.437,0.085" />
        </g>
        <g
           id="g22490-9"
           transform="matrix(0.12515497,0,0,0.12515497,54.109619,71.112817)">
          <path
             inkscape:connector-curvature="0"
             id="path22488-9"
             style="fill:none;stroke:#000000;stroke-width:0.36598301;stroke-linecap:butt;stroke-linejoin:miter;stroke-miterlimit:4;stroke-dasharray:none;stroke-opacity:1"
             d="m 336.023,144.355 -0.085,68.915" />
        </g>
        <g
           id="g22494-3"
           transform="matrix(0.12515497,0,0,0.12515497,54.109619,71.112817)">
          <path
             inkscape:connector-curvature="0"
             id="path22492-9"
             style="fill:none;stroke:#000000;stroke-width:3.41944408;stroke-linecap:round;stroke-linejoin:miter;stroke-miterlimit:4;stroke-dasharray:none;stroke-opacity:1"
             d="m 313.344,205.281 22.613,0.133 0.133,-51.762 h 21.433" />
        </g>
      </g>
      <path
         inkscape:connector-curvature="0"
         id="path22250-5-6"
         style="fill:none;stroke:#000600;stroke-width:0.40000001;stroke-linecap:butt;stroke-linejoin:round;stroke-miterlimit:4;stroke-dasharray:none;stroke-opacity:1"
         d="m 119.97859,130.91296 c 0,3.71705 -3.01292,6.72997 -6.72965,6.72997 -3.71673,0 -6.72988,-3.01292 -6.72988,-6.72997 0,-3.71673 3.01315,-6.72965 6.72988,-6.72965 3.71673,0 6.72965,3.01292 6.72965,6.72965 z" />
    </g>
    <path
       style="fill:none;fill-rule:evenodd;stroke:#000000;stroke-width:0.15000001;stroke-linecap:butt;stroke-linejoin:miter;stroke-miterlimit:4;stroke-dasharray:none;stroke-opacity:1;marker-end:url(#Arrow1Lend)"
       d="m 87.953596,134.15385 39.707684,-0.0937"
       id="path49897-5"
       inkscape:connector-curvature="0"
       sodipodi:nodetypes="cc" />
    <text
       xml:space="preserve"
       style="font-style:normal;font-weight:normal;font-size:1.41111112px;line-height:125%;font-family:sans-serif;text-align:center;letter-spacing:0px;word-spacing:0px;text-anchor:middle;fill:#000000;fill-opacity:1;stroke:none;stroke-width:0.26458332px;stroke-linecap:butt;stroke-linejoin:miter;stroke-opacity:1"
       x="106.63858"
       y="133.03938"
       id="text51583"><tspan
         sodipodi:role="line"
         id="tspan51581"
         x="106.8632"
         y="133.03938"
         style="text-align:center;text-anchor:middle;stroke-width:0.26458332px">net input $a$ </tspan></text>
    <path
       style="fill:none;fill-rule:evenodd;stroke:#000000;stroke-width:0.15000001;stroke-linecap:butt;stroke-linejoin:miter;stroke-miterlimit:4;stroke-dasharray:none;stroke-opacity:1;marker-end:url(#Arrow1Lend-6)"
       d="m 141.14527,134.08795 39.70769,-0.0937"
       id="path49897-5-6"
       inkscape:connector-curvature="0"
       sodipodi:nodetypes="cc" />
    <text
       xml:space="preserve"
       style="font-style:normal;font-weight:normal;font-size:2.11666656px;line-height:125%;font-family:sans-serif;text-align:start;letter-spacing:0px;word-spacing:0px;text-anchor:start;fill:#000000;fill-opacity:1;stroke:none;stroke-width:0.26458332px;stroke-linecap:butt;stroke-linejoin:miter;stroke-opacity:1"
       x="68.497292"
       y="113.84535"
       id="text48887-3-2"><tspan
         sodipodi:role="line"
         id="tspan48885-5-6"
         x="68.497292"
         y="113.84535"
         style="font-size:2.11666656px;text-align:start;text-anchor:start;stroke-width:0.26458332px">bias $b$</tspan></text>
    <path
       style="fill:none;fill-rule:evenodd;stroke:#000000;stroke-width:0.15000001;stroke-linecap:butt;stroke-linejoin:miter;stroke-miterlimit:4;stroke-dasharray:0.15000001, 0.15000001;stroke-dashoffset:0;stroke-opacity:1;marker-start:url(#marker52218);marker-end:url(#marker52154)"
       d="m 146.41644,134.10841 0.0668,14.36574 H 69.791318"
       id="path52144"
       inkscape:connector-curvature="0"
       sodipodi:nodetypes="ccc" />
    <rect
       style="opacity:1;fill:#ffffff;fill-opacity:1;stroke:#000000;stroke-width:0.18918385;stroke-linejoin:round;stroke-miterlimit:4;stroke-dasharray:0.18918384, 0.18918384;stroke-dashoffset:0;stroke-opacity:1"
       id="rect52198"
       width="32.555786"
       height="6.9735165"
       x="91.187286"
       y="145.13599"
       ry="1.6020241" />
    <text
       xml:space="preserve"
       style="font-style:normal;font-weight:normal;font-size:1.41111112px;line-height:125%;font-family:sans-serif;text-align:center;letter-spacing:0px;word-spacing:0px;text-anchor:middle;fill:#000000;fill-opacity:1;stroke:none;stroke-width:0.26458332px;stroke-linecap:butt;stroke-linejoin:miter;stroke-opacity:1"
       x="107.48516"
       y="149.1488"
       id="text52202"><tspan
         sodipodi:role="line"
         id="tspan52200"
         x="107.48516"
         y="149.1488"
         style="text-align:center;text-anchor:middle;stroke-width:0.26458332px">correction : $\Delta \mathbf{w}$, $\Delta b$</tspan></text>
    <text
       xml:space="preserve"
       style="font-style:normal;font-weight:normal;font-size:2.11666656px;line-height:125%;font-family:sans-serif;text-align:end;letter-spacing:0px;word-spacing:0px;text-anchor:end;fill:#000000;fill-opacity:1;stroke:none;stroke-width:0.26458332px;stroke-linecap:butt;stroke-linejoin:miter;stroke-opacity:1"
       x="173.71384"
       y="172.10941"
       id="text48887-3-2-6-6"><tspan
         sodipodi:role="line"
         id="tspan48885-5-6-5-0"
         x="173.71384"
         y="172.10941"
         style="font-size:2.11666656px;text-align:end;text-anchor:end;stroke-width:0.26458332px">\textsc{Backward propagation}</tspan></text>
    <path
       style="fill:none;fill-rule:evenodd;stroke:#000000;stroke-width:0.26458332;stroke-linecap:butt;stroke-linejoin:miter;stroke-miterlimit:4;stroke-dasharray:0.13229166, 0.13229166;stroke-dashoffset:0;stroke-opacity:1;marker-start:url(#Arrow1Lstart)"
       d="M 50.664018,173.15219 H 173.65902"
       id="path52704"
       inkscape:connector-curvature="0"
       sodipodi:nodetypes="cc" />
    <text
       xml:space="preserve"
       style="font-style:normal;font-weight:normal;font-size:2.11666656px;line-height:125%;font-family:sans-serif;text-align:start;letter-spacing:0px;word-spacing:0px;text-anchor:start;fill:#000000;fill-opacity:1;stroke:none;stroke-width:0.26458332px;stroke-linecap:butt;stroke-linejoin:miter;stroke-opacity:1"
       x="50.592758"
       y="166.79884"
       id="text48887-3-2-6-6-9"><tspan
         sodipodi:role="line"
         id="tspan48885-5-6-5-0-3"
         x="50.592758"
         y="166.79884"
         style="font-size:2.11666656px;text-align:start;text-anchor:start;stroke-width:0.26458332px">\textsc{Feed forward}</tspan></text>
    <path
       style="fill:none;fill-rule:evenodd;stroke:#000000;stroke-width:0.26458332;stroke-linecap:butt;stroke-linejoin:miter;stroke-miterlimit:4;stroke-dasharray:0.13229166, 0.13229166;stroke-dashoffset:0;stroke-opacity:1;marker-start:url(#Arrow1Lstart-2)"
       d="M 173.65902,167.84167 H 50.664018"
       id="path52704-0"
       inkscape:connector-curvature="0"
       sodipodi:nodetypes="cc" />
    <path
       style="fill:none;fill-rule:evenodd;stroke:#000000;stroke-width:0.1;stroke-linecap:butt;stroke-linejoin:miter;stroke-opacity:1;stroke-miterlimit:4;stroke-dasharray:none;marker-end:url(#marker52714)"
       d="m 107.08549,159.18777 v -7.18155"
       id="path1033"
       inkscape:connector-curvature="0" />
    <text
       xml:space="preserve"
       style="font-style:normal;font-weight:normal;font-size:2.11666656px;line-height:125%;font-family:sans-serif;text-align:center;letter-spacing:0px;word-spacing:0px;text-anchor:middle;fill:#000000;fill-opacity:1;stroke:none;stroke-width:0.26458332px;stroke-linecap:butt;stroke-linejoin:miter;stroke-opacity:1"
       x="107.2037"
       y="161.63019"
       id="text48887-3-2-6-6-9-3"><tspan
         sodipodi:role="line"
         id="tspan48885-5-6-5-0-3-6"
         x="107.2037"
         y="161.63019"
         style="font-size:2.11666656px;text-align:center;text-anchor:middle;stroke-width:0.26458332px">label $t$</tspan></text>
  </g>
</svg>
